русский 0.0035452807646496587 1.2527493868019995e-05
автор 0.09867903574690305 0.0003486891722505408
польский 0.67493176346858 0.0023849178921151234
вагриус 0.7676858167054786 0.0027126707304080517
прозаик 0.21484384804769785 0.000759165540804586
повесть 0.11218150615055017 0.0003964010818040642
поколение 0.5713911715615104 0.002019050076189083
последний 0.0 0.0
большой 0.21484384804769785 0.000759165540804586
аспект 0.94377707576116 0.0033349013277779505
книгиправить 1.1868151244474543 0.004193693019248955
калининградский 1.6127838567197355 0.005698882885935461
настоящий 0.3264771178764606 0.0011536293917896135
послание 1.1868151244474543 0.004193693019248955
окончить 0.17082701906332404 0.0006036290426265867
лауреат 0.30457527642863086 0.001076237725896222
пожертвовать 0.0 0.0
описание 0.0 0.0
стален 2.089905111439398 0.007384823715333562
политика 0.0 0.0
настольный 0.0 0.0
журнал 0.03682666795597817 0.00013012956874903947
ю.буйд 2.089905111439398 0.007384823715333562
облако 1.089905111439398 0.0038512548107399224
литература 0.05648135595244821 0.00019958076308285587
известие 0.5101215148225878 0.0018025495223412996
щина 2.089905111439398 0.007384823715333562
окно 0.8857851287834732 0.0031299827872207533
следить 0.0 0.0
проживать 0.521703387372403 0.0018434748670402932
кандидат 0.6427470800971787 0.002271191095749748
отредактировать 0.0 0.0
университет 0.15540666019583024 0.0005491401420347358
книга 0.0445821326527405 0.00015753403764219256
медиафайл 0.1503858588207794 0.0005313987944197152
роман 0.10763387839982952 0.0003803317257944506
сборникиправить 1.6127838567197355 0.005698882885935461
служащий 1.2448070714251411 0.004398611559806152
аполлон 0.9138138523837167 0.0032290242133700235
виверный 2.089905111439398 0.007384823715333562
премия 0.16562582537751624 0.0005852502663516475
с.ссылкиправить 1.6127838567197355 0.005698882885935461
журналист 0.34171708443319754 0.001207480863721546
покидать 1.2448070714251411 0.004398611559806152
пятый 0.728177275421805 0.0025730645774622086
т. 0.20909151915860658 0.0007388392903130974
к. 0.21484384804769785 0.000759165540804586
лилия 1.6127838567197355 0.005698882885935461
художественный 0.2206733917084217 0.0007797646350120908
лита 0.7096938697277919 0.002507752189850855
май 0.16562582537751624 0.0005852502663516475
синий 0.9759617591325612 0.003448628124143326
григорьев 0.8346326063360918 0.0029492318245091585
вторичный 1.390935107103379 0.0049149650427681236
лицензия 0.0 0.0
возраст 0.49884050441289873 0.0017626872947452252
биографияправить 0.06871581236945988 0.00024281205784261443
левый 0.8857851287834732 0.0031299827872207533
сотрудничать 0.49884050441289873 0.0017626872947452252
первый 0.05247861349877426 0.00018543679681545675
дом 0.13566260200007307 0.0004793731519437211
сад 0.6427470800971787 0.002271191095749748
вик.ерофеев 2.089905111439398 0.007384823715333562
а. 0.04851242628117289 0.00017142200099354377
пер 0.6127838567197355 0.0021653139813418215
время 0.0770678867342257 0.00027232468810680456
конец 0.20341438626691605 0.000718778750059774
букеровский 1.3117538610557542 0.004635172653907259
источник 0.0 0.0
биография 0.07287177214061759 0.0002574974280587194
доступно 0.0 0.0
а.битов 2.089905111439398 0.007384823715333562
скорее 0.811151510486569 0.0028662597543695017
ответственность 0.0 0.0
птица 0.94377707576116 0.0033349013277779505
недоступный 0.2703611758975292 0.0009553398441608807
женщина 0.5713911715615104 0.002019050076189083
соло 1.4878451201114355 0.005257403251277157
норвегия 1.390935107103379 0.0049149650427681236
рассказ 0.10313337717315306 0.0003644288946047811
любовь 0.2573961987331616 0.0009095272040041047
финский 1.135662602000073 0.004012942056537361
степень 0.33403025576690654 0.0011803189249714012
комический 1.2448070714251411 0.004398611559806152
редактироваться 0.029207271085786267 0.00010320590489677126
невеста 0.811151510486569 0.0028662597543695017
лев 0.48784512011143555 0.0017238343466835179
фотокорреспондент 1.7888751157754168 0.00632111348330536
шорт-лист 0.9759617591325612 0.003448628124143326
концепт 1.6127838567197355 0.005698882885935461
рсфср 0.39093510710337914 0.0013813961381744847
статистика 0.0 0.0
область 0.18681512444745438 0.0006601241146553158
мир 0.13086371911830436 0.00046241596861591646
польша 0.7474824306171917 0.002641280673558981
издаваться 0.811151510486569 0.0028662597543695017
викисклад 0.18681512444745438 0.0006601241146553158
язык 0.0 0.0
связь 0.39093510710337914 0.0013813961381744847
юрий 0.39970903141088426 0.001412399404278743
м. 0.06459924617462771 0.0002282658875428541
знамя 0.3575113516164294 0.0012632909951110578
ил 0.728177275421805 0.0025730645774622086
яд 1.3117538610557542 0.004635172653907259
содержать 0.5101215148225878 0.0018025495223412996
век 0.1814200925607482 0.0006410603977411597
март 0.14051510479448517 0.0004965198049275095
аркадия 1.7888751157754168 0.00632111348330536
рубеж 0.6919651027673603 0.0024451063702026865
этот 0.0 0.0
ю. 0.23864676272032262 0.0008432747799304686
главное 0.0 0.0
дебют 0.43669259766405427 0.0015430833839719233
гаврилов 1.7888751157754168 0.00632111348330536
указать 0.0 0.0
жанр 0.19227802014895654 0.0006794276330351821
печ 1.7888751157754168 0.00632111348330536
автореферат 1.3117538610557542 0.004635172653907259
н. 0.11218150615055017 0.0003964010818040642
е. 0.1604861857251052 0.0005670889954950713
смотреть 0.17609125905568124 0.0006222305973698983
посёлок 0.6585413472804106 0.00232700122713926
произведение 0.010723865391773066 3.7893517285417196e-05
получить 0.17082701906332404 0.0006036290426265867
сорокин 1.1868151244474543 0.004193693019248955
город 0.1604861857251052 0.0005670889954950713
ссср 0.08558373765675535 0.00030241603412281044
обозрение 0.521703387372403 0.0018434748670402932
кысить 2.089905111439398 0.007384823715333562
калининград 1.1868151244474543 0.004193693019248955
материал 0.2905645619858162 0.0010267299010099512
википедия 0.0 0.0
аста 0.521703387372403 0.0018434748670402932
текстопорождение 2.089905111439398 0.007384823715333562
сборник 0.14051510479448517 0.0004965198049275095
народ 0.2448070714251411 0.0008650426552125127
л.петрушевский 2.089905111439398 0.007384823715333562
условность 1.4878451201114355 0.005257403251277157
войти 0.0 0.0
журнальный 0.47712125471966244 0.0016859408293981005
термин 0.7676858167054786 0.0027126707304080517
пен-центр 1.3117538610557542 0.004635172653907259
гулиус 2.089905111439398 0.007384823715333562
современный 0.23864676272032262 0.0008432747799304686
томск 1.1868151244474543 0.004193693019248955
диссертация 0.7888751157754168 0.00278754457871172
мы 0.0 0.0
премииправить 0.8594561900611241 0.003036947668060509
василиевич 0.521703387372403 0.0018434748670402932
альманах 0.4178072535036805 0.0014763507190942774
малый 0.33403025576690654 0.0011803189249714012
др 0.39970903141088426 0.001412399404278743
цейлон 1.6127838567197355 0.005698882885935461
сам 0.22658225131894205 0.0008006439975934348
энциклопедия 0.1978105087489175 0.000698977062717023
убийца 1.1868151244474543 0.004193693019248955
что 0.5713911715615104 0.002019050076189083
иной 0.0 0.0
разработчик 0.0 0.0
языковой 1.048512426281173 0.0037049909055871834
публиковаться 0.3264771178764606 0.0011536293917896135
заявление 0.0 0.0
литературный 0.03682666795597817 0.00013012956874903947
шубин 0.9759617591325612 0.003448628124143326
палач 1.3117538610557542 0.004635172653907259
октябрь 0.1503858588207794 0.0005313987944197152
брань 1.2448070714251411 0.004398611559806152
проплывать 2.089905111439398 0.007384823715333562
существовать 0.521703387372403 0.0018434748670402932
рождение 0.010723865391773066 3.7893517285417196e-05
связаться 0.0 0.0
вор 1.3117538610557542 0.004635172653907259
составитель 0.7096938697277919 0.002507752189850855
казань 1.0107238653917732 0.003571462421879057
править 0.0 0.0
место 0.021719249693236305 7.674646534712475e-05
отечественный 0.2703611758975292 0.0009553398441608807
м.харитон 2.089905111439398 0.007384823715333562
версия 0.0 0.0
дружба 0.5336026106721107 0.0018855215924809565
царство 0.8594561900611241 0.003036947668060509
толстой 0.5101215148225878 0.0018025495223412996
новый 0.0770678867342257 0.00027232468810680456
год 0.0 0.0
жунгли 2.089905111439398 0.007384823715333562
буйд 2.089905111439398 0.007384823715333562
русый 0.3656292418386089 0.0012919761195710562
немецкий 0.39093510710337914 0.0013813961381744847
дегтяренко 2.089905111439398 0.007384823715333562
испания 1.135662602000073 0.004012942056537361
елена 0.4178072535036805 0.0014763507190942774
прусский 1.4878451201114355 0.005257403251277157
август 0.17082701906332404 0.0006036290426265867
видеоканал 2.089905111439398 0.007384823715333562
условие 0.0 0.0
кровь 0.6919651027673603 0.0024451063702026865
россия 0.0770678867342257 0.00027232468810680456
с. 0.11218150615055017 0.0003964010818040642
использование 0.0 0.0
мой 0.23257261500812945 0.0008218113604527542
коммерсантъ 0.9138138523837167 0.0032290242133700235
приём 0.6427470800971787 0.002271191095749748
кук 0.0 0.0
газета 0.11677725783969929 0.0004126404870660752
улан-удэ 1.6127838567197355 0.005698882885935461
франция 0.5101215148225878 0.0018025495223412996
редакция 0.28372513745551076 0.001002562323164349
заместитель 0.9138138523837167 0.0032290242133700235
жёлтый 1.3117538610557542 0.004635172653907259
меню 0.0 0.0
мистификация 1.7888751157754168 0.00632111348330536
областной 0.6585413472804106 0.00232700122713926
издательский 0.7096938697277919 0.002507752189850855
нецензурный 1.6127838567197355 0.005698882885935461
смерть 0.06871581236945988 0.00024281205784261443
эксмо 0.6585413472804106 0.00232700122713926
зал 0.46665582104149744 0.0016489604983798496
стратегия 1.6127838567197355 0.005698882885935461
японский 1.135662602000073 0.004012942056537361
независимый 0.6919651027673603 0.0024451063702026865
поблизости 0.0 0.0
букер 0.8594561900611241 0.003036947668060509
мифотворчество 1.6127838567197355 0.005698882885935461
важный 0.5458370670891223 0.0019287528872407146
конфиденциальность 0.0 0.0
кино 0.5458370670891223 0.0019287528872407146
обозреватель 1.3117538610557542 0.004635172653907259
библиография 0.2510560207021426 0.0008871237480641081
рука 0.39970903141088426 0.001412399404278743
главный 0.0 0.0
содержание 0.0 0.0
ермо 2.089905111439398 0.007384823715333562
специальность 0.8857851287834732 0.0031299827872207533
редактор 0.31905309979725377 0.0011273961123577873
классика 0.5584261943971428 0.0019732374360323067
литератураправить 0.21484384804769785 0.000759165540804586
тип 0.5101215148225878 0.0018025495223412996
отметить 0.521703387372403 0.0018434748670402932
другой 0.018023104133272592 6.368588032958513e-05
в. 0.11677725783969929 0.0004126404870660752
наука 0.1978105087489175 0.000698977062717023
значение 0.42714727975782385 0.0015093543454340066
отказ 0.0 0.0
входить 0.46665582104149744 0.0016489604983798496
семья 0.10763387839982952 0.0003803317257944506
библиотека 0.17609125905568124 0.0006222305973698983
шпион 1.390935107103379 0.0049149650427681236
госпожа 1.390935107103379 0.0049149650427681236
больший 0.14051510479448517 0.0004965198049275095
жизнь 0.08990511143939793 0.0003176859061462824
домино 2.089905111439398 0.007384823715333562
москва 0.05247861349877426 0.00018543679681545675
страна 0.2638303087385715 0.0009322625750479558
найти 0.0 0.0
проза 0.17609125905568124 0.0006222305973698983
французский 0.4464524349532105 0.001577570441530779
дон 0.9138138523837167 0.0032290242133700235
открыть 0.0 0.0
дата 0.014358150046867215 5.0735512533099696e-05
гражданство 0.021719249693236305 7.674646534712475e-05
филологический 0.6919651027673603 0.0024451063702026865
англия 0.811151510486569 0.0028662597543695017
знаменск 1.7888751157754168 0.00632111348330536
страница 0.0 0.0
родиться 0.0 0.0
перевести 0.31175386105575426 0.0011016037493136192
соискание 1.048512426281173 0.0037049909055871834
модель 0.94377707576116 0.0033349013277779505
учёный 0.47712125471966244 0.0016859408293981005
примечание 0.07287177214061759 0.0002574974280587194
ссылка 0.08990511143939793 0.0003176859061462824
том 0.23864676272032262 0.0008432747799304686
перепелицын 2.089905111439398 0.007384823715333562
также 0.14051510479448517 0.0004965198049275095
писатель 0.05247861349877426 0.00018543679681545675
работать 0.09867903574690305 0.0003486891722505408
экз 0.21484384804769785 0.000759165540804586
перемена 0.8594561900611241 0.003036947668060509
российский 0.025447122212479436 8.991915976141143e-05
случайный 0.0 0.0
мёд 1.3117538610557542 0.004635172653907259
третий 0.28372513745551076 0.001002562323164349
деятельность 0.0035452807646496587 1.2527493868019995e-05
