русский 0.0035452807646496587 2.3635205097664394e-05
который 0.0605213337541883 0.0004034755583612553
последний 0.0 0.0
большой 0.21484384804769785 0.0014322923203179858
игнатиевич 1.390935107103379 0.009272900714022527
окончить 0.17082701906332404 0.0011388467937554936
пожертвовать 0.0 0.0
описание 0.0 0.0
похоронить 0.6275071135404419 0.00418338075693628
курдюм 1.4878451201114355 0.00991896746740957
политика 0.0 0.0
музыкальный 0.5584261943971428 0.003722841295980952
настольный 0.0 0.0
журнал 0.03682666795597817 0.0002455111197065212
принимать 0.4464524349532105 0.002976349566354737
майор 1.1868151244474543 0.007912100829649696
следить 0.0 0.0
она 0.46665582104149744 0.0031110388069433164
отредактировать 0.0 0.0
примечанияправить 0.31905309979725377 0.002127020665315025
человек 0.029207271085786267 0.00019471514057190845
июнь 0.1814200925607482 0.0012094672837383213
империя 0.2510560207021426 0.0016737068046809508
т. 0.20909151915860658 0.0013939434610573773
статья 0.025447122212479436 0.0001696474814165296
подданство 0.20909151915860658 0.0013939434610573773
лицензия 0.0 0.0
предположительно 0.8857851287834732 0.005905234191889821
ефрон 0.6127838567197355 0.004085225711464903
умереть 0.21484384804769785 0.0014322923203179858
а. 0.04851242628117289 0.00032341617520781926
книговед 2.089905111439398 0.013932700742929321
чечулина 1.4878451201114355 0.00991896746740957
деятель 0.30457527642863086 0.002030501842857539
доступно 0.0 0.0
источник 0.0 0.0
ответственность 0.0 0.0
родство 1.048512426281173 0.006990082841874487
редактироваться 0.029207271085786267 0.00019471514057190845
статистика 0.0 0.0
жена 0.2206733917084217 0.0014711559447228115
фёдорович 0.7676858167054786 0.005117905444703192
язык 0.0 0.0
монастырь 0.811151510486569 0.005407676736577127
м. 0.06459924617462771 0.0004306616411641848
горбунов 1.4878451201114355 0.00991896746740957
эмилия 1.4878451201114355 0.00991896746740957
михаилович 0.48784512011143555 0.003252300800742904
фамилия 0.0605213337541883 0.0004034755583612553
век 0.1814200925607482 0.0012094672837383213
составление 0.9759617591325612 0.006506411727550409
этот 0.0 0.0
библиограф 1.390935107103379 0.009272900714022527
главное 0.0 0.0
ю. 0.23864676272032262 0.0015909784181354842
указать 0.0 0.0
энциклопедический 0.5101215148225878 0.0034008100988172523
н. 0.11218150615055017 0.0007478767076703345
произведение 0.010723865391773066 7.149243594515378e-05
материал 0.2905645619858162 0.0019370970799054415
г. 0.1214221628854628 0.0008094810859030853
д. 0.1814200925607482 0.0012094672837383213
википедия 0.0 0.0
январь 0.08558373765675535 0.0005705582510450358
войти 0.0 0.0
собрание 0.2703611758975292 0.0018024078393168617
отдел 0.521703387372403 0.0034780225824826865
участие 0.27699175479654237 0.0018466116986436158
брокгауз 0.4464524349532105 0.002976349566354737
мы 0.0 0.0
николай 0.31905309979725377 0.002127020665315025
иной 0.0 0.0
разработчик 0.0 0.0
периодический 1.2448070714251411 0.008298713809500941
заявление 0.0 0.0
новость 0.42714727975782385 0.002847648531718826
связаться 0.0 0.0
доп. 0.6427470800971787 0.004284980533981192
деятельный 1.048512426281173 0.006990082841874487
лисовскаядат 2.089905111439398 0.013932700742929321
составитель 0.7096938697277919 0.004731292464851947
править 0.0 0.0
словарь 0.30457527642863086 0.002030501842857539
версия 0.0 0.0
ум 0.6127838567197355 0.004085225711464903
год 0.0 0.0
вместе 0.2573961987331616 0.0017159746582210776
биобиблиографический 0.94377707576116 0.006291847171741067
ред 0.2573961987331616 0.0017159746582210776
петербургский 0.47712125471966244 0.00318080836479775
издатель 0.6127838567197355 0.004085225711464903
условие 0.0 0.0
россия 0.0770678867342257 0.0005137859115615047
усердно 1.1868151244474543 0.007912100829649696
биографический 0.34171708443319754 0.0022781138962213172
находиться 0.34171708443319754 0.0022781138962213172
летопись 0.7888751157754168 0.005259167438502779
использование 0.0 0.0
кук 0.0 0.0
лисовскай 2.089905111439398 0.013932700742929321
сотрудница 1.3117538610557542 0.008745025740371695
критико-библиографический 2.089905111439398 0.013932700742929321
газета 0.11677725783969929 0.000778515052264662
кроме 0.43669259766405427 0.002911283984427029
меню 0.0 0.0
смерть 0.06871581236945988 0.00045810541579639926
поблизости 0.0 0.0
два 0.20909151915860658 0.0013939434610573773
лисовский 1.7888751157754168 0.011925834105169446
конфиденциальность 0.0 0.0
писательница 0.521703387372403 0.0034780225824826865
довольно 0.6585413472804106 0.004390275648536071
новодевичий 0.8346326063360918 0.005564217375573946
работа 0.1814200925607482 0.0012094672837383213
некрополь 0.94377707576116 0.006291847171741067
иванович 0.3739017678045988 0.0024926784520306585
спб 0.2510560207021426 0.0016737068046809508
спб. 0.42714727975782385 0.002847648531718826
журналистка 1.4878451201114355 0.00991896746740957
александр 0.15540666019583024 0.001036044401305535
главный 0.0 0.0
содержание 0.0 0.0
составлять 0.6585413472804106 0.004390275648536071
часть 0.2703611758975292 0.0018024078393168617
редактор 0.31905309979725377 0.002127020665315025
литератураправить 0.21484384804769785 0.0014322923203179858
библиографический 0.6275071135404419 0.00418338075693628
другой 0.018023104133272592 0.00012015402755515063
отказ 0.0 0.0
спб.—м. 0.9138138523837167 0.006092092349224779
найти 0.0 0.0
ещё 0.22658225131894205 0.0015105483421262804
открыть 0.0 0.0
гражданство 0.021719249693236305 0.00014479499795490872
издание 0.16562582537751624 0.0011041721691834416
профильный 2.089905111439398 0.013932700742929321
стр 0.5713911715615104 0.0038092744770767363
страница 0.0 0.0
михаил 0.2510560207021426 0.0016737068046809508
родиться 0.0 0.0
ранний 0.27699175479654237 0.0018466116986436158
представлять 0.43669259766405427 0.002911283984427029
том 0.23864676272032262 0.0015909784181354842
также 0.14051510479448517 0.0009367673652965679
работать 0.09867903574690305 0.0006578602383126871
и. 0.14051510479448517 0.0009367673652965679
российский 0.025447122212479436 0.0001696474814165296
случайный 0.0 0.0
различный 0.49884050441289873 0.0033256033627526585
деятельность 0.0035452807646496587 2.3635205097664394e-05
