русский 0.0035452807646496587 1.6489677975114693e-05
неустроев 2.089905111439398 0.009720488890415805
принадлежать 0.5101215148225878 0.002372658208477153
поколение 0.5713911715615104 0.0026576333561000483
желена 1.7888751157754168 0.008320349375699613
последний 0.0 0.0
разыскание 1.6127838567197355 0.007501320263812723
иметь 0.2510560207021426 0.0011677024218704308
жуков 1.4878451201114355 0.006920209860983421
пожертвовать 0.0 0.0
описание 0.0 0.0
бутурлин 1.7888751157754168 0.008320349375699613
политика 0.0 0.0
вышеупомянутый 1.6127838567197355 0.007501320263812723
настольный 0.0 0.0
журнал 0.03682666795597817 0.00017128682770222405
гг. 0.7474824306171917 0.003476662467986938
сведение 0.584755133119492 0.0027197913168348466
худенький 1.7888751157754168 0.008320349375699613
портр 0.94377707576116 0.004389660817493767
супруг 0.5584261943971428 0.0025973311367308966
информация 0.5985434176051253 0.0027839228725819783
любословие 1.7888751157754168 0.008320349375699613
неелов 2.089905111439398 0.009720488890415805
майор 1.1868151244474543 0.0055200703462672295
московский 0.14051510479448517 0.0006535586269510938
элегия 1.3117538610557542 0.006101180749096531
следить 0.0 0.0
соседка 1.7888751157754168 0.008320349375699613
полный 0.34171708443319754 0.001589381788061384
принять 0.23864676272032262 0.0011099849428852216
отредактировать 0.0 0.0
примечанияправить 0.31905309979725377 0.0014839679060337384
человек 0.029207271085786267 0.00013584777249202914
известно 0.6919651027673603 0.003218442338452839
империя 0.2510560207021426 0.0011677024218704308
елизавета 0.7676858167054786 0.0035706317056068775
ч. 0.9138138523837167 0.00425029698783124
статья 0.025447122212479436 0.00011835870796502063
подданство 0.20909151915860658 0.0009725186937609608
её 0.13086371911830436 0.000608668461015369
вера 0.48784512011143555 0.0022690470702857466
около 0.46665582104149744 0.0021704921908906856
лицензия 0.0 0.0
биографияправить 0.06871581236945988 0.0003196084296253948
подписать 0.5101215148225878 0.002372658208477153
первый 0.05247861349877426 0.00024408657441290352
а. 0.04851242628117289 0.0002256391920054553
практически 0.5985434176051253 0.0027839228725819783
конец 0.20341438626691605 0.000946113424497284
князь 0.5101215148225878 0.002372658208477153
доступно 0.0 0.0
источник 0.0 0.0
анна 0.3739017678045988 0.0017390779897888315
стать 0.08558373765675535 0.00039806389607793184
пять 0.42714727975782385 0.0019867315337573203
мысль 0.43669259766405427 0.0020311283612281595
ответственность 0.0 0.0
оба 0.47712125471966244 0.002219168626603081
п. 0.17609125905568124 0.0008190291118868895
редактироваться 0.029207271085786267 0.00013584777249202914
рассказ 0.10313337717315306 0.00047969012638675844
печаль 1.048512426281173 0.00487680198270313
сельцо 1.6127838567197355 0.007501320263812723
приходиться 0.67493176346858 0.003139217504505023
л. 0.1604861857251052 0.0007464473754656056
статистика 0.0 0.0
жена 0.2206733917084217 0.0010263878684112638
собранный 0.8857851287834732 0.004119930831551038
болезнь 0.521703387372403 0.0024265273831274555
язык 0.0 0.0
выйти 0.10763387839982952 0.0005006226902317652
шинель 1.4878451201114355 0.006920209860983421
как-то 1.0107238653917732 0.00470104123438034
анне 0.9138138523837167 0.00425029698783124
михаилович 0.48784512011143555 0.0022690470702857466
фамилия 0.0605213337541883 0.0002814945756008758
юный 0.67493176346858 0.003139217504505023
век 0.1814200925607482 0.00084381438400348
отрывочный 1.4878451201114355 0.006920209860983421
суворина 0.9759617591325612 0.004539357019221215
этот 0.0 0.0
один 0.1454224392892293 0.0006763834385545549
главное 0.0 0.0
сохраниться 0.6127838567197355 0.0028501574731150487
указать 0.0 0.0
ходить 0.7888751157754168 0.0036691865850019384
хорошилово 2.089905111439398 0.009720488890415805
н. 0.11218150615055017 0.0005217744472118612
е. 0.1604861857251052 0.0007464473754656056
произведение 0.010723865391773066 4.987844368266542e-05
прочий 0.67493176346858 0.003139217504505023
труд 0.29751342194114405 0.0013837833578657862
г. 0.1214221628854628 0.0005647542459788968
приобрести 0.6127838567197355 0.0028501574731150487
высокий 0.31905309979725377 0.0014839679060337384
д. 0.1814200925607482 0.00084381438400348
рост 0.8346326063360918 0.00388201212249345
википедия 0.0 0.0
январь 0.08558373765675535 0.00039806389607793184
сборник 0.14051510479448517 0.0006535586269510938
войти 0.0 0.0
напечатать 0.3656292418386089 0.001700601124830739
желень 2.089905111439398 0.009720488890415805
сергей 0.3575113516164294 0.0016628434958903691
посредственность 1.7888751157754168 0.008320349375699613
недурной 2.089905111439398 0.009720488890415805
замуж 0.6585413472804106 0.003062983010606561
помогать 0.6585413472804106 0.003062983010606561
голицын 1.048512426281173 0.00487680198270313
благово 1.6127838567197355 0.007501320263812723
мы 0.0 0.0
поэт 0.2448070714251411 0.001138637541512284
энциклопедия 0.1978105087489175 0.0009200488779019419
иной 0.0 0.0
разработчик 0.0 0.0
заявление 0.0 0.0
литературный 0.03682666795597817 0.00017128682770222405
весьма 0.6427470800971787 0.0029895213027775753
жить 0.11218150615055017 0.0005217744472118612
по-иногородному 2.089905111439398 0.009720488890415805
связаться 0.0 0.0
рождение 0.010723865391773066 4.987844368266542e-05
очень 0.29751342194114405 0.0013837833578657862
петрович 0.6127838567197355 0.0028501574731150487
уродить 0.521703387372403 0.0024265273831274555
править 0.0 0.0
отрочество 1.135662602000073 0.005282151637209642
словарь 0.30457527642863086 0.0014166291926913062
версия 0.0 0.0
повременный 2.089905111439398 0.009720488890415805
скудный 1.135662602000073 0.005282151637209642
год 0.0 0.0
себя 0.3656292418386089 0.001700601124830739
несколько 0.19227802014895654 0.0008943163727858443
утеха 1.7888751157754168 0.008320349375699613
поэтесса 0.9138138523837167 0.00425029698783124
автобиографический 0.49884050441289873 0.0023201883926181337
условие 0.0 0.0
сергеевич 0.7676858167054786 0.0035706317056068775
прозаический 0.7676858167054786 0.0035706317056068775
биографический 0.34171708443319754 0.001589381788061384
исторический 0.3264771178764606 0.001518498222681212
псевдоним 0.34171708443319754 0.001589381788061384
с. 0.11218150615055017 0.0005217744472118612
н—в 2.089905111439398 0.009720488890415805
дочь 0.20909151915860658 0.0009725186937609608
неприятность 1.390935107103379 0.006469465614434321
тот 0.2448070714251411 0.001138637541512284
использование 0.0 0.0
кук 0.0 0.0
имение 0.6919651027673603 0.003218442338452839
начало 0.16562582537751624 0.0007703526761744942
кроме 0.43669259766405427 0.0020311283612281595
меню 0.0 0.0
сестра 0.31905309979725377 0.0014839679060337384
скоро 1.048512426281173 0.00487680198270313
смерть 0.06871581236945988 0.0003196084296253948
поблизости 0.0 0.0
янькова 1.7888751157754168 0.008320349375699613
родный 0.43669259766405427 0.0020311283612281595
по-нашему 2.089905111439398 0.009720488890415805
василий 0.49884050441289873 0.0023201883926181337
лишь 0.38233493534146157 0.0017783020248440073
странно 1.135662602000073 0.005282151637209642
конфиденциальность 0.0 0.0
писательница 0.521703387372403 0.0024265273831274555
лицо 0.39093510710337914 0.0018183028237366472
мужчина 0.8346326063360918 0.00388201212249345
ел… 2.089905111439398 0.009720488890415805
детство 0.30457527642863086 0.0014166291926913062
записать 0.67493176346858 0.003139217504505023
иванович 0.3739017678045988 0.0017390779897888315
спб 0.2510560207021426 0.0011677024218704308
спб. 0.42714727975782385 0.0019867315337573203
главный 0.0 0.0
нееловаимя 2.089905111439398 0.009720488890415805
колпак 2.089905111439398 0.009720488890415805
внук 0.584755133119492 0.0027197913168348466
содержание 0.0 0.0
овдоветь 1.4878451201114355 0.006920209860983421
бабушка 0.6427470800971787 0.0029895213027775753
губерния 0.33403025576690654 0.0015536290965902629
литератураправить 0.21484384804769785 0.0009992737118497575
издали 1.7888751157754168 0.008320349375699613
библиографический 0.6275071135404419 0.002918637737397404
село 0.4086638740638107 0.001900762204947957
горесть 1.7888751157754168 0.008320349375699613
тип 0.5101215148225878 0.002372658208477153
другой 0.018023104133272592 8.382839131754694e-05
муж 0.4178072535036805 0.0019432895511799092
значение 0.42714727975782385 0.0019867315337573203
отказ 0.0 0.0
стихотворение 0.3739017678045988 0.0017390779897888315
спб.—м. 0.9138138523837167 0.00425029698783124
ночной 0.9759617591325612 0.004539357019221215
разный 0.39093510710337914 0.0018183028237366472
найти 0.0 0.0
одеваться 1.6127838567197355 0.007501320263812723
есть 1.1868151244474543 0.0055200703462672295
открыть 0.0 0.0
гражданство 0.021719249693236305 0.00010101976601505258
стр 0.5713911715615104 0.0026576333561000483
издание 0.16562582537751624 0.0007703526761744942
страница 0.0 0.0
родиться 0.0 0.0
том 0.23864676272032262 0.0011099849428852216
среднее 1.3117538610557542 0.006101180749096531
дамский 1.6127838567197355 0.007501320263812723
воспоминание 0.27699175479654237 0.001288333743239732
российский 0.025447122212479436 0.00011835870796502063
случайный 0.0 0.0
вспоминать 0.46665582104149744 0.0021704921908906856
иппокрен 1.7888751157754168 0.008320349375699613
деятельность 0.0035452807646496587 1.6489677975114693e-05
