русский 0.0035452807646496587 7.949060010425243e-06
автор 0.09867903574690305 0.0002212534433787064
польский 0.67493176346858 0.0015132999180909865
паломничество 1.4878451201114355 0.003335975605631021
большой 0.21484384804769785 0.0004817126637840759
океан 1.048512426281173 0.002350924722603527
настоящий 0.3264771178764606 0.0007320114750593288
куриный 1.6127838567197355 0.0036161073020621872
множество 0.6275071135404419 0.0014069666222879863
оставить 0.48784512011143555 0.0010938231392633084
журнал 0.03682666795597817 8.257100438560128e-05
фавн 1.7888751157754168 0.0040109307528596785
московский 0.14051510479448517 0.00031505628877687256
кандидат 0.6427470800971787 0.0014411369508905353
мост 0.8346326063360918 0.0018713735568073808
университет 0.15540666019583024 0.00034844542644804985
ихтиология 2.089905111439398 0.004685885900088336
аполлон 0.9138138523837167 0.0020489099829231316
опубликовать 0.1214221628854628 0.0002722470019853426
континент 1.3117538610557542 0.0029411521548335295
форум 1.390935107103379 0.0031186885809492805
известный 0.2703611758975292 0.0006061909773487202
бергенский 2.089905111439398 0.004685885900088336
григорьев 0.8346326063360918 0.0018713735568073808
питер 1.089905111439398 0.0024437334337206232
лицензия 0.0 0.0
супермен 1.7888751157754168 0.0040109307528596785
городской 0.4178072535036805 0.0009367875639095974
идея 0.43669259766405427 0.0009791313848969826
волк 0.9759617591325612 0.002188255065319644
доступно 0.0 0.0
источник 0.0 0.0
письмо 0.22658225131894205 0.0005080319536299149
факультет 0.29751342194114405 0.0006670704527828342
фаворит 1.4878451201114355 0.003335975605631021
одесситка 2.089905111439398 0.004685885900088336
шорт-лист 0.9759617591325612 0.002188255065319644
член 0.18681512444745438 0.00041886799203465105
написать 0.1604861857251052 0.0003598344971414915
мир 0.13086371911830436 0.00029341641057915776
одесса 0.7888751157754168 0.001768778286491966
лиза 1.048512426281173 0.002350924722603527
викисклад 0.18681512444745438 0.00041886799203465105
диплом 0.7474824306171917 0.001675969575374869
жюри 1.0107238653917732 0.0022661970076048726
фамилия 0.0605213337541883 0.0001356980577448168
этот 0.0 0.0
главное 0.0 0.0
конвент 1.7888751157754168 0.0040109307528596785
гидробиология 2.089905111439398 0.004685885900088336
обозрение 0.521703387372403 0.0011697385367094237
википедия 0.0 0.0
гидробиолог 2.089905111439398 0.004685885900088336
спрут 2.089905111439398 0.004685885900088336
типография 0.728177275421805 0.0016326844740399214
интересный 0.521703387372403 0.0011697385367094237
отмечать 0.4464524349532105 0.001001014428146212
стих 0.31905309979725377 0.0007153656946126767
мраморный 1.135662602000073 0.0025463287040360383
др 0.39970903141088426 0.0008962085906073638
поэт 0.2448070714251411 0.000548894778980137
га́лина 2.089905111439398 0.004685885900088336
фантаст 1.4878451201114355 0.003335975605631021
править 0.0 0.0
книжный 0.34171708443319754 0.0007661818036618778
место 0.021719249693236305 4.8697869267345975e-05
история 0.12611728409384265 0.00028277417958260683
звёздный 1.390935107103379 0.0031186885809492805
огонь 0.5985434176051253 0.0013420256000114916
погорелый 2.089905111439398 0.004685885900088336
карта 0.728177275421805 0.0016326844740399214
любимый 0.6585413472804106 0.001476550106009889
человечество 0.94377707576116 0.002116092098119193
гиви 2.089905111439398 0.004685885900088336
баркер 2.089905111439398 0.004685885900088336
псевдоним 0.34171708443319754 0.0007661818036618778
всё 0.28372513745551076 0.0006361550167163918
страх 0.811151510486569 0.0018187253598353564
прощать 1.3117538610557542 0.0029411521548335295
полоса 1.048512426281173 0.002350924722603527
стивен 1.4878451201114355 0.003335975605631021
меню 0.0 0.0
астрель 0.7474824306171917 0.001675969575374869
поблизости 0.0 0.0
кадуцей 2.089905111439398 0.004685885900088336
порог 1.390935107103379 0.0031186885809492805
двухтысячный 2.089905111439398 0.004685885900088336
кинг 1.4878451201114355 0.003335975605631021
арион 1.7888751157754168 0.0040109307528596785
часть 0.2703611758975292 0.0006061909773487202
аида 1.7888751157754168 0.0040109307528596785
архивный 0.38233493534146157 0.0008572532182543982
странник 1.048512426281173 0.002350924722603527
входить 0.46665582104149744 0.0010463135000930437
нора 1.4878451201114355 0.003335975605631021
мид 1.3117538610557542 0.0029411521548335295
жизнь 0.08990511143939793 0.00020158096735291015
страна 0.2638303087385715 0.0005915477774407433
дата 0.014358150046867215 3.219316154006102e-05
виталий 1.135662602000073 0.0025463287040360383
страница 0.0 0.0
гладиатор 2.089905111439398 0.004685885900088336
родиться 0.0 0.0
ссылка 0.08990511143939793 0.00020158096735291015
покрывало 2.089905111439398 0.004685885900088336
также 0.14051510479448517 0.00031505628877687256
писатель 0.05247861349877426 0.00011766505268783466
переводчик 0.46665582104149744 0.0010463135000930437
ригель 2.089905111439398 0.004685885900088336
популяция 2.089905111439398 0.004685885900088336
фэнтези 1.2448070714251411 0.00279104724534785
каплан 1.7888751157754168 0.0040109307528596785
издательство 0.17609125905568124 0.00039482345079749155
темнота 1.6127838567197355 0.0036161073020621872
пожертвовать 0.0 0.0
политика 0.0 0.0
поводырь 2.089905111439398 0.004685885900088336
брат 0.2703611758975292 0.0006061909773487202
четыре 0.3575113516164294 0.0008015949587812318
сокровище 1.7888751157754168 0.0040109307528596785
известие 0.5101215148225878 0.001143770212606699
ангел 1.135662602000073 0.0025463287040360383
проживать 0.521703387372403 0.0011697385367094237
отредактировать 0.0 0.0
книга 0.0445821326527405 9.995993868327466e-05
роман 0.10763387839982952 0.00024133156591890027
борис 0.4086638740638107 0.0009162867131475576
премия 0.16562582537751624 0.0003713583528643862
короткий 0.6275071135404419 0.0014069666222879863
т. 0.20909151915860658 0.00046881506537804166
рубрика 1.1868151244474543 0.002661020458402364
сторона 0.3739017678045988 0.000838344770862329
биографияправить 0.06871581236945988 0.00015407132818264546
сотрудничать 0.49884050441289873 0.0011184764672934949
а. 0.04851242628117289 0.00010877225623581365
время 0.0770678867342257 0.0001727979523188917
добро 0.9138138523837167 0.0020489099829231316
неистовый 1.390935107103379 0.0031186885809492805
норвегия 1.390935107103379 0.0031186885809492805
пожаловать 1.1868151244474543 0.002661020458402364
максим 0.39970903141088426 0.0008962085906073638
академия 0.3575113516164294 0.0008015949587812318
биолог 1.390935107103379 0.0031186885809492805
итальянский 0.811151510486569 0.0018187253598353564
липецк 1.7888751157754168 0.0040109307528596785
перевод 0.34171708443319754 0.0007661818036618778
язык 0.0 0.0
эстония 1.4878451201114355 0.003335975605631021
украинский 0.7096938697277919 0.0015912418603762151
дебют 0.43669259766405427 0.0009791313848969826
указать 0.0 0.0
тверь 0.9138138523837167 0.0020489099829231316
жанр 0.19227802014895654 0.00043111663710528373
познавать 1.7888751157754168 0.0040109307528596785
иваново 1.7888751157754168 0.0040109307528596785
цикл 0.39970903141088426 0.0008962085906073638
ссср 0.08558373765675535 0.00019189178846806132
киев 0.67493176346858 0.0015132999180909865
тед 2.089905111439398 0.004685885900088336
народ 0.2448070714251411 0.000548894778980137
крот 2.089905111439398 0.004685885900088336
победить 0.9759617591325612 0.002188255065319644
пузия 2.089905111439398 0.004685885900088336
словесность 0.5985434176051253 0.0013420256000114916
право 0.39093510710337914 0.0008765361145815676
основное 0.728177275421805 0.0016326844740399214
вручать 1.2448070714251411 0.00279104724534785
иной 0.0 0.0
разработчик 0.0 0.0
жить 0.11218150615055017 0.0002515280406963008
девочка 0.7096938697277919 0.0015912418603762151
исследование 0.47712125471966244 0.001069778598026149
хроника 0.6127838567197355 0.001373954835694474
эксмо-пресс 1.390935107103379 0.0031186885809492805
несуществующий 2.089905111439398 0.004685885900088336
нии 1.2448070714251411 0.00279104724534785
ожидание 0.8857851287834732 0.0019860653111737066
версия 0.0 0.0
экспертный 1.7888751157754168 0.0040109307528596785
калгановый 2.089905111439398 0.004685885900088336
культура 0.19227802014895654 0.00043111663710528373
медиа 1.390935107103379 0.0031186885809492805
точно 1.0107238653917732 0.0022661970076048726
открытие 0.521703387372403 0.0011697385367094237
условие 0.0 0.0
публицистика 0.521703387372403 0.0011697385367094237
заниматься 0.3739017678045988 0.000838344770862329
использование 0.0 0.0
гешарить 2.089905111439398 0.004685885900088336
газета 0.11677725783969929 0.0002618324166809401
литератор 0.34171708443319754 0.0007661818036618778
ярмарка 1.135662602000073 0.0025463287040360383
зал 0.46665582104149744 0.0010463135000930437
лососёвый 2.089905111439398 0.004685885900088336
мари́ть 2.089905111439398 0.004685885900088336
глушить 2.089905111439398 0.004685885900088336
сигнальный 1.7888751157754168 0.0040109307528596785
качество 0.34954242194515406 0.0007837274034644709
поиск 0.584755133119492 0.0013111101639450493
посвятить 0.17609125905568124 0.00039482345079749155
море 0.5985434176051253 0.0013420256000114916
этнограф 1.4878451201114355 0.003335975605631021
спб 0.2510560207021426 0.0005629058760137726
антарктика 2.089905111439398 0.004685885900088336
беседа 0.5713911715615104 0.0012811461245773776
вопрос 0.2703611758975292 0.0006061909773487202
специальность 0.8857851287834732 0.0019860653111737066
филигрань 2.089905111439398 0.004685885900088336
хомячок 2.089905111439398 0.004685885900088336
венгерский 1.6127838567197355 0.0036161073020621872
обычный 0.9759617591325612 0.002188255065319644
бронзовый 0.8594561900611241 0.0019270318162805471
больший 0.14051510479448517 0.00031505628877687256
москва 0.05247861349877426 0.00011766505268783466
найти 0.0 0.0
открыть 0.0 0.0
имя 0.08990511143939793 0.00020158096735291015
награда 0.23864676272032262 0.0005350824276240417
хьюз 2.089905111439398 0.004685885900088336
российский 0.025447122212479436 5.705632783067138e-05
спм 2.089905111439398 0.004685885900088336
калиниченко 2.089905111439398 0.004685885900088336
деятельность 0.0035452807646496587 7.949060010425243e-06
сформулировать 1.048512426281173 0.002350924722603527
плавень 2.089905111439398 0.004685885900088336
последний 0.0 0.0
железный 0.7096938697277919 0.0015912418603762151
вести 0.3264771178764606 0.0007320114750593288
глаз 0.49884050441289873 0.0011184764672934949
лауреат 0.30457527642863086 0.0006829042072390827
описание 0.0 0.0
серия 0.2905645619858162 0.000651490049295552
интеллектуальный 1.048512426281173 0.002350924722603527
литература 0.05648135595244821 0.00012663981155257444
аспирантура 1.0107238653917732 0.0022661970076048726
считать 0.33403025576690654 0.0007489467618092075
медиафайл 0.1503858588207794 0.0003371880242618372
подземный 1.390935107103379 0.0031186885809492805
страуба 2.089905111439398 0.004685885900088336
переводить 1.0107238653917732 0.0022661970076048726
статья 0.025447122212479436 5.705632783067138e-05
словацкий 1.6127838567197355 0.0036161073020621872
жанровый 1.2448070714251411 0.00279104724534785
словенский 1.6127838567197355 0.0036161073020621872
первый 0.05247861349877426 0.00011766505268783466
публикация 0.23864676272032262 0.0005350824276240417
поэтический 0.5713911715615104 0.0012811461245773776
конец 0.20341438626691605 0.00045608606786304046
биография 0.07287177214061759 0.00016338962363367173
стать 0.08558373765675535 0.00019189178846806132
свой 0.0770678867342257 0.0001727979523188917
дебютный 1.3117538610557542 0.0029411521548335295
ответственность 0.0 0.0
соавтор 0.8594561900611241 0.0019270318162805471
редактироваться 0.029207271085786267 6.548715490086606e-05
латышский 1.6127838567197355 0.0036161073020621872
рассказ 0.10313337717315306 0.0002312407559936167
иерусалим 0.9759617591325612 0.002188255065319644
зилант 2.089905111439398 0.004685885900088336
область 0.18681512444745438 0.00041886799203465105
счёт 0.7676858167054786 0.001721268647321701
фантастика/футурология 2.089905111439398 0.004685885900088336
знамя 0.3575113516164294 0.0008015949587812318
англоязычный 1.390935107103379 0.0031186885809492805
соавт 1.7888751157754168 0.0040109307528596785
произведение 0.010723865391773066 2.404454123715934e-05
карацупа 2.089905111439398 0.004685885900088336
ныне 0.3739017678045988 0.000838344770862329
улитка 1.4878451201114355 0.003335975605631021
аста 0.521703387372403 0.0011697385367094237
союз 0.2573961987331616 0.0005771215218232323
земля 0.4086638740638107 0.0009162867131475576
семёнович 0.9759617591325612 0.002188255065319644
поэзия 0.42714727975782385 0.0009577293268112642
частность 0.4564366558598114 0.001023400573676707
войти 0.0 0.0
контрабандист 2.089905111439398 0.004685885900088336
журнальный 0.47712125471966244 0.001069778598026149
современный 0.23864676272032262 0.0005350824276240417
отдел 0.521703387372403 0.0011697385367094237
рецензия 0.5584261943971428 0.0012520766690518896
эдвин 2.089905111439398 0.004685885900088336
невинность 1.7888751157754168 0.0040109307528596785
малый 0.33403025576690654 0.0007489467618092075
многотиражный 1.6127838567197355 0.0036161073020621872
рыба 1.1868151244474543 0.002661020458402364
аураинфо 2.089905111439398 0.004685885900088336
корнилов 1.4878451201114355 0.003335975605631021
связаться 0.0 0.0
центральный 0.39970903141088426 0.0008962085906073638
неземля 2.089905111439398 0.004685885900088336
прекрасный 0.6127838567197355 0.001373954835694474
глядеть 1.390935107103379 0.0031186885809492805
копия 0.39970903141088426 0.0008962085906073638
год 0.0 0.0
мария 0.48784512011143555 0.0010938231392633084
сформировать 1.135662602000073 0.0025463287040360383
необычный 1.048512426281173 0.002350924722603527
читательский 1.048512426281173 0.002350924722603527
россия 0.0770678867342257 0.0001727979523188917
вильчинский 2.089905111439398 0.004685885900088336
кук 0.0 0.0
среда 0.6275071135404419 0.0014069666222879863
существо 0.8346326063360918 0.0018713735568073808
ссылкиправить 0.4086638740638107 0.0009162867131475576
фантастика 0.8594561900611241 0.0019270318162805471
ноябрь 0.1978105087489175 0.0004435213200648375
прощание 0.7888751157754168 0.001768778286491966
премиальный 1.6127838567197355 0.0036161073020621872
фантлаба 2.089905111439398 0.004685885900088336
конфиденциальность 0.0 0.0
биологический 1.135662602000073 0.0025463287040360383
медведка 2.089905111439398 0.004685885900088336
главный 0.0 0.0
содержание 0.0 0.0
ученик 0.7676858167054786 0.001721268647321701
другой 0.018023104133272592 4.0410547384019264e-05
отказ 0.0 0.0
стихотворение 0.3739017678045988 0.000838344770862329
называть 0.3575113516164294 0.0008015949587812318
шендерович 2.089905111439398 0.004685885900088336
группа 0.42714727975782385 0.0009577293268112642
ночью 1.1868151244474543 0.002661020458402364
гражданство 0.021719249693236305 4.8697869267345975e-05
перевести 0.31175386105575426 0.0006989996884658168
англ 0.3739017678045988 0.000838344770862329
примечание 0.07287177214061759 0.00016338962363367173
работать 0.09867903574690305 0.0002212534433787064
британский 0.94377707576116 0.002116092098119193
случайный 0.0 0.0
берег 0.67493176346858 0.0015132999180909865
библио-глобус 2.089905111439398 0.004685885900088336
слово 0.19227802014895654 0.00043111663710528373
повесть 0.11218150615055017 0.0002515280406963008
б. 0.2510560207021426 0.0005629058760137726
второй 0.15540666019583024 0.00034844542644804985
красный 0.31175386105575426 0.0006989996884658168
звезда 0.3656292418386089 0.0008197965063645939
дайджест 1.7888751157754168 0.0040109307528596785
иметь 0.2510560207021426 0.0005629058760137726
затем 0.2206733917084217 0.0004947833894807662
окончить 0.17082701906332404 0.0003830202221150763
котовский 1.7888751157754168 0.0040109307528596785
библиографияправить 0.4464524349532105 0.001001014428146212
настольный 0.0 0.0
вплоть 0.7676858167054786 0.001721268647321701
окружающий 1.0107238653917732 0.0022661970076048726
следить 0.0 0.0
стругацкий 1.2448070714251411 0.00279104724534785
человек 0.029207271085786267 6.548715490086606e-05
калинин 1.135662602000073 0.0025463287040360383
галина 1.0107238653917732 0.0022661970076048726
сверхновый 2.089905111439398 0.004685885900088336
реальность 0.8857851287834732 0.0019860653111737066
международный 0.3656292418386089 0.0008197965063645939
подданство 0.20909151915860658 0.00046881506537804166
приз 0.9138138523837167 0.0020489099829231316
роскон 2.089905111439398 0.004685885900088336
серебряный 0.6427470800971787 0.0014411369508905353
архив 0.34954242194515406 0.0007837274034644709
критик 0.39970903141088426 0.0008962085906073638
ведущий 0.6585413472804106 0.001476550106009889
аркадий 0.9138138523837167 0.0020489099829231316
ночь 0.39093510710337914 0.0008765361145815676
владимир 0.2206733917084217 0.0004947833894807662
минувший 1.1868151244474543 0.002661020458402364
арго-риск 1.6127838567197355 0.0036161073020621872
проблема 0.4086638740638107 0.0009162867131475576
статистика 0.0 0.0
переводный 1.390935107103379 0.0031186885809492805
гусь 1.6127838567197355 0.0036161073020621872
портал 0.6275071135404419 0.0014069666222879863
м. 0.06459924617462771 0.00014484135913593658
сентябрь 0.1503858588207794 0.0003371880242618372
декабрь 0.14051510479448517 0.00031505628877687256
век 0.1814200925607482 0.00040677150798374036
леонард 1.4878451201114355 0.003335975605631021
печать 0.43669259766405427 0.0009791313848969826
писательница-прозаик 2.089905111439398 0.004685885900088336
вэнс 2.089905111439398 0.004685885900088336
водяной 1.7888751157754168 0.0040109307528596785
д. 0.1814200925607482 0.00040677150798374036
бездна 1.2448070714251411 0.00279104724534785
табба 2.089905111439398 0.004685885900088336
январь 0.08558373765675535 0.00019189178846806132
профессиональный 0.728177275421805 0.0016326844740399214
удивительный 0.94377707576116 0.002116092098119193
махаон 1.7888751157754168 0.0040109307528596785
пен-клуб 1.3117538610557542 0.0029411521548335295
голицын 1.048512426281173 0.002350924722603527
виссарион 1.390935107103379 0.0031186885809492805
аваддон 2.089905111439398 0.004685885900088336
золотой 0.3739017678045988 0.000838344770862329
мы 0.0 0.0
клайв 2.089905111439398 0.004685885900088336
николай 0.31905309979725377 0.0007153656946126767
одноимённый 0.42714727975782385 0.0009577293268112642
заявление 0.0 0.0
публиковаться 0.3264771178764606 0.0007320114750593288
литературный 0.03682666795597817 8.257100438560128e-05
юность 0.43669259766405427 0.0009791313848969826
отделение 0.43669259766405427 0.0009791313848969826
шортлист 2.089905111439398 0.004685885900088336
число 0.2638303087385715 0.0005915477774407433
английский 0.4464524349532105 0.001001014428146212
рождение 0.010723865391773066 2.404454123715934e-05
неоднократно 0.5985434176051253 0.0013420256000114916
новый 0.0770678867342257 0.0001727979523188917
елена 0.4178072535036805 0.0009367875639095974
симпатия 0.8857851287834732 0.0019860653111737066
несколько 0.19227802014895654 0.00043111663710528373
галь 2.089905111439398 0.004685885900088336
поэтесса 0.9138138523837167 0.0020489099829231316
с. 0.11218150615055017 0.0002515280406963008
видеть 0.42714727975782385 0.0009577293268112642
джек 1.4878451201114355 0.003335975605631021
начало 0.16562582537751624 0.0003713583528643862
четвёртый 0.5985434176051253 0.0013420256000114916
бог 0.6127838567197355 0.001373954835694474
номинация 0.6585413472804106 0.001476550106009889
эгладора 2.089905111439398 0.004685885900088336
эксмо 0.6585413472804106 0.001476550106009889
волчий 1.6127838567197355 0.0036161073020621872
контракт 1.3117538610557542 0.0029411521548335295
текст 0.20341438626691605 0.00045608606786304046
два 0.20909151915860658 0.00046881506537804166
сайт 0.1214221628854628 0.0002722470019853426
чудо 0.8594561900611241 0.0019270318162805471
свет 0.31905309979725377 0.0007153656946126767
библиография 0.2510560207021426 0.0005629058760137726
фантастический 0.8857851287834732 0.0019860653111737066
научный 0.3656292418386089 0.0008197965063645939
редактор 0.31905309979725377 0.0007153656946126767
животное 0.9759617591325612 0.002188255065319644
автохтон 2.089905111439398 0.004685885900088336
наука 0.1978105087489175 0.0004435213200648375
редактор-составитель 1.6127838567197355 0.0036161073020621872
совет 0.3264771178764606 0.0007320114750593288
одесский 0.9138138523837167 0.0020489099829231316
нога 0.7474824306171917 0.001675969575374869
критический 0.5458370670891223 0.0012238499262087943
проза 0.17609125905568124 0.00039482345079749155
хороший 0.20909151915860658 0.00046881506537804166
олма 1.6127838567197355 0.0036161073020621872
стоить 0.6585413472804106 0.001476550106009889
критика 0.2573961987331616 0.0005771215218232323
