русский 0.0035452807646496587 1.7797594200048487e-06
парк 1.3117538610557542 0.0006585109744255794
тьма 1.2448070714251411 0.0006249031483057936
иудей 2.089905111439398 0.001049149152329015
большой 0.21484384804769785 0.00010785333737334229
они 0.5584261943971428 0.0002803344349383247
маца 2.089905111439398 0.001049149152329015
правнук 1.1868151244474543 0.000595790725124224
фурманов 2.089905111439398 0.001049149152329015
недуг 1.135662602000073 0.0005701117479920045
иосиф 0.8346326063360918 0.0004189922722570742
пустохина 2.089905111439398 0.001049149152329015
казак 0.6585413472804106 0.00033059304582349925
железо 1.7888751157754168 0.0008980296765940846
к. 0.21484384804769785 0.00010785333737334229
мариус 2.089905111439398 0.001049149152329015
лицензия 0.0 0.0
блокнот 1.6127838567197355 0.0008096304501605097
ошибка 0.7676858167054786 0.0003853844461372884
идея 0.43669259766405427 0.0002192231915984208
показать… 2.089905111439398 0.001049149152329015
могиле… 2.089905111439398 0.001049149152329015
аптека 1.7888751157754168 0.0008980296765940846
экспозиция 1.089905111439398 0.0005471411202005009
обедать 1.390935107103379 0.0006982605959354312
разгромный 1.2448070714251411 0.0006249031483057936
делать 0.521703387372403 0.00026189929084959984
драматургический 1.3117538610557542 0.0006585109744255794
штукатур 2.089905111439398 0.001049149152329015
небо 0.7888751157754168 0.0003960216444655706
краткий 0.42714727975782385 0.000214431365340273
живоинович 2.089905111439398 0.001049149152329015
дважды 0.7096938697277919 0.0003562720229557188
распутин 1.4878451201114355 0.0007469102008591543
герцен 0.94377707576116 0.0004737836725708634
написать 0.1604861857251052 8.056535427967127e-05
снятие 1.390935107103379 0.0006982605959354312
короткометражный 0.7474824306171917 0.0003752421840447749
ферапонт 2.089905111439398 0.001049149152329015
племянник 0.9759617591325612 0.0004899406421348198
феликс 1.2448070714251411 0.0006249031483057936
апрель 0.16562582537751624 8.314549466742783e-05
послать 0.7888751157754168 0.0003960216444655706
минута 0.811151510486569 0.00040720457353743417
михаилович 0.48784512011143555 0.0002449021687306403
перна 2.089905111439398 0.001049149152329015
распространяться 1.089905111439398 0.0005471411202005009
впрыскивать 2.089905111439398 0.001049149152329015
главное 0.0 0.0
печататься 0.521703387372403 0.00026189929084959984
эфроса 1.6127838567197355 0.0008096304501605097
виленский 1.6127838567197355 0.0008096304501605097
отразиться 0.8346326063360918 0.0004189922722570742
снятой 0.5584261943971428 0.0002803344349383247
поцелуй 1.390935107103379 0.0006982605959354312
линый 2.089905111439398 0.001049149152329015
турбин 1.7888751157754168 0.0008980296765940846
википедия 0.0 0.0
хардкасл 2.089905111439398 0.001049149152329015
царицынский 1.7888751157754168 0.0008980296765940846
май… 2.089905111439398 0.001049149152329015
улица 0.30457527642863086 0.00015289923515493514
стих 0.31905309979725377 0.00016016721877372175
дойти 1.048512426281173 0.0005263616597797052
бичевино 2.089905111439398 0.001049149152329015
градус 2.089905111439398 0.001049149152329015
сходиться 1.390935107103379 0.0006982605959354312
белобрысов 2.089905111439398 0.001049149152329015
просьба 0.584755133119492 0.0002935517736543634
плита 1.1868151244474543 0.000595790725124224
православие 0.8346326063360918 0.0004189922722570742
юлианский 2.089905111439398 0.001049149152329015
тадич 2.089905111439398 0.001049149152329015
петров 0.7096938697277919 0.0003562720229557188
петрович 0.6127838567197355 0.0003076224180319957
инженер 0.8594561900611241 0.000431453910673255
басовый 2.089905111439398 0.001049149152329015
делопроизводитель 1.390935107103379 0.0006982605959354312
место 0.021719249693236305 1.0903237797809388e-05
здравко 2.089905111439398 0.001049149152329015
дубельт 2.089905111439398 0.001049149152329015
вода 0.67493176346858 0.00033882116639988953
литературно-театральный 1.6127838567197355 0.0008096304501605097
гамбург 1.6127838567197355 0.0008096304501605097
блок 0.7888751157754168 0.0003960216444655706
вступить 0.47712125471966244 0.0002395187021685052
гончаров 1.0107238653917732 0.0005073914986906492
граф 0.7096938697277919 0.0003562720229557188
из-за 0.39093510710337914 0.00019625256380691723
ранее 0.6919651027673603 0.00034737203954184753
монолог 1.1868151244474543 0.000595790725124224
фото 0.7096938697277919 0.0003562720229557188
панкрат 1.7888751157754168 0.0008980296765940846
громкий 1.1868151244474543 0.000595790725124224
запрещаться 2.089905111439398 0.001049149152329015
июль 0.19227802014895654 9.652511051654443e-05
офицерский 1.089905111439398 0.0005471411202005009
название 0.28372513745551076 0.0001424322979194331
праздник 0.7474824306171917 0.0003752421840447749
фармера 2.089905111439398 0.001049149152329015
прописка 1.2448070714251411 0.0006249031483057936
павлов 0.94377707576116 0.0004737836725708634
часть 0.2703611758975292 0.00013572348187626968
эмиграция 0.7676858167054786 0.0003853844461372884
дёжа 2.089905111439398 0.001049149152329015
игорь 0.6127838567197355 0.0003076224180319957
прототип 0.7096938697277919 0.0003562720229557188
аловвладимир 2.089905111439398 0.001049149152329015
телефильм 1.0107238653917732 0.0005073914986906492
доска 0.4464524349532105 0.0002241227083098446
лидина 1.6127838567197355 0.0008096304501605097
татьяна 0.6275071135404419 0.0003150136112150812
венгрия 1.4878451201114355 0.0007469102008591543
блаженство 1.6127838567197355 0.0008096304501605097
родиться 0.0 0.0
вязьма 1.390935107103379 0.0006982605959354312
значит 0.9138138523837167 0.000458741893766926
заколдованный 1.390935107103379 0.0006982605959354312
кот 1.0107238653917732 0.0005073914986906492
мёд 1.3117538610557542 0.0006585109744255794
стенка 2.089905111439398 0.001049149152329015
виктор 0.521703387372403 0.00026189929084959984
пройти 0.3656292418386089 0.00018354881618404059
мемориальный 0.4178072535036805 0.00020974259714040184
чиновник 0.6585413472804106 0.00033059304582349925
спиритический 2.089905111439398 0.001049149152329015
захоронить 1.1868151244474543 0.000595790725124224
альфред 1.1868151244474543 0.000595790725124224
согласно 0.5101215148225878 0.0002560850978025039
волошин 1.2448070714251411 0.0006249031483057936
вьюга 1.7888751157754168 0.0008980296765940846
происшествие 0.9759617591325612 0.0004899406421348198
яма 1.4878451201114355 0.0007469102008591543
подольск 1.7888751157754168 0.0008980296765940846
сделать 0.3656292418386089 0.00018354881618404059
возникнуть 0.6427470800971787 0.0003226641968359331
город-сад 2.089905111439398 0.001049149152329015
погубить 1.6127838567197355 0.0008096304501605097
мариэтта 1.6127838567197355 0.0008096304501605097
михаи́ть 1.3117538610557542 0.0006585109744255794
ольбрыхский 2.089905111439398 0.001049149152329015
книга 0.0445821326527405 2.2380588681094623e-05
школа 0.1814200925607482 9.107434365499407e-05
роман 0.10763387839982952 5.403307148585819e-05
увековечить 1.3117538610557542 0.0006585109744255794
личный 0.3264771178764606 0.0001638941354801509
поздний 0.2703611758975292 0.00013572348187626968
кривоносов 2.089905111439398 0.001049149152329015
джованни 1.7888751157754168 0.0008980296765940846
чехия 1.4878451201114355 0.0007469102008591543
карачкина 1.390935107103379 0.0006982605959354312
просветительский 1.7888751157754168 0.0008980296765940846
счесть 1.0107238653917732 0.0005073914986906492
ежемесячный 1.1868151244474543 0.000595790725124224
именины 1.6127838567197355 0.0008096304501605097
типичный 0.94377707576116 0.0004737836725708634
проект 0.31905309979725377 0.00016016721877372175
голубков 1.7888751157754168 0.0008980296765940846
вовлечь 1.6127838567197355 0.0008096304501605097
ахматов 1.0107238653917732 0.0005073914986906492
купить 0.8857851287834732 0.0004446712493892937
максим 0.39970903141088426 0.0002006571442825724
академия 0.3575113516164294 0.00017947357008856894
провести 0.4564366558598114 0.0002291348673995037
биолог 1.390935107103379 0.0006982605959354312
приехать 0.5101215148225878 0.0002560850978025039
недавно 1.1868151244474543 0.000595790725124224
разрешить 0.8857851287834732 0.0004446712493892937
филиппенко 1.6127838567197355 0.0008096304501605097
жена 0.2206733917084217 0.00011077981511466952
фестиваль 0.67493176346858 0.00033882116639988953
перевод 0.34171708443319754 0.00017154472110100276
язык 0.0 0.0
смычка 1.7888751157754168 0.0008980296765940846
анализ 0.6919651027673603 0.00034737203954184753
крестить 1.390935107103379 0.0006982605959354312
находить 0.728177275421805 0.00036555084107520327
сообщить 0.9138138523837167 0.000458741893766926
опера 0.7888751157754168 0.0003960216444655706
вести.р 1.4878451201114355 0.0007469102008591543
абер 2.089905111439398 0.001049149152329015
прочий 0.67493176346858 0.00033882116639988953
музей-квартира 1.135662602000073 0.0005701117479920045
правда 0.2638303087385715 0.00013244493410570856
жалоба 0.94377707576116 0.0004737836725708634
либреттист 1.7888751157754168 0.0008980296765940846
зойка 2.089905111439398 0.001049149152329015
сталин 0.6127838567197355 0.0003076224180319957
труд 0.29751342194114405 0.000149354127480494
присвоить 0.6919651027673603 0.00034737203954184753
врач 0.6127838567197355 0.0003076224180319957
глав-полит-богослужение 2.089905111439398 0.001049149152329015
викентиевич 1.6127838567197355 0.0008096304501605097
замуж 0.6585413472804106 0.00033059304582349925
возможность 0.48784512011143555 0.0002449021687306403
константин 0.5713911715615104 0.00028684295761119996
постановка 0.5713911715615104 0.00028684295761119996
некоторый 0.23864676272032262 0.00011980259172706958
м-ц 2.089905111439398 0.001049149152329015
белинский 0.9759617591325612 0.0004899406421348198
дружеский 0.8857851287834732 0.0004446712493892937
жить 0.11218150615055017 5.631601714385048e-05
волчок 1.6127838567197355 0.0008096304501605097
двоюродный 1.089905111439398 0.0005471411202005009
пастернак 0.9138138523837167 0.000458741893766926
доброволец 1.048512426281173 0.0005263616597797052
лубянка 1.6127838567197355 0.0008096304501605097
письмиченко 2.089905111439398 0.001049149152329015
фельетон 0.67493176346858 0.00033882116639988953
стол 0.7474824306171917 0.0003752421840447749
разрешение 0.8594561900611241 0.000431453910673255
марк 0.5584261943971428 0.0002803344349383247
впечатление 0.49884050441289873 0.0002504219399663146
основа 0.3656292418386089 0.00018354881618404059
назначить 0.67493176346858 0.00033882116639988953
терять 1.089905111439398 0.0005471411202005009
август 0.17082701906332404 8.575653567435945e-05
панин 1.1868151244474543 0.000595790725124224
летучий 1.4878451201114355 0.0007469102008591543
тодор 2.089905111439398 0.001049149152329015
трунина 1.6127838567197355 0.0008096304501605097
горький 0.3575113516164294 0.00017947357008856894
стёпа 1.6127838567197355 0.0008096304501605097
театр 0.23257261500812945 0.00011675332078721356
тайна 0.6919651027673603 0.00034737203954184753
гипертонический 1.7888751157754168 0.0008980296765940846
маг 1.7888751157754168 0.0008980296765940846
некрасиво 2.089905111439398 0.001049149152329015
изд. 0.6275071135404419 0.0003150136112150812
бэйтсон 2.089905111439398 0.001049149152329015
персонаж 0.5584261943971428 0.0002803344349383247
тавасий 2.089905111439398 0.001049149152329015
швондёр 2.089905111439398 0.001049149152329015
мотив 0.3264771178764606 0.0001638941354801509
посвятить 0.17609125905568124 8.839922643357491e-05
речи.произведение 2.089905111439398 0.001049149152329015
ряд 0.2905645619858162 0.0001458657439687832
китайский 1.0107238653917732 0.0005073914986906492
вопрос 0.2703611758975292 0.00013572348187626968
винникнуть 1.7888751157754168 0.0008980296765940846
сганарель 2.089905111439398 0.001049149152329015
самогонный 2.089905111439398 0.001049149152329015
гудок 1.3117538610557542 0.0006585109744255794
юг 0.9759617591325612 0.0004899406421348198
вернуться 0.3264771178764606 0.0001638941354801509
больший 0.14051510479448517 7.053971124221143e-05
варшава 0.9759617591325612 0.0004899406421348198
разный 0.39093510710337914 0.00019625256380691723
лавров 1.048512426281173 0.0005263616597797052
открыть 0.0 0.0
отношение 0.3264771178764606 0.0001638941354801509
личность 0.43669259766405427 0.0002192231915984208
строй 0.8346326063360918 0.0004189922722570742
инквизиция 1.7888751157754168 0.0008980296765940846
алексич 2.089905111439398 0.001049149152329015
комментарий 0.5458370670891223 0.00027401459191220994
выступление 0.5985434176051253 0.00030047360321542433
ян 1.1868151244474543 0.000595790725124224
утверждение 0.7474824306171917 0.0003752421840447749
детский 0.39093510710337914 0.00019625256380691723
закрытие 1.1868151244474543 0.000595790725124224
юмористический 0.9759617591325612 0.0004899406421348198
родственница 1.390935107103379 0.0006982605959354312
последний 0.0 0.0
венг 2.089905111439398 0.001049149152329015
принятие 1.2448070714251411 0.0006249031483057936
покинуть 0.5985434176051253 0.00030047360321542433
сюда 0.6275071135404419 0.0003150136112150812
глаз 0.49884050441289873 0.0002504219399663146
безобразие 2.089905111439398 0.001049149152329015
влиятельный 1.2448070714251411 0.0006249031483057936
платформа 1.390935107103379 0.0006982605959354312
куда-то 1.7888751157754168 0.0008980296765940846
якжена 2.089905111439398 0.001049149152329015
литература 0.05648135595244821 2.8354094353638655e-05
корсаков 1.6127838567197355 0.0008096304501605097
бомбардов 2.089905111439398 0.001049149152329015
р. 0.42714727975782385 0.000214431365340273
немирович 2.089905111439398 0.001049149152329015
кровопролитие 1.7888751157754168 0.0008980296765940846
общественный 0.27699175479654237 0.0001390520857412361
флот 1.1868151244474543 0.000595790725124224
переехать 0.38233493534146157 0.00019193520850474977
вообще 0.6585413472804106 0.00033059304582349925
анна 0.3739017678045988 0.0001877016906649592
стать 0.08558373765675535 4.2963723723270754e-05
свой 0.0770678867342257 3.868869815975185e-05
пять 0.42714727975782385 0.000214431365340273
рабкор 1.7888751157754168 0.0008980296765940846
сосед 1.048512426281173 0.0005263616597797052
гетманат 2.089905111439398 0.001049149152329015
л. 0.1604861857251052 8.056535427967127e-05
мистификатор 1.6127838567197355 0.0008096304501605097
электронный 0.521703387372403 0.00026189929084959984
наблюдение 0.8594561900611241 0.000431453910673255
область 0.18681512444745438 9.378269299571002e-05
перенесение 1.6127838567197355 0.0008096304501605097
портрет 0.34171708443319754 0.00017154472110100276
уго 2.089905111439398 0.001049149152329015
исследователь 0.5985434176051253 0.00030047360321542433
братский 1.089905111439398 0.0005471411202005009
гранильщик 1.7888751157754168 0.0008980296765940846
режиссёр 0.34171708443319754 0.00017154472110100276
изд 0.33403025576690654 0.00016768587136892896
понравиться 0.8857851287834732 0.0004446712493892937
свадьба 0.8594561900611241 0.000431453910673255
простой 0.5985434176051253 0.00030047360321542433
перевезти 1.1868151244474543 0.000595790725124224
начать 0.27699175479654237 0.0001390520857412361
катаев 1.1868151244474543 0.000595790725124224
записка 0.4178072535036805 0.00020974259714040184
цензура 0.6427470800971787 0.0003226641968359331
восстановить 0.8346326063360918 0.0004189922722570742
садовый 1.2448070714251411 0.0006249031483057936
ныне 0.3739017678045988 0.0001877016906649592
подделка 1.6127838567197355 0.0008096304501605097
собачий 1.3117538610557542 0.0006585109744255794
бактериолог 2.089905111439398 0.001049149152329015
чернов 1.2448070714251411 0.0006249031483057936
семеро 1.3117538610557542 0.0006585109744255794
союз 0.2573961987331616 0.00012921495920339437
земля 0.4086638740638107 0.0002051525472207885
хочуть 2.089905111439398 0.001049149152329015
дравич 2.089905111439398 0.001049149152329015
воспаление 1.135662602000073 0.0005701117479920045
трава 1.089905111439398 0.0005471411202005009
платить 1.2448070714251411 0.0006249031483057936
прекрасный 0.6127838567197355 0.0003076224180319957
илона 2.089905111439398 0.001049149152329015
творчества… 2.089905111439398 0.001049149152329015
инсценировать 1.3117538610557542 0.0006585109744255794
траурный 1.2448070714251411 0.0006249031483057936
поднять 0.9759617591325612 0.0004899406421348198
платье 1.3117538610557542 0.0006585109744255794
год 0.0 0.0
эволюция 0.9138138523837167 0.000458741893766926
инцидент 1.390935107103379 0.0006982605959354312
россия 0.0770678867342257 3.868869815975185e-05
врач-гинеколог 2.089905111439398 0.001049149152329015
переиздать 1.3117538610557542 0.0006585109744255794
дочь 0.20909151915860658 0.00010496562206757357
пролог 1.1868151244474543 0.000595790725124224
пьер 1.390935107103379 0.0006982605959354312
штерн 1.7888751157754168 0.0008980296765940846
антисоветский 1.0107238653917732 0.0005073914986906492
мянник 2.089905111439398 0.001049149152329015
геннадий 0.8594561900611241 0.000431453910673255
денис 1.3117538610557542 0.0006585109744255794
молодёжь 0.6427470800971787 0.0003226641968359331
ухудшаться 1.4878451201114355 0.0007469102008591543
ткач 1.7888751157754168 0.0008980296765940846
стальной 1.390935107103379 0.0006982605959354312
глеб 1.0107238653917732 0.0005073914986906492
родный 0.43669259766405427 0.0002192231915984208
муся 2.089905111439398 0.001049149152329015
негронить 2.089905111439398 0.001049149152329015
сводиться 1.135662602000073 0.0005701117479920045
батум 1.6127838567197355 0.0008096304501605097
василий 0.49884050441289873 0.0002504219399663146
конфиденциальность 0.0 0.0
хозяин 0.7888751157754168 0.0003960216444655706
февраль 0.1214221628854628 6.095490104691907e-05
бунша 2.089905111439398 0.001049149152329015
успех 0.4086638740638107 0.0002051525472207885
плохой 0.6585413472804106 0.00033059304582349925
зачислить 0.8857851287834732 0.0004446712493892937
позвонить 1.6127838567197355 0.0008096304501605097
строка 0.8346326063360918 0.0004189922722570742
действие 0.49884050441289873 0.0002504219399663146
лакшин 1.390935107103379 0.0006982605959354312
киев-город 2.089905111439398 0.001049149152329015
анджей 1.6127838567197355 0.0008096304501605097
гинеколог 2.089905111439398 0.001049149152329015
завод 0.584755133119492 0.0002935517736543634
англ 0.3739017678045988 0.0001877016906649592
тираж 0.49884050441289873 0.0002504219399663146
и. 0.14051510479448517 7.053971124221143e-05
фифя 1.7888751157754168 0.0008980296765940846
симптом 1.7888751157754168 0.0008980296765940846
смысл 0.49884050441289873 0.0002504219399663146
столько 0.8594561900611241 0.000431453910673255
ангела 2.089905111439398 0.001049149152329015
изыматься 1.7888751157754168 0.0008980296765940846
достроить 1.7888751157754168 0.0008980296765940846
роковой 1.135662602000073 0.0005701117479920045
отец 0.17082701906332404 8.575653567435945e-05
табаков 1.390935107103379 0.0006982605959354312
вечерний 0.7474824306171917 0.0003752421840447749
добрюхо 2.089905111439398 0.001049149152329015
представление 0.5713911715615104 0.00028684295761119996
астрофизический 1.1868151244474543 0.000595790725124224
перспектива 1.089905111439398 0.0005471411202005009
жилище 1.7888751157754168 0.0008980296765940846
благой 1.1868151244474543 0.000595790725124224
пристрастие 1.089905111439398 0.0005471411202005009
пастырь 2.089905111439398 0.001049149152329015
вып 0.43669259766405427 0.0002192231915984208
уорнер 1.4878451201114355 0.0007469102008591543
следить 0.0 0.0
киевский 0.811151510486569 0.00040720457353743417
германия 0.43669259766405427 0.0002192231915984208
терский 1.7888751157754168 0.0008980296765940846
постоянно 0.7474824306171917 0.0003752421840447749
комиссия 0.6919651027673603 0.00034737203954184753
дом-усадьба 1.7888751157754168 0.0008980296765940846
художественный 0.2206733917084217 0.00011077981511466952
единственный 0.48784512011143555 0.0002449021687306403
золотистый 1.7888751157754168 0.0008980296765940846
людмила 0.7096938697277919 0.0003562720229557188
международный 0.3656292418386089 0.00018354881618404059
художник 0.39970903141088426 0.0002006571442825724
бой 0.6585413472804106 0.00033059304582349925
даниэль 1.2448070714251411 0.0006249031483057936
грек 1.3117538610557542 0.0006585109744255794
валентина 0.811151510486569 0.00040720457353743417
книжка 0.67493176346858 0.00033882116639988953
строительство 0.67493176346858 0.00033882116639988953
дело 0.2510560207021426 0.0001260321389066981
замечательный 0.4564366558598114 0.0002291348673995037
никакой 0.67493176346858 0.00033882116639988953
работник 0.8346326063360918 0.0004189922722570742
декадент 1.6127838567197355 0.0008096304501605097
давыдов 0.8857851287834732 0.0004446712493892937
портал 0.6275071135404419 0.0003150136112150812
набросок 1.048512426281173 0.0005263616597797052
динамит 2.089905111439398 0.001049149152329015
негодный 1.7888751157754168 0.0008980296765940846
канал 0.67493176346858 0.00033882116639988953
капа 2.089905111439398 0.001049149152329015
декабрь 0.14051510479448517 7.053971124221143e-05
доп 0.67493176346858 0.00033882116639988953
владикавказ 1.6127838567197355 0.0008096304501605097
кречмара 2.089905111439398 0.001049149152329015
центр 0.38233493534146157 0.00019193520850474977
г. 0.1214221628854628 6.095490104691907e-05
дешана 2.089905111439398 0.001049149152329015
воскликнуть 1.3117538610557542 0.0006585109744255794
юбка 2.089905111439398 0.001049149152329015
философия 0.7096938697277919 0.0003562720229557188
похороны 0.67493176346858 0.00033882116639988953
наружу 2.089905111439398 0.001049149152329015
культурный 0.47712125471966244 0.0002395187021685052
очерк 0.27699175479654237 0.0001390520857412361
прозвать 1.1868151244474543 0.000595790725124224
ведьма 1.7888751157754168 0.0008980296765940846
золотой 0.3739017678045988 0.0001877016906649592
никольский 1.3117538610557542 0.0006585109744255794
понзонь 2.089905111439398 0.001049149152329015
гос 0.7676858167054786 0.0003853844461372884
маргарита 0.94377707576116 0.0004737836725708634
обнаружить 0.7096938697277919 0.0003562720229557188
развод 0.94377707576116 0.0004737836725708634
защищать 0.9759617591325612 0.0004899406421348198
бат 2.089905111439398 0.001049149152329015
хабенский 1.6127838567197355 0.0008096304501605097
помочь 0.7096938697277919 0.0003562720229557188
гастон 1.7888751157754168 0.0008980296765940846
крёстный 1.048512426281173 0.0005263616597797052
крикогубый 2.089905111439398 0.001049149152329015
октябрь 0.1503858588207794 7.5494909046576e-05
пласт 1.390935107103379 0.0006982605959354312
интенсивный 1.390935107103379 0.0006982605959354312
выпить 1.4878451201114355 0.0007469102008591543
бурляй 1.7888751157754168 0.0008980296765940846
лиходеев 2.089905111439398 0.001049149152329015
елена 0.4178072535036805 0.00020974259714040184
обращение 0.14051510479448517 7.053971124221143e-05
усадьба 0.8857851287834732 0.0004446712493892937
считаться 0.6585413472804106 0.00033059304582349925
следующий 0.48784512011143555 0.0002449021687306403
исторический 0.3264771178764606 0.0001638941354801509
поездка 0.5458370670891223 0.00027401459191220994
с. 0.11218150615055017 5.631601714385048e-05
видеть 0.42714727975782385 0.000214431365340273
допустить 1.0107238653917732 0.0005073914986906492
начало 0.16562582537751624 8.314549466742783e-05
франция 0.5101215148225878 0.0002560850978025039
повзрослеть 1.4878451201114355 0.0007469102008591543
кроме 0.43669259766405427 0.0002192231915984208
гвардия 0.3264771178764606 0.0001638941354801509
анатолий 0.6585413472804106 0.00033059304582349925
криминальный 2.089905111439398 0.001049149152329015
я-то 1.7888751157754168 0.0008980296765940846
лестница 1.390935107103379 0.0006982605959354312
дословный 2.089905111439398 0.001049149152329015
экранизация 0.4086638740638107 0.0002051525472207885
вит 1.3117538610557542 0.0006585109744255794
пребывать 1.6127838567197355 0.0008096304501605097
мальков 2.089905111439398 0.001049149152329015
сочинение 0.2448070714251411 0.00012289511617727966
неоконченный 0.8857851287834732 0.0004446712493892937
неземной 1.7888751157754168 0.0008980296765940846
морфий 1.7888751157754168 0.0008980296765940846
союзник 1.135662602000073 0.0005701117479920045
унр→украинский 2.089905111439398 0.001049149152329015
фекета 2.089905111439398 0.001049149152329015
сойти 1.1868151244474543 0.000595790725124224
тифлисский 1.390935107103379 0.0006982605959354312
научный 0.3656292418386089 0.00018354881618404059
классика 0.5584261943971428 0.0002803344349383247
возрождение 0.9138138523837167 0.000458741893766926
отдавать 0.9759617591325612 0.0004899406421348198
тип 0.5101215148225878 0.0002560850978025039
окончательный 0.8857851287834732 0.0004446712493892937
связывать 1.089905111439398 0.0005471411202005009
леда 2.089905111439398 0.001049149152329015
поставить 0.34171708443319754 0.00017154472110100276
зрение 0.6127838567197355 0.0003076224180319957
однажды 0.8594561900611241 0.000431453910673255
репетиция 1.3117538610557542 0.0006585109744255794
порекомендовать 2.089905111439398 0.001049149152329015
плейлист 2.089905111439398 0.001049149152329015
локид 2.089905111439398 0.001049149152329015
иоанн 1.1868151244474543 0.000595790725124224
весь 0.2448070714251411 0.00012289511617727966
хауманна 2.089905111439398 0.001049149152329015
поведение 0.8857851287834732 0.0004446712493892937
чарнота 2.089905111439398 0.001049149152329015
о. 0.31175386105575426 0.00015650294229706537
зона 0.9759617591325612 0.0004899406421348198
досуг 1.3117538610557542 0.0006585109744255794
необыкновенный 1.048512426281173 0.0005263616597797052
кондуктор 1.6127838567197355 0.0008096304501605097
лариосик 2.089905111439398 0.001049149152329015
остров 0.5336026106721107 0.00026787279652214387
ингеборга 2.089905111439398 0.001049149152329015
дьяволиада 2.089905111439398 0.001049149152329015
эдесский 2.089905111439398 0.001049149152329015
идейный 0.8857851287834732 0.0004446712493892937
рабочий 0.42714727975782385 0.000214431365340273
воронцов 1.6127838567197355 0.0008096304501605097
надобный 1.6127838567197355 0.0008096304501605097
московский 0.14051510479448517 7.053971124221143e-05
корреспонденция 1.390935107103379 0.0006982605959354312
неопр. 0.1454224392892293 7.30032325749143e-05
судьба 0.34171708443319754 0.00017154472110100276
безыменский 1.6127838567197355 0.0008096304501605097
установить 0.34171708443319754 0.00017154472110100276
яйцо 1.6127838567197355 0.0008096304501605097
мосток 1.1868151244474543 0.000595790725124224
богема 2.089905111439398 0.001049149152329015
государственный 0.1814200925607482 9.107434365499407e-05
империя 0.2510560207021426 0.0001260321389066981
тоньяцци 2.089905111439398 0.001049149152329015
известный 0.2703611758975292 0.00013572348187626968
дружина 1.4878451201114355 0.0007469102008591543
киршон 2.089905111439398 0.001049149152329015
военный 0.3656292418386089 0.00018354881618404059
направить 0.5458370670891223 0.00027401459191220994
лорд 2.089905111439398 0.001049149152329015
рапорт 1.2448070714251411 0.0006249031483057936
доступно 0.0 0.0
обсерватория 1.135662602000073 0.0005701117479920045
впоследствии 0.2703611758975292 0.00013572348187626968
эльпит-рабкоммуна 2.089905111439398 0.001049149152329015
берлин 0.6585413472804106 0.00033059304582349925
именно 0.39093510710337914 0.00019625256380691723
почка 1.6127838567197355 0.0008096304501605097
сказка 0.49884050441289873 0.0002504219399663146
мир 0.13086371911830436 6.569463811159857e-05
обыск 1.135662602000073 0.0005701117479920045
польша 0.7474824306171917 0.0003752421840447749
ева 1.6127838567197355 0.0008096304501605097
бессилие 1.7888751157754168 0.0008980296765940846
миф 0.7474824306171917 0.0003752421840447749
багровый 2.089905111439398 0.001049149152329015
москин 2.089905111439398 0.001049149152329015
благодаря 0.5336026106721107 0.00026787279652214387
евгениевич 1.3117538610557542 0.0006585109744255794
толубей 2.089905111439398 0.001049149152329015
совместный 0.811151510486569 0.00040720457353743417
пьеса 0.33403025576690654 0.00016768587136892896
грядущий 1.2448070714251411 0.0006249031483057936
присутствие 1.0107238653917732 0.0005073914986906492
скорый 1.135662602000073 0.0005701117479920045
руперт 2.089905111439398 0.001049149152329015
случай 0.3739017678045988 0.0001877016906649592
сцена 0.47712125471966244 0.0002395187021685052
взгляд 0.46665582104149744 0.00023426497040235814
сначала 0.5713911715615104 0.00028684295761119996
италия 0.6585413472804106 0.00033059304582349925
операция 0.811151510486569 0.00040720457353743417
горло 1.6127838567197355 0.0008096304501605097
охота 0.8346326063360918 0.0004189922722570742
история 0.12611728409384265 6.33118896053427e-05
свиньин 1.390935107103379 0.0006982605959354312
ковальский 2.089905111439398 0.001049149152329015
арифметика 2.089905111439398 0.001049149152329015
ж. 1.135662602000073 0.0005701117479920045
десять 0.5584261943971428 0.0002803344349383247
яковлев 0.8857851287834732 0.0004446712493892937
блузка 2.089905111439398 0.001049149152329015
друг 0.27699175479654237 0.0001390520857412361
роль 0.4178072535036805 0.00020974259714040184
республика 0.6427470800971787 0.0003226641968359331
терапевт 2.089905111439398 0.001049149152329015
котов 1.7888751157754168 0.0008980296765940846
райлэнс 2.089905111439398 0.001049149152329015
любимов 1.135662602000073 0.0005701117479920045
коко 2.089905111439398 0.001049149152329015
класс 0.4178072535036805 0.00020974259714040184
дыба 1.7888751157754168 0.0008980296765940846
заратустра 2.089905111439398 0.001049149152329015
основный 0.42714727975782385 0.000214431365340273
материальный 0.7474824306171917 0.0003752421840447749
закон 0.6585413472804106 0.00033059304582349925
записаться 1.390935107103379 0.0006982605959354312
демьяненко 2.089905111439398 0.001049149152329015
меню 0.0 0.0
гафт 1.7888751157754168 0.0008980296765940846
мочь 0.29751342194114405 0.000149354127480494
картие 1.7888751157754168 0.0008980296765940846
салтык 1.7888751157754168 0.0008980296765940846
турбина-тальберг 2.089905111439398 0.001049149152329015
голгофа 1.6127838567197355 0.0008096304501605097
преподаватель 0.6585413472804106 0.00033059304582349925
взяться 0.94377707576116 0.0004737836725708634
волшебный 1.3117538610557542 0.0006585109744255794
приключение 0.7676858167054786 0.0003853844461372884
минеральный 2.089905111439398 0.001049149152329015
праздновать 1.7888751157754168 0.0008980296765940846
приспособление 1.6127838567197355 0.0008096304501605097
возвратиться 0.9759617591325612 0.0004899406421348198
многие 0.39970903141088426 0.0002006571442825724
хвост 1.4878451201114355 0.0007469102008591543
массовый 0.7676858167054786 0.0003853844461372884
банан 2.089905111439398 0.001049149152329015
достойный 0.811151510486569 0.00040720457353743417
библиотека 0.17609125905568124 8.839922643357491e-05
семья 0.10763387839982952 5.403307148585819e-05
де 0.728177275421805 0.00036555084107520327
корпус 0.7888751157754168 0.0003960216444655706
бросить 0.8346326063360918 0.0004189922722570742
страна 0.2638303087385715 0.00013244493410570856
дмитриев 0.9759617591325612 0.0004899406421348198
вызывать 0.7474824306171917 0.0003752421840447749
какой-то 0.5336026106721107 0.00026787279652214387
виталий 1.135662602000073 0.0005701117479920045
первоначальный 0.8594561900611241 0.000431453910673255
след 0.5985434176051253 0.00030047360321542433
таракан 2.089905111439398 0.001049149152329015
гоголевский 0.9759617591325612 0.0004899406421348198
городок 0.9138138523837167 0.000458741893766926
ослепительный 2.089905111439398 0.001049149152329015
появиться 0.30457527642863086 0.00015289923515493514
прашкевич 1.6127838567197355 0.0008096304501605097
особенный 1.0107238653917732 0.0005073914986906492
ленин 0.5336026106721107 0.00026787279652214387
который 0.0605213337541883 3.038219565973308e-05
недостаточность 1.1868151244474543 0.000595790725124224
сара 2.089905111439398 0.001049149152329015
латтуада 2.089905111439398 0.001049149152329015
путевой 1.0107238653917732 0.0005073914986906492
пожертвовать 0.0 0.0
политика 0.0 0.0
дом-музей 0.6919651027673603 0.00034737203954184753
горский 1.7888751157754168 0.0008980296765940846
попросить 0.9138138523837167 0.000458741893766926
господин 0.8346326063360918 0.0004189922722570742
балабан 2.089905111439398 0.001049149152329015
ярига 2.089905111439398 0.001049149152329015
богданов 1.135662602000073 0.0005701117479920045
сват 1.7888751157754168 0.0008980296765940846
борис 0.4086638740638107 0.0002051525472207885
регин 1.4878451201114355 0.0007469102008591543
ефрем 1.135662602000073 0.0005701117479920045
т. 0.20909151915860658 0.00010496562206757357
лексикон 0.8346326063360918 0.0004189922722570742
булгаков.запрос 2.089905111439398 0.001049149152329015
панихида 1.4878451201114355 0.0007469102008591543
мифология 1.3117538610557542 0.0006585109744255794
готовиться 0.6919651027673603 0.00034737203954184753
египетский 1.390935107103379 0.0006982605959354312
зарабатывать 0.9759617591325612 0.0004899406421348198
а. 0.04851242628117289 2.4353627651191206e-05
время 0.0770678867342257 3.868869815975185e-05
захаров 0.8594561900611241 0.000431453910673255
бежар 2.089905111439398 0.001049149152329015
данный 0.728177275421805 0.00036555084107520327
птица 0.94377707576116 0.0004737836725708634
мумия 2.089905111439398 0.001049149152329015
умение 0.9759617591325612 0.0004899406421348198
поступить 0.2510560207021426 0.0001260321389066981
пусть 0.7676858167054786 0.0003853844461372884
зимин 2.089905111439398 0.001049149152329015
исслед 1.7888751157754168 0.0008980296765940846
сказать 0.3264771178764606 0.0001638941354801509
рудольф 1.4878451201114355 0.0007469102008591543
расшифровать 2.089905111439398 0.001049149152329015
восстать 1.3117538610557542 0.0006585109744255794
паршивый 1.6127838567197355 0.0008096304501605097
глава 0.34954242194515406 0.0001754731033861215
юный 0.67493176346858 0.00033882116639988953
украинский 0.7096938697277919 0.0003562720229557188
цикл 0.39970903141088426 0.0002006571442825724
брачный 1.4878451201114355 0.0007469102008591543
борисов 1.2448070714251411 0.0006249031483057936
андрей 0.31905309979725377 0.00016016721877372175
реминисценция 1.1868151244474543 0.000595790725124224
отставать 1.6127838567197355 0.0008096304501605097
мобилизовать 1.1868151244474543 0.000595790725124224
данные 0.584755133119492 0.0002935517736543634
читать 0.31905309979725377 0.00016016721877372175
придыхание 2.089905111439398 0.001049149152329015
венчать 1.6127838567197355 0.0008096304501605097
реакционный 1.089905111439398 0.0005471411202005009
кутёж 1.6127838567197355 0.0008096304501605097
польза 0.728177275421805 0.00036555084107520327
участие 0.27699175479654237 0.0001390520857412361
недра 1.4878451201114355 0.0007469102008591543
лично 0.6275071135404419 0.0003150136112150812
сон 0.6427470800971787 0.0003226641968359331
ругательный 1.7888751157754168 0.0008980296765940846
иной 0.0 0.0
оказаться 0.4464524349532105 0.0002241227083098446
освобождение 0.728177275421805 0.00036555084107520327
располагаться 0.9138138523837167 0.000458741893766926
дёготь 1.6127838567197355 0.0008096304501605097
люба 2.089905111439398 0.001049149152329015
артист 0.7676858167054786 0.0003853844461372884
посадить 1.3117538610557542 0.0006585109744255794
бегемот 1.7888751157754168 0.0008980296765940846
парамон 2.089905111439398 0.001049149152329015
бульвар 0.8346326063360918 0.0004189922722570742
быт 0.5713911715615104 0.00028684295761119996
булгаковъ 2.089905111439398 0.001049149152329015
версия 0.0 0.0
турецкий 1.3117538610557542 0.0006585109744255794
толстой 0.5101215148225878 0.0002560850978025039
грозный 0.8594561900611241 0.000431453910673255
бурнаковский 2.089905111439398 0.001049149152329015
ноженко 2.089905111439398 0.001049149152329015
кинофельетон 2.089905111439398 0.001049149152329015
жанна 1.390935107103379 0.0006982605959354312
залог 1.4878451201114355 0.0007469102008591543
ненадобность 1.7888751157754168 0.0008980296765940846
иллюстрировать 1.135662602000073 0.0005701117479920045
установленный 1.048512426281173 0.0005263616597797052
тяжёлый 0.47712125471966244 0.0002395187021685052
опыт 0.48784512011143555 0.0002449021687306403
народный 0.30457527642863086 0.00015289923515493514
газета 0.11677725783969929 5.862312140547153e-05
рукопись 0.46665582104149744 0.00023426497040235814
буча 2.089905111439398 0.001049149152329015
правительство 0.5584261943971428 0.0002803344349383247
евгений 0.3739017678045988 0.0001877016906649592
рашель 2.089905111439398 0.001049149152329015
эмигрировать 0.9759617591325612 0.0004899406421348198
перевоспитать 2.089905111439398 0.001049149152329015
ковальчук 1.3117538610557542 0.0006585109744255794
поиск 0.584755133119492 0.0002935517736543634
рядом 0.4464524349532105 0.0002241227083098446
шурки-уполномоченный 2.089905111439398 0.001049149152329015
полк 0.9138138523837167 0.000458741893766926
море 0.5985434176051253 0.00030047360321542433
губерния 0.33403025576690654 0.00016768587136892896
менее 0.5985434176051253 0.00030047360321542433
дэйвиснуть 2.089905111439398 0.001049149152329015
жорж 1.1868151244474543 0.000595790725124224
сарс 2.089905111439398 0.001049149152329015
шмидт 0.94377707576116 0.0004737836725708634
москва 0.05247861349877426 2.6344685491352538e-05
найти 0.0 0.0
хирург 1.390935107103379 0.0006982605959354312
любить 0.49884050441289873 0.0002504219399663146
святоша 1.7888751157754168 0.0008980296765940846
поэтому 0.5101215148225878 0.0002560850978025039
налёт 2.089905111439398 0.001049149152329015
набрасывать 1.7888751157754168 0.0008980296765940846
советский 0.1454224392892293 7.30032325749143e-05
музыкант-балалаечник 2.089905111439398 0.001049149152329015
войцех 2.089905111439398 0.001049149152329015
умно 2.089905111439398 0.001049149152329015
белозерская-булгаков 2.089905111439398 0.001049149152329015
россии→ 2.089905111439398 0.001049149152329015
четверть 1.2448070714251411 0.0006249031483057936
мадемуазель 1.7888751157754168 0.0008980296765940846
акафист 2.089905111439398 0.001049149152329015
единый 0.8857851287834732 0.0004446712493892937
сведение 0.584755133119492 0.0002935517736543634
принимать 0.4464524349532105 0.0002241227083098446
очерковый 0.584755133119492 0.0002935517736543634
политический 0.39970903141088426 0.0002006571442825724
молодой 0.17609125905568124 8.839922643357491e-05
пелагея 1.4878451201114355 0.0007469102008591543
кремировать 1.4878451201114355 0.0007469102008591543
эдмый 2.089905111439398 0.001049149152329015
захаживать 2.089905111439398 0.001049149152329015
антидифтерийный 2.089905111439398 0.001049149152329015
санто 2.089905111439398 0.001049149152329015
подарок 1.0107238653917732 0.0005073914986906492
журден 2.089905111439398 0.001049149152329015
вячеслав 0.811151510486569 0.00040720457353743417
поэма 0.5336026106721107 0.00026787279652214387
первый 0.05247861349877426 2.6344685491352538e-05
заложить 1.089905111439398 0.0005471411202005009
трудиться 1.048512426281173 0.0005263616597797052
мартин 1.4878451201114355 0.0007469102008591543
объявить 0.5584261943971428 0.0002803344349383247
бабицкийюрий 2.089905111439398 0.001049149152329015
биография 0.07287177214061759 3.65822149300289e-05
ящик 1.2448070714251411 0.0006249031483057936
ответственность 0.0 0.0
помощь 0.4564366558598114 0.0002291348673995037
видеотвка 2.089905111439398 0.001049149152329015
искариот 1.7888751157754168 0.0008980296765940846
п. 0.17609125905568124 8.839922643357491e-05
редактироваться 0.029207271085786267 1.4662284681619611e-05
гимназиибратие 2.089905111439398 0.001049149152329015
мастера… 2.089905111439398 0.001049149152329015
дворжецкий 1.7888751157754168 0.0008980296765940846
болезнь 0.521703387372403 0.00026189929084959984
премьера 0.6919651027673603 0.00034737203954184753
радость 0.811151510486569 0.00040720457353743417
стоять 0.7096938697277919 0.0003562720229557188
горемыка-всеволод 2.089905111439398 0.001049149152329015
крайне 0.728177275421805 0.00036555084107520327
бег 1.7888751157754168 0.0008980296765940846
против 0.34954242194515406 0.0001754731033861215
день 0.1454224392892293 7.30032325749143e-05
сыпь 2.089905111439398 0.001049149152329015
произведение 0.010723865391773066 5.383466562135073e-06
авторский 0.39093510710337914 0.00019625256380691723
мопассан 1.6127838567197355 0.0008096304501605097
холм 1.2448070714251411 0.0006249031483057936
вы 1.2448070714251411 0.0006249031483057936
марио 1.7888751157754168 0.0008980296765940846
канцлер 1.3117538610557542 0.0006585109744255794
брак 0.31905309979725377 0.00016016721877372175
андреевский 1.390935107103379 0.0006982605959354312
назвать 0.23257261500812945 0.00011675332078721356
рецензия 0.5584261943971428 0.0002803344349383247
частный 0.5713911715615104 0.00028684295761119996
усков 2.089905111439398 0.001049149152329015
отступление 1.1868151244474543 0.000595790725124224
перестать 0.7474824306171917 0.0003752421840447749
горло… 2.089905111439398 0.001049149152329015
комната 0.6275071135404419 0.0003150136112150812
связаться 0.0 0.0
память 0.2206733917084217 0.00011077981511466952
лентв 2.089905111439398 0.001049149152329015
такси 2.089905111439398 0.001049149152329015
булгаков… 2.089905111439398 0.001049149152329015
россия→ 2.089905111439398 0.001049149152329015
ярости… 2.089905111439398 0.001049149152329015
просвещение 0.6275071135404419 0.0003150136112150812
отличие 0.7096938697277919 0.0003562720229557188
мороз 1.1868151244474543 0.000595790725124224
завершить 0.7096938697277919 0.0003562720229557188
проехаться 2.089905111439398 0.001049149152329015
учиться 0.2703611758975292 0.00013572348187626968
стрижен 1.7888751157754168 0.0008980296765940846
стеклянный 2.089905111439398 0.001049149152329015
сей 0.7474824306171917 0.0003752421840447749
джим 2.089905111439398 0.001049149152329015
месяц 0.39970903141088426 0.0002006571442825724
открытый 0.47712125471966244 0.0002395187021685052
колесо 1.1868151244474543 0.000595790725124224
буза 1.7888751157754168 0.0008980296765940846
жулиа 2.089905111439398 0.001049149152329015
фантастика 0.8594561900611241 0.000431453910673255
грузия 1.1868151244474543 0.000595790725124224
всё-таки 1.048512426281173 0.0005263616597797052
весник 2.089905111439398 0.001049149152329015
рабочих… 2.089905111439398 0.001049149152329015
быль 1.6127838567197355 0.0008096304501605097
лебедев 0.9138138523837167 0.000458741893766926
восемь 0.7888751157754168 0.0003960216444655706
расширяться 1.4878451201114355 0.0007469102008591543
препарат 1.4878451201114355 0.0007469102008591543
быть 0.34954242194515406 0.0001754731033861215
крещение 1.089905111439398 0.0005471411202005009
содержание 0.0 0.0
обратиться 0.7474824306171917 0.0003752421840447749
кладбище 0.2448070714251411 0.00012289511617727966
рай 1.048512426281173 0.0005263616597797052
увидеть 0.5101215148225878 0.0002560850978025039
угодный 1.2448070714251411 0.0006249031483057936
стихотворение 0.3739017678045988 0.0001877016906649592
в.ф 1.4878451201114355 0.0007469102008591543
сентябрь—октябрь 2.089905111439398 0.001049149152329015
группа 0.42714727975782385 0.000214431365340273
гражданство 0.021719249693236305 1.0903237797809388e-05
талантливый 0.8594561900611241 0.000431453910673255
петер 1.6127838567197355 0.0008096304501605097
белозерский 2.089905111439398 0.001049149152329015
каэнп 2.089905111439398 0.001049149152329015
черкашин 2.089905111439398 0.001049149152329015
цт 1.7888751157754168 0.0008980296765940846
мат 1.6127838567197355 0.0008096304501605097
викицитатник 0.2905645619858162 0.0001458657439687832
озеро 0.9138138523837167 0.000458741893766926
великий 0.2510560207021426 0.0001260321389066981
составить 0.5336026106721107 0.00026787279652214387
лапицкий 2.089905111439398 0.001049149152329015
всюду 1.390935107103379 0.0006982605959354312
тыкк 2.089905111439398 0.001049149152329015
нечего 1.0107238653917732 0.0005073914986906492
збигнев 2.089905111439398 0.001049149152329015
николаев 0.67493176346858 0.00033882116639988953
марьяно 2.089905111439398 0.001049149152329015
николаевич 0.4464524349532105 0.0002241227083098446
принять 0.23864676272032262 0.00011980259172706958
дать 0.3264771178764606 0.0001638941354801509
спиваковский 2.089905111439398 0.001049149152329015
десницкий 1.7888751157754168 0.0008980296765940846
трудовой 0.6275071135404419 0.0003150136112150812
выздоровление 1.3117538610557542 0.0006585109744255794
шотр 2.089905111439398 0.001049149152329015
корона 1.4878451201114355 0.0007469102008591543
родственный 0.67493176346858 0.00033882116639988953
шервинский 2.089905111439398 0.001049149152329015
иго 1.390935107103379 0.0006982605959354312
слишком 0.7096938697277919 0.0003562720229557188
недоступный 0.2703611758975292 0.00013572348187626968
постель 1.089905111439398 0.0005471411202005009
владимир 0.2206733917084217 0.00011077981511466952
ваш 0.6275071135404419 0.0003150136112150812
варконь 2.089905111439398 0.001049149152329015
защита 0.47712125471966244 0.0002395187021685052
жзл 0.8857851287834732 0.0004446712493892937
статистика 0.0 0.0
шпрехен 2.089905111439398 0.001049149152329015
колтая 2.089905111439398 0.001049149152329015
кавказский 1.0107238653917732 0.0005073914986906492
рокк 2.089905111439398 0.001049149152329015
выйти 0.10763387839982952 5.403307148585819e-05
медицинский 0.8346326063360918 0.0004189922722570742
фотолетопись 1.7888751157754168 0.0008980296765940846
сила 0.30457527642863086 0.00015289923515493514
вернуть 0.8594561900611241 0.000431453910673255
прифронтовой 1.6127838567197355 0.0008096304501605097
двуликий 1.6127838567197355 0.0008096304501605097
распасться 1.089905111439398 0.0005471411202005009
боярский 1.6127838567197355 0.0008096304501605097
азбука 0.9138138523837167 0.000458741893766926
материал 0.2905645619858162 0.0001458657439687832
телесериал 0.94377707576116 0.0004737836725708634
пагубный 2.089905111439398 0.001049149152329015
гайдай 1.7888751157754168 0.0008980296765940846
вынужденно 1.6127838567197355 0.0008096304501605097
малишевский 2.089905111439398 0.001049149152329015
грузинский 1.048512426281173 0.0005263616597797052
сфинкс 1.4878451201114355 0.0007469102008591543
торговый 0.9759617591325612 0.0004899406421348198
гаспар 1.7888751157754168 0.0008980296765940846
двадцатый 1.390935107103379 0.0006982605959354312
глыба 1.6127838567197355 0.0008096304501605097
биток 2.089905111439398 0.001049149152329015
прижизненный 0.94377707576116 0.0004737836725708634
публиковаться 0.3264771178764606 0.0001638941354801509
иешуа 2.089905111439398 0.001049149152329015
литературный 0.03682666795597817 1.8487283110430808e-05
часы 1.089905111439398 0.0005471411202005009
фетисов 1.7888751157754168 0.0008980296765940846
близнец 1.6127838567197355 0.0008096304501605097
смехач 2.089905111439398 0.001049149152329015
троцкий 1.2448070714251411 0.0006249031483057936
будущее 0.42714727975782385 0.000214431365340273
образ 0.28372513745551076 0.0001424322979194331
церковь 0.5336026106721107 0.00026787279652214387
перенаправляться 0.7096938697277919 0.0003562720229557188
викитека 0.3575113516164294 0.00017947357008856894
новый 0.0770678867342257 3.868869815975185e-05
просить 0.6585413472804106 0.00033059304582349925
немецкий 0.39093510710337914 0.00019625256380691723
дифтерия 2.089905111439398 0.001049149152329015
пётр 0.5336026106721107 0.00026787279652214387
мимзь 2.089905111439398 0.001049149152329015
гражданский 0.43669259766405427 0.0002192231915984208
череп 1.390935107103379 0.0006982605959354312
жигон 2.089905111439398 0.001049149152329015
воспоминание… 2.089905111439398 0.001049149152329015
спасоевич 2.089905111439398 0.001049149152329015
москвоведение 2.089905111439398 0.001049149152329015
олимпиада 1.390935107103379 0.0006982605959354312
историк 0.67493176346858 0.00033882116639988953
лёвшинский 2.089905111439398 0.001049149152329015
эксмо 0.6585413472804106 0.00033059304582349925
ренессанс 2.089905111439398 0.001049149152329015
козаков 1.390935107103379 0.0006982605959354312
сайт 0.1214221628854628 6.095490104691907e-05
подавать 1.390935107103379 0.0006982605959354312
дэйнмэн 2.089905111439398 0.001049149152329015
свет 0.31905309979725377 0.00016016721877372175
переоценка 1.6127838567197355 0.0008096304501605097
актёр 0.6127838567197355 0.0003076224180319957
керзон 1.7888751157754168 0.0008980296765940846
мадлен 2.089905111439398 0.001049149152329015
взятие 1.2448070714251411 0.0006249031483057936
леонид 0.6585413472804106 0.00033059304582349925
фельетонист 1.7888751157754168 0.0008980296765940846
сидараф 2.089905111439398 0.001049149152329015
огпу 1.3117538610557542 0.0006585109744255794
рэдклифф 2.089905111439398 0.001049149152329015
в. 0.11677725783969929 5.862312140547153e-05
никитский 1.135662602000073 0.0005701117479920045
сифилис 2.089905111439398 0.001049149152329015
бенуа 1.4878451201114355 0.0007469102008591543
венец 1.135662602000073 0.0005701117479920045
трамвай 1.2448070714251411 0.0006249031483057936
литературно-мемориальный 1.048512426281173 0.0005263616597797052
вагонно-ремонтный 2.089905111439398 0.001049149152329015
дореф 2.089905111439398 0.001049149152329015
раздумье 1.048512426281173 0.0005263616597797052
дон 0.9138138523837167 0.000458741893766926
армия 0.3656292418386089 0.00018354881618404059
крымский 0.6919651027673603 0.00034737203954184753
практика 0.7474824306171917 0.0003752421840447749
каполиккьо 2.089905111439398 0.001049149152329015
предоставить 0.8594561900611241 0.000431453910673255
люська 2.089905111439398 0.001049149152329015
маркуш 2.089905111439398 0.001049149152329015
петух 1.7888751157754168 0.0008980296765940846
профессия 0.8346326063360918 0.0004189922722570742
композитор 0.584755133119492 0.0002935517736543634
пиквикский 2.089905111439398 0.001049149152329015
неблагоприятный 2.089905111439398 0.001049149152329015
алмазный 1.3117538610557542 0.0006585109744255794
автор 0.09867903574690305 4.953766854764209e-05
хозяйка 1.089905111439398 0.0005471411202005009
литераторов- 2.089905111439398 0.001049149152329015
бортко 2.089905111439398 0.001049149152329015
аллергический 2.089905111439398 0.001049149152329015
театральный 0.49884050441289873 0.0002504219399663146
угрызать 2.089905111439398 0.001049149152329015
добровольческий 1.3117538610557542 0.0006585109744255794
профессор 0.46665582104149744 0.00023426497040235814
галерея 0.7096938697277919 0.0003562720229557188
отвлекаться 1.7888751157754168 0.0008980296765940846
серафим 1.4878451201114355 0.0007469102008591543
суметь 0.7676858167054786 0.0003853844461372884
журнал 0.03682666795597817 1.8487283110430808e-05
богомазов 2.089905111439398 0.001049149152329015
обломок 1.7888751157754168 0.0008980296765940846
титульный 1.1868151244474543 0.000595790725124224
булга́к 2.089905111439398 0.001049149152329015
шенталинский 1.7888751157754168 0.0008980296765940846
остерегаться 2.089905111439398 0.001049149152329015
полный 0.34171708443319754 0.00017154472110100276
курсовая/дипломный 2.089905111439398 0.001049149152329015
солнце 0.728177275421805 0.00036555084107520327
отказать 1.089905111439398 0.0005471411202005009
диккенс 1.1868151244474543 0.000595790725124224
май 0.16562582537751624 8.314549466742783e-05
сорок 0.7888751157754168 0.0003960216444655706
басилашвили 1.7888751157754168 0.0008980296765940846
бронский 2.089905111439398 0.001049149152329015
планета 1.0107238653917732 0.0005073914986906492
виленкина 2.089905111439398 0.001049149152329015
мадмазель 2.089905111439398 0.001049149152329015
состояние 0.46665582104149744 0.00023426497040235814
трудность 1.089905111439398 0.0005471411202005009
студзинский 2.089905111439398 0.001049149152329015
пшоняк 2.089905111439398 0.001049149152329015
письмо 0.22658225131894205 0.0001137461100998705
факультет 0.29751342194114405 0.000149354127480494
речь 0.5713911715615104 0.00028684295761119996
библифетчик 2.089905111439398 0.001049149152329015
хотеться 0.6919651027673603 0.00034737203954184753
проспект 0.6585413472804106 0.00033059304582349925
отмена 1.089905111439398 0.0005471411202005009
снежкина 2.089905111439398 0.001049149152329015
варвар 1.048512426281173 0.0005263616597797052
замысел 0.7676858167054786 0.0003853844461372884
облегчить 1.390935107103379 0.0006982605959354312
цепь 1.135662602000073 0.0005701117479920045
валентин 1.0107238653917732 0.0005073914986906492
брайерс 2.089905111439398 0.001049149152329015
этот 0.0 0.0
полезно 1.4878451201114355 0.0007469102008591543
крым 0.5713911715615104 0.00028684295761119996
анастасия 0.8594561900611241 0.000431453910673255
ферапонтович 2.089905111439398 0.001049149152329015
митя 1.4878451201114355 0.0007469102008591543
подтверждение 1.390935107103379 0.0006982605959354312
смотреть 0.17609125905568124 8.839922643357491e-05
сюд 2.089905111439398 0.001049149152329015
храбров 2.089905111439398 0.001049149152329015
подружиться 1.048512426281173 0.0005263616597797052
стржельчик 2.089905111439398 0.001049149152329015
драма 0.5584261943971428 0.0002803344349383247
собрание 0.2703611758975292 0.00013572348187626968
хотеть 0.3739017678045988 0.0001877016906649592
отмечать 0.4464524349532105 0.0002241227083098446
сергей 0.3575113516164294 0.00017947357008856894
испр 0.9138138523837167 0.000458741893766926
исаак 1.135662602000073 0.0005701117479920045
др 0.39970903141088426 0.0002006571442825724
снять 0.5713911715615104 0.00028684295761119996
достигать 1.1868151244474543 0.000595790725124224
зойкин 2.089905111439398 0.001049149152329015
править 0.0 0.0
миниатюра 1.2448070714251411 0.0006249031483057936
голландец 1.7888751157754168 0.0008980296765940846
немой 0.5985434176051253 0.00030047360321542433
стеклов 2.089905111439398 0.001049149152329015
звёздный 1.390935107103379 0.0006982605959354312
влад 1.7888751157754168 0.0008980296765940846
оценить 0.584755133119492 0.0002935517736543634
структура 0.9138138523837167 0.000458741893766926
пункт 0.728177275421805 0.00036555084107520327
тело 0.6427470800971787 0.0003226641968359331
коровьев 2.089905111439398 0.001049149152329015
узел 1.4878451201114355 0.0007469102008591543
мученик 1.4878451201114355 0.0007469102008591543
буквально 1.089905111439398 0.0005471411202005009
писательский 0.5101215148225878 0.0002560850978025039
хранить 1.135662602000073 0.0005701117479920045
верх 1.4878451201114355 0.0007469102008591543
комедия 0.7474824306171917 0.0003752421840447749
эпилог 1.3117538610557542 0.0006585109744255794
девичество 1.0107238653917732 0.0005073914986906492
период 0.33403025576690654 0.00016768587136892896
мать 0.18681512444745438 9.378269299571002e-05
выезд 1.1868151244474543 0.000595790725124224
киносценарий 1.089905111439398 0.0005471411202005009
архивировать 0.2448070714251411 0.00012289511617727966
состав 0.47712125471966244 0.0002395187021685052
милославский 2.089905111439398 0.001049149152329015
поблизости 0.0 0.0
подол 1.7888751157754168 0.0008980296765940846
воланд 2.089905111439398 0.001049149152329015
аметист 1.7888751157754168 0.0008980296765940846
идти 0.4086638740638107 0.0002051525472207885
беспристрастие 1.7888751157754168 0.0008980296765940846
болтнев 2.089905111439398 0.001049149152329015
лишь 0.38233493534146157 0.00019193520850474977
ирина 0.6427470800971787 0.0003226641968359331
обух 1.7888751157754168 0.0008980296765940846
иванович 0.3739017678045988 0.0001877016906649592
надгробный 1.089905111439398 0.0005471411202005009
александр 0.15540666019583024 7.80153916645734e-05
бабушка 0.6427470800971787 0.0003226641968359331
береш 2.089905111439398 0.001049149152329015
адорф 2.089905111439398 0.001049149152329015
разобрать 1.390935107103379 0.0006982605959354312
село 0.4086638740638107 0.0002051525472207885
архивный 0.38233493534146157 0.00019193520850474977
говорящий 1.7888751157754168 0.0008980296765940846
дата 0.014358150046867215 7.207906650033742e-06
страница 0.0 0.0
михаил 0.2510560207021426 0.0001260321389066981
ранний 0.27699175479654237 0.0001390520857412361
мучить 1.0107238653917732 0.0005073914986906492
фон 0.7096938697277919 0.0003562720229557188
писатель 0.05247861349877426 2.6344685491352538e-05
переводчик 0.46665582104149744 0.00023426497040235814
феклист 1.7888751157754168 0.0008980296765940846
булгаковский 1.7888751157754168 0.0008980296765940846
вахтангов 1.7888751157754168 0.0008980296765940846
сердце 0.4464524349532105 0.0002241227083098446
патриарх 1.135662602000073 0.0005701117479920045
приурочить 1.048512426281173 0.0005263616597797052
корзухина 2.089905111439398 0.001049149152329015
брат 0.2703611758975292 0.00013572348187626968
либретто 0.9138138523837167 0.000458741893766926
ричард 1.4878451201114355 0.0007469102008591543
маслов 1.4878451201114355 0.0007469102008591543
маляр 1.7888751157754168 0.0008980296765940846
семинария 1.135662602000073 0.0005701117479920045
драматург 0.42714727975782385 0.000214431365340273
пожар 0.8594561900611241 0.000431453910673255
природа 0.6427470800971787 0.0003226641968359331
мхат 1.390935107103379 0.0006982605959354312
пролетарский 1.135662602000073 0.0005701117479920045
соблазн 1.6127838567197355 0.0008096304501605097
врач-венеролог 2.089905111439398 0.001049149152329015
солнечный 0.9759617591325612 0.0004899406421348198
заговор 1.089905111439398 0.0005471411202005009
неделя 0.5713911715615104 0.00028684295761119996
земский 1.089905111439398 0.0005471411202005009
филипп 1.2448070714251411 0.0006249031483057936
тимоти 2.089905111439398 0.001049149152329015
незабудка 2.089905111439398 0.001049149152329015
неопр 0.29751342194114405 0.000149354127480494
преподавательница 1.7888751157754168 0.0008980296765940846
сотрудничать 0.49884050441289873 0.0002504219399663146
племянница 0.9138138523837167 0.000458741893766926
поместить 0.6585413472804106 0.00033059304582349925
нужно 0.5985434176051253 0.00030047360321542433
ст 0.6585413472804106 0.00033059304582349925
квартирный 1.7888751157754168 0.0008980296765940846
электра 1.6127838567197355 0.0008096304501605097
любовь 0.2573961987331616 0.00012921495920339437
возражение 1.4878451201114355 0.0007469102008591543
риджильо 2.089905111439398 0.001049149152329015
начальство 0.9759617591325612 0.0004899406421348198
ефим 1.1868151244474543 0.000595790725124224
инна 1.2448070714251411 0.0006249031483057936
коровьев-фагот 2.089905111439398 0.001049149152329015
понтия 2.089905111439398 0.001049149152329015
творчество 0.08990511143939793 4.513308807198691e-05
мёртвый 0.7474824306171917 0.0003752421840447749
ю. 0.23864676272032262 0.00011980259172706958
коллега 0.8857851287834732 0.0004446712493892937
жанр 0.19227802014895654 9.652511051654443e-05
телеграмма 0.9759617591325612 0.0004899406421348198
ссср 0.08558373765675535 4.2963723723270754e-05
киев 0.67493176346858 0.00033882116639988953
фруктовый 2.089905111439398 0.001049149152329015
духовный 0.5458370670891223 0.00027401459191220994
ростоцкий 1.390935107103379 0.0006982605959354312
максуд 2.089905111439398 0.001049149152329015
денежный 0.9759617591325612 0.0004899406421348198
брусиловский 2.089905111439398 0.001049149152329015
менять 1.135662602000073 0.0005701117479920045
сознание 0.6275071135404419 0.0003150136112150812
весна 0.43669259766405427 0.0002192231915984208
мизантропия 2.089905111439398 0.001049149152329015
разработчик 0.0 0.0
война 0.20341438626691605 0.00010211565575648395
палмера 2.089905111439398 0.001049149152329015
существовать 0.521703387372403 0.00026189929084959984
хроника 0.6127838567197355 0.0003076224180319957
кольцо 1.048512426281173 0.0005263616597797052
ломкина 2.089905111439398 0.001049149152329015
владислав 1.1868151244474543 0.000595790725124224
сжечь 1.048512426281173 0.0005263616597797052
русый 0.3656292418386089 0.00018354881618404059
мышлаевский 2.089905111439398 0.001049149152329015
наследие 0.521703387372403 0.00026189929084959984
брюн 2.089905111439398 0.001049149152329015
терпеть 1.2448070714251411 0.0006249031483057936
условие 0.0 0.0
публицистика 0.521703387372403 0.00026189929084959984
празднование 0.94377707576116 0.0004737836725708634
тимофеев 1.4878451201114355 0.0007469102008591543
крупский 1.390935107103379 0.0006982605959354312
использование 0.0 0.0
афанасиевич 1.3117538610557542 0.0006585109744255794
мозг 0.9138138523837167 0.000458741893766926
нем. 0.8594561900611241 0.000431453910673255
смерть 0.06871581236945988 3.449588974370476e-05
ужас 1.089905111439398 0.0005471411202005009
диктовать 1.7888751157754168 0.0008980296765940846
краснокаменный 2.089905111439398 0.001049149152329015
стравить 2.089905111439398 0.001049149152329015
персиковый 2.089905111439398 0.001049149152329015
качество 0.34954242194515406 0.0001754731033861215
давно 0.811151510486569 0.00040720457353743417
свидетельство 0.6275071135404419 0.0003150136112150812
цитата 0.2703611758975292 0.00013572348187626968
стиль 0.5584261943971428 0.0002803344349383247
профсоюз 1.2448070714251411 0.0006249031483057936
репортаж 1.2448070714251411 0.0006249031483057936
заключить 0.7676858167054786 0.0003853844461372884
рбк 1.390935107103379 0.0006982605959354312
коммунист 1.1868151244474543 0.000595790725124224
каменце-подольский 2.089905111439398 0.001049149152329015
мерцать 2.089905111439398 0.001049149152329015
запорожец 1.7888751157754168 0.0008980296765940846
употреблять 1.6127838567197355 0.0008096304501605097
замужество 0.9759617591325612 0.0004899406421348198
гибель 0.811151510486569 0.00040720457353743417
перевернуть 1.4878451201114355 0.0007469102008591543
маска 0.94377707576116 0.0004737836725708634
югославия 1.089905111439398 0.0005471411202005009
сарай 1.390935107103379 0.0006982605959354312
продлеваться 2.089905111439398 0.001049149152329015
выступить 0.5336026106721107 0.00026787279652214387
легкомыслие 1.6127838567197355 0.0008096304501605097
мариуш 2.089905111439398 0.001049149152329015
лекторий 1.7888751157754168 0.0008980296765940846
чёрный 0.48784512011143555 0.0002449021687306403
власть 0.38233493534146157 0.00019193520850474977
порыв 1.3117538610557542 0.0006585109744255794
враг 0.5713911715615104 0.00028684295761119996
барон 0.94377707576116 0.0004737836725708634
идеология 1.0107238653917732 0.0005073914986906492
скульптор 0.49884050441289873 0.0002504219399663146
являться 0.2448070714251411 0.00012289511617727966
встреча 0.4178072535036805 0.00020974259714040184
велеть 1.1868151244474543 0.000595790725124224
ходасевич 1.135662602000073 0.0005701117479920045
жениться 0.521703387372403 0.00026189929084959984
игра 0.5713911715615104 0.00028684295761119996
одоевский 1.3117538610557542 0.0006585109744255794
спуск 1.6127838567197355 0.0008096304501605097
вариант 0.5458370670891223 0.00027401459191220994
легко 0.7888751157754168 0.0003960216444655706
брать 0.7474824306171917 0.0003752421840447749
урна 1.390935107103379 0.0006982605959354312
оставлять 0.7474824306171917 0.0003752421840447749
столица 0.6275071135404419 0.0003150136112150812
сеанс 1.1868151244474543 0.000595790725124224
мрамор 1.6127838567197355 0.0008096304501605097
незаконный 1.2448070714251411 0.0006249031483057936
толоконник 2.089905111439398 0.001049149152329015
лифанов 2.089905111439398 0.001049149152329015
вудвайн 2.089905111439398 0.001049149152329015
юбилей 0.6427470800971787 0.0003226641968359331
возможно 0.5713911715615104 0.00028684295761119996
конец 0.20341438626691605 0.00010211565575648395
тиф 1.089905111439398 0.0005471411202005009
ежи 1.7888751157754168 0.0008980296765940846
оба 0.47712125471966244 0.0002395187021685052
должный 0.4086638740638107 0.0002051525472207885
степень 0.33403025576690654 0.00016768587136892896
музей 0.3739017678045988 0.0001877016906649592
кабала 1.7888751157754168 0.0008980296765940846
камень 0.8857851287834732 0.0004446712493892937
документальный 0.4086638740638107 0.0002051525472207885
директория 2.089905111439398 0.001049149152329015
мастер 0.6275071135404419 0.0003150136112150812
складка 1.7888751157754168 0.0008980296765940846
злоба 1.135662602000073 0.0005701117479920045
госпиталь 0.7888751157754168 0.0003960216444655706
громадный 1.2448070714251411 0.0006249031483057936
выставка 0.7888751157754168 0.0003960216444655706
март 0.14051510479448517 7.053971124221143e-05
надежда 0.6275071135404419 0.0003150136112150812
картина 0.4178072535036805 0.00020974259714040184
сумма 0.94377707576116 0.0004737836725708634
бранислав 2.089905111439398 0.001049149152329015
объяснить 0.8857851287834732 0.0004446712493892937
парка 1.089905111439398 0.0005471411202005009
е. 0.1604861857251052 8.056535427967127e-05
получить 0.17082701906332404 8.575653567435945e-05
людей… 1.4878451201114355 0.0007469102008591543
служба 0.3656292418386089 0.00018354881618404059
напечатать 0.3656292418386089 0.00018354881618404059
наследник 0.9138138523837167 0.000458741893766926
современный 0.23864676272032262 0.00011980259172706958
черновцы 1.7888751157754168 0.0008980296765940846
малый 0.33403025576690654 0.00016768587136892896
дэниел 1.7888751157754168 0.0008980296765940846
аксиома 2.089905111439398 0.001049149152329015
именинница-хозяйка 2.089905111439398 0.001049149152329015
языковед 2.089905111439398 0.001049149152329015
апра 2.089905111439398 0.001049149152329015
мама 1.048512426281173 0.0005263616597797052
известность 0.49884050441289873 0.0002504219399663146
лист 0.6427470800971787 0.0003226641968359331
хронометраж 2.089905111439398 0.001049149152329015
джанни 2.089905111439398 0.001049149152329015
рубль 0.5584261943971428 0.0002803344349383247
вертинский 1.4878451201114355 0.0007469102008591543
поворот 1.3117538610557542 0.0006585109744255794
варламов 1.2448070714251411 0.0006249031483057936
тренёв 2.089905111439398 0.001049149152329015
кирилл 0.811151510486569 0.00040720457353743417
кровь 0.6919651027673603 0.00034737203954184753
мой 0.23257261500812945 0.00011675332078721356
приём 0.6427470800971787 0.0003226641968359331
азазелло 2.089905111439398 0.001049149152329015
крест 0.8346326063360918 0.0004189922722570742
антонин 1.3117538610557542 0.0006585109744255794
явление 0.6275071135404419 0.0003150136112150812
биллю-белоцерковский 2.089905111439398 0.001049149152329015
пропасть 0.7676858167054786 0.0003853844461372884
ноябрь 0.1978105087489175 9.930246423138428e-05
светлана 0.8346326063360918 0.0004189922722570742
покорность 1.6127838567197355 0.0008096304501605097
абдул 2.089905111439398 0.001049149152329015
областной 0.6585413472804106 0.00033059304582349925
издательский 0.7096938697277919 0.0003562720229557188
будущий 0.49884050441289873 0.0002504219399663146
пойти 0.6427470800971787 0.0003226641968359331
писать 0.13566260200007307 6.81037158634905e-05
новодевичий 0.8346326063360918 0.0004189922722570742
ответ 0.521703387372403 0.00026189929084959984
общественно-литературный 1.4878451201114355 0.0007469102008591543
главный 0.0 0.0
хэмма 2.089905111439398 0.001049149152329015
запрещать 1.1868151244474543 0.000595790725124224
отказ 0.0 0.0
чтение 0.38233493534146157 0.00019193520850474977
манжета 2.089905111439398 0.001049149152329015
боевой 0.728177275421805 0.00036555084107520327
дымный 2.089905111439398 0.001049149152329015
общество 0.33403025576690654 0.00016768587136892896
алкоголизм 1.7888751157754168 0.0008980296765940846
заплачу… 2.089905111439398 0.001049149152329015
лекция 0.584755133119492 0.0002935517736543634
знать 0.3739017678045988 0.0001877016906649592
искусство 0.2448070714251411 0.00012289511617727966
кюня 2.089905111439398 0.001049149152329015
образованность 1.2448070714251411 0.0006249031483057936
э. 0.42714727975782385 0.000214431365340273
примечание 0.07287177214061759 3.65822149300289e-05
покровский 0.94377707576116 0.0004737836725708634
вслед 1.089905111439398 0.0005471411202005009
конечный 1.1868151244474543 0.000595790725124224
слово 0.19227802014895654 9.652511051654443e-05
б. 0.2510560207021426 0.0001260321389066981
второй 0.15540666019583024 7.80153916645734e-05
белый 0.39093510710337914 0.00019625256380691723
иметь 0.2510560207021426 0.0001260321389066981
затем 0.2206733917084217 0.00011077981511466952
макс 2.089905111439398 0.001049149152329015
щеголев 1.6127838567197355 0.0008096304501605097
молотов 1.048512426281173 0.0005263616597797052
разница 1.135662602000073 0.0005701117479920045
плотник 1.2448070714251411 0.0006249031483057936
комар 1.7888751157754168 0.0008980296765940846
зи 2.089905111439398 0.001049149152329015
июнь 0.1814200925607482 9.107434365499407e-05
клочья… 2.089905111439398 0.001049149152329015
жуковский 0.9138138523837167 0.000458741893766926
реальность 0.8857851287834732 0.0004446712493892937
вместо 0.728177275421805 0.00036555084107520327
викицитатникева 1.390935107103379 0.0006982605959354312
вера 0.48784512011143555 0.0002449021687306403
шурановый 2.089905111439398 0.001049149152329015
скончаться 0.3264771178764606 0.0001638941354801509
автоклав 2.089905111439398 0.001049149152329015
формат 1.0107238653917732 0.0005073914986906492
свидание 1.0107238653917732 0.0005073914986906492
полька 1.390935107103379 0.0006982605959354312
критик 0.39970903141088426 0.0002006571442825724
григорианский 2.089905111439398 0.001049149152329015
владеть 0.7474824306171917 0.0003752421840447749
фенольо 2.089905111439398 0.001049149152329015
ленинград 0.5584261943971428 0.0002803344349383247
белоусенко 2.089905111439398 0.001049149152329015
киеву… 2.089905111439398 0.001049149152329015
демидов 1.390935107103379 0.0006982605959354312
шерер 2.089905111439398 0.001049149152329015
положительный 0.728177275421805 0.00036555084107520327
база 1.089905111439398 0.0005471411202005009
авербах 1.4878451201114355 0.0007469102008591543
павел 0.5584261943971428 0.0002803344349383247
начаться 0.49884050441289873 0.0002504219399663146
монастырь 0.811151510486569 0.00040720457353743417
анимационный 1.390935107103379 0.0006982605959354312
адрес 0.46665582104149744 0.00023426497040235814
всероссийский 0.6275071135404419 0.0003150136112150812
показать 0.5584261943971428 0.0002803344349383247
султан 2.089905111439398 0.001049149152329015
д. 0.1814200925607482 9.107434365499407e-05
путешествие 0.5584261943971428 0.0002803344349383247
рупор 2.089905111439398 0.001049149152329015
фактически 0.7096938697277919 0.0003562720229557188
дэвид 1.4878451201114355 0.0007469102008591543
версач 2.089905111439398 0.001049149152329015
варна 2.089905111439398 0.001049149152329015
мы 0.0 0.0
накануне 1.048512426281173 0.0005263616597797052
уметь 0.7096938697277919 0.0003562720229557188
прочее 0.94377707576116 0.0004737836725708634
этика 1.2448070714251411 0.0006249031483057936
подготовить 0.7474824306171917 0.0003752421840447749
казаться 0.584755133119492 0.0002935517736543634
выбор 0.6585413472804106 0.00033059304582349925
произойти 0.5713911715615104 0.00028684295761119996
календарь 1.1868151244474543 0.000595790725124224
вип-персона 2.089905111439398 0.001049149152329015
очень 0.29751342194114405 0.000149354127480494
ханский 2.089905111439398 0.001049149152329015
разнести 1.6127838567197355 0.0008096304501605097
прим 1.3117538610557542 0.0006585109744255794
андреевич 0.8346326063360918 0.0004189922722570742
разговорный 1.135662602000073 0.0005701117479920045
смотрительница 2.089905111439398 0.001049149152329015
жуан 2.089905111439398 0.001049149152329015
чичиков 1.6127838567197355 0.0008096304501605097
несколько 0.19227802014895654 9.652511051654443e-05
неприятный 1.135662602000073 0.0005701117479920045
глубоко 0.8346326063360918 0.0004189922722570742
автограф 0.4464524349532105 0.0002241227083098446
православный 0.6127838567197355 0.0003076224180319957
племя 1.3117538610557542 0.0006585109744255794
бутон 2.089905111439398 0.001049149152329015
добавить 0.9138138523837167 0.000458741893766926
текст 0.20341438626691605 0.00010211565575648395
вырезать 1.6127838567197355 0.0008096304501605097
ругать 1.4878451201114355 0.0007469102008591543
шиловский 1.6127838567197355 0.0008096304501605097
наш 0.21484384804769785 0.00010785333737334229
нужный 0.67493176346858 0.00033882116639988953
квартира 0.4178072535036805 0.00020974259714040184
покойник 1.7888751157754168 0.0008980296765940846
посмертный 0.8594561900611241 0.000431453910673255
шкловский 0.9759617591325612 0.0004899406421348198
давно… 2.089905111439398 0.001049149152329015
кончаковский 2.089905111439398 0.001049149152329015
столетие.ru 2.089905111439398 0.001049149152329015
чистый 0.6919651027673603 0.00034737203954184753
михаилъ 2.089905111439398 0.001049149152329015
клуб 0.67493176346858 0.00033882116639988953
великобритания 1.135662602000073 0.0005701117479920045
людовик 1.7888751157754168 0.0008980296765940846
преимущество 1.0107238653917732 0.0005073914986906492
голый 1.7888751157754168 0.0008980296765940846
бывший 0.3656292418386089 0.00018354881618404059
прогимназия 1.7888751157754168 0.0008980296765940846
деньга 0.5336026106721107 0.00026787279652214387
полотняный 2.089905111439398 0.001049149152329015
необычайный 1.135662602000073 0.0005701117479920045
малое 0.9759617591325612 0.0004899406421348198
мигель 1.7888751157754168 0.0008980296765940846
экранизировать 0.7888751157754168 0.0003960216444655706
ренцо 2.089905111439398 0.001049149152329015
дантес 1.6127838567197355 0.0008096304501605097
дядя 0.6127838567197355 0.0003076224180319957
борменталь 2.089905111439398 0.001049149152329015
далее 0.7676858167054786 0.0003853844461372884
необходимость 0.811151510486569 0.00040720457353743417
собственный 0.3656292418386089 0.00018354881618404059
регулярный 1.3117538610557542 0.0006585109744255794
множество 0.6275071135404419 0.0003150136112150812
казачий 1.089905111439398 0.0005471411202005009
пушкин 0.48784512011143555 0.0002449021687306403
старое 0.67493176346858 0.00033882116639988953
копыто 1.7888751157754168 0.0008980296765940846
болевой 2.089905111439398 0.001049149152329015
университет 0.15540666019583024 7.80153916645734e-05
вступа 0.7096938697277919 0.0003562720229557188
заявлять 0.9138138523837167 0.000458741893766926
прямоугольник 2.089905111439398 0.001049149152329015
утратить 0.8594561900611241 0.000431453910673255
родитель 0.43669259766405427 0.0002192231915984208
опубликовать 0.1214221628854628 6.095490104691907e-05
дапкунать 2.089905111439398 0.001049149152329015
я. 0.39093510710337914 0.00019625256380691723
определить 0.7676858167054786 0.0003853844461372884
одновременно 0.5101215148225878 0.0002560850978025039
неуместный 1.4878451201114355 0.0007469102008591543
семь 0.6127838567197355 0.0003076224180319957
императрица 1.089905111439398 0.0005471411202005009
сад 0.6427470800971787 0.0003226641968359331
черновой 1.1868151244474543 0.000595790725124224
источник 0.0 0.0
сомнение 0.7474824306171917 0.0003752421840447749
диагностировать 1.6127838567197355 0.0008096304501605097
раздумывать 2.089905111439398 0.001049149152329015
кириллович 1.390935107103379 0.0006982605959354312
браться 1.390935107103379 0.0006982605959354312
недолюбливать 1.6127838567197355 0.0008096304501605097
полотенце 2.089905111439398 0.001049149152329015
член 0.18681512444745438 9.378269299571002e-05
вдова 0.7474824306171917 0.0003752421840447749
викисклад 0.18681512444745438 9.378269299571002e-05
диплом 0.7474824306171917 0.0003752421840447749
никитинский 1.7888751157754168 0.0008980296765940846
лекарь 1.6127838567197355 0.0008096304501605097
решить 0.5336026106721107 0.00026787279652214387
левий 2.089905111439398 0.001049149152329015
фамилия 0.0605213337541883 3.038219565973308e-05
хотя 0.46665582104149744 0.00023426497040235814
суханов 1.7888751157754168 0.0008980296765940846
тайный 0.728177275421805 0.00036555084107520327
отвечать 0.6919651027673603 0.00034737203954184753
хлопотать 1.390935107103379 0.0006982605959354312
бубновый 1.7888751157754168 0.0008980296765940846
угол 0.8346326063360918 0.0004189922722570742
вгик 1.2448070714251411 0.0006249031483057936
пилат 2.089905111439398 0.001049149152329015
св 1.089905111439398 0.0005471411202005009
опасаться 1.089905111439398 0.0005471411202005009
ершалаим 2.089905111439398 0.001049149152329015
себя.из 2.089905111439398 0.001049149152329015
вразрез 2.089905111439398 0.001049149152329015
савельев 1.4878451201114355 0.0007469102008591543
сервантес 2.089905111439398 0.001049149152329015
распространить 0.94377707576116 0.0004737836725708634
эхо 0.67493176346858 0.00033882116639988953
что 0.5713911715615104 0.00028684295761119996
здание 0.5458370670891223 0.00027401459191220994
геринг 2.089905111439398 0.001049149152329015
дистиллировать 2.089905111439398 0.001049149152329015
безруков 1.7888751157754168 0.0008980296765940846
роберт 1.135662602000073 0.0005701117479920045
инсценировка 1.135662602000073 0.0005701117479920045
грегоретти 2.089905111439398 0.001049149152329015
титов 1.4878451201114355 0.0007469102008591543
могила 0.31175386105575426 0.00015650294229706537
огонь 0.5985434176051253 0.00030047360321542433
зингер 2.089905111439398 0.001049149152329015
опора 1.2448070714251411 0.0006249031483057936
сост 0.4086638740638107 0.0002051525472207885
пироговский 1.7888751157754168 0.0008980296765940846
иуда 1.6127838567197355 0.0008096304501605097
всё 0.28372513745551076 0.0001424322979194331
быков 0.584755133119492 0.0002935517736543634
нефросклероз 2.089905111439398 0.001049149152329015
поступление 0.9138138523837167 0.000458741893766926
чаша 1.390935107103379 0.0006982605959354312
вид 0.4464524349532105 0.0002241227083098446
кара 1.4878451201114355 0.0007469102008591543
прописать 1.4878451201114355 0.0007469102008591543
коллекция/текст 2.089905111439398 0.001049149152329015
разгромить 1.6127838567197355 0.0008096304501605097
варфоломей 1.7888751157754168 0.0008980296765940846
заседание 0.7888751157754168 0.0003960216444655706
золтан 2.089905111439398 0.001049149152329015
тальберг 2.089905111439398 0.001049149152329015
кафэ 2.089905111439398 0.001049149152329015
кукольник 1.7888751157754168 0.0008980296765940846
бомгарда 2.089905111439398 0.001049149152329015
пьерлуиджи 2.089905111439398 0.001049149152329015
евангелие 1.135662602000073 0.0005701117479920045
внимание 0.4464524349532105 0.0002241227083098446
алексей 0.42714727975782385 0.000214431365340273
арцименеть 1.7888751157754168 0.0008980296765940846
жизнь 0.08990511143939793 4.513308807198691e-05
собака 0.811151510486569 0.00040720457353743417
фильм 0.2448070714251411 0.00012289511617727966
карандаш 1.3117538610557542 0.0006585109744255794
гимназия 0.48784512011143555 0.0002449021687306403
допрос 0.9138138523837167 0.000458741893766926
купюра 1.2448070714251411 0.0006249031483057936
ссылка 0.08990511143939793 4.513308807198691e-05
также 0.14051510479448517 7.053971124221143e-05
катастрофа 1.4878451201114355 0.0007469102008591543
выпускаться 1.390935107103379 0.0006982605959354312
воздвиженский 2.089905111439398 0.001049149152329015
итал 1.3117538610557542 0.0006585109744255794
фальшивый 1.1868151244474543 0.000595790725124224
зиф 1.6127838567197355 0.0008096304501605097
выехать 0.9138138523837167 0.000458741893766926
реакция 0.811151510486569 0.00040720457353743417
ревизор 1.390935107103379 0.0006982605959354312
издательство 0.17609125905568124 8.839922643357491e-05
дневник 0.39970903141088426 0.0002006571442825724
редакционный 1.048512426281173 0.0005263616597797052
такой 0.2510560207021426 0.0001260321389066981
поток 1.3117538610557542 0.0006585109744255794
четыре 0.3575113516164294 0.00017947357008856894
резко 0.6585413472804106 0.00033059304582349925
основание 0.6585413472804106 0.00033059304582349925
отредактировать 0.0 0.0
меншарош 2.089905111439398 0.001049149152329015
яновскай 1.7888751157754168 0.0008980296765940846
доцент 1.7888751157754168 0.0008980296765940846
дежурить 1.4878451201114355 0.0007469102008591543
площадь 0.6275071135404419 0.0003150136112150812
студент 0.4564366558598114 0.0002291348673995037
пятый 0.728177275421805 0.00036555084107520327
мотивный 1.6127838567197355 0.0008096304501605097
её 0.13086371911830436 6.569463811159857e-05
сторона 0.3739017678045988 0.0001877016906649592
наследница 1.390935107103379 0.0006982605959354312
переулок 0.5985434176051253 0.00030047360321542433
подробность 0.8857851287834732 0.0004446712493892937
ситуация 0.7676858167054786 0.0003853844461372884
уничтожить 0.7676858167054786 0.0003853844461372884
преподавать 0.728177275421805 0.00036555084107520327
лапп 2.089905111439398 0.001049149152329015
частый 0.8857851287834732 0.0004446712493892937
ларин 1.7888751157754168 0.0008980296765940846
пер 0.6127838567197355 0.0003076224180319957
истерика 2.089905111439398 0.001049149152329015
благожелательный 2.089905111439398 0.001049149152329015
телеспектакль 0.9138138523837167 0.000458741893766926
предложить 0.5713911715615104 0.00028684295761119996
юдит 2.089905111439398 0.001049149152329015
трам 2.089905111439398 0.001049149152329015
викентий 1.4878451201114355 0.0007469102008591543
понять 0.5985434176051253 0.00030047360321542433
дунаевский 1.4878451201114355 0.0007469102008591543
письменный 1.0107238653917732 0.0005073914986906492
сын 0.18681512444745438 9.378269299571002e-05
необходимо 1.089905111439398 0.0005471411202005009
спустя 0.47712125471966244 0.0002395187021685052
юрий 0.39970903141088426 0.0002006571442825724
среди 0.30457527642863086 0.00015289923515493514
объединение 0.8346326063360918 0.0004189922722570742
один 0.1454224392892293 7.30032325749143e-05
указать 0.0 0.0
иван 0.3264771178764606 0.0001638941354801509
ульянов 1.4878451201114355 0.0007469102008591543
оформить 1.2448070714251411 0.0006249031483057936
завещание 0.7888751157754168 0.0003960216444655706
город 0.1604861857251052 8.056535427967127e-05
адеф-украина 2.089905111439398 0.001049149152329015
тихон 1.4878451201114355 0.0007469102008591543
изъять 1.2448070714251411 0.0006249031483057936
заметка 0.4464524349532105 0.0002241227083098446
убить 0.7474824306171917 0.0003752421840447749
иллюзия 1.4878451201114355 0.0007469102008591543
народ 0.2448070714251411 0.00012289511617727966
забытый 0.811151510486569 0.00040720457353743417
пожарский 1.4878451201114355 0.0007469102008591543
прийти 0.5336026106721107 0.00026787279652214387
войтышко 2.089905111439398 0.001049149152329015
почтовый 0.584755133119492 0.0002935517736543634
банщица 1.6127838567197355 0.0008096304501605097
сохранить 0.728177275421805 0.00036555084107520327
право 0.39093510710337914 0.00019625256380691723
василиевич 0.521703387372403 0.00026189929084959984
альманах 0.4178072535036805 0.00020974259714040184
фат 2.089905111439398 0.001049149152329015
звук 0.9759617591325612 0.0004899406421348198
преображенский 1.1868151244474543 0.000595790725124224
кэмерон 2.089905111439398 0.001049149152329015
ломбард 1.4878451201114355 0.0007469102008591543
спектакль 0.521703387372403 0.00026189929084959984
афанасий 1.0107238653917732 0.0005073914986906492
ум 0.6127838567197355 0.0003076224180319957
культура 0.19227802014895654 9.652511051654443e-05
уйти 0.5713911715615104 0.00028684295761119996
глубокий 0.6275071135404419 0.0003150136112150812
интернационал 1.4878451201114355 0.0007469102008591543
штука 1.4878451201114355 0.0007469102008591543
батал 2.089905111439398 0.001049149152329015
варвара 1.2448070714251411 0.0006249031483057936
адам 1.3117538610557542 0.0006585109744255794
ноздреватый 2.089905111439398 0.001049149152329015
рак 0.8857851287834732 0.0004446712493892937
ласло 2.089905111439398 0.001049149152329015
комсомольский 0.6427470800971787 0.0003226641968359331
смоленский 1.089905111439398 0.0005471411202005009
сестра 0.31905309979725377 0.00016016721877372175
литератор 0.34171708443319754 0.00017154472110100276
чудаков 1.3117538610557542 0.0006585109744255794
больной 0.5985434176051253 0.00030047360321542433
филатьев 1.7888751157754168 0.0008980296765940846
польск 1.4878451201114355 0.0007469102008591543
спб 0.2510560207021426 0.0001260321389066981
сарны 1.2448070714251411 0.0006249031483057936
подвенечный 2.089905111439398 0.001049149152329015
впервые 0.34954242194515406 0.0001754731033861215
украина 0.5336026106721107 0.00026787279652214387
пореченков 1.7888751157754168 0.0008980296765940846
жизнеописание 1.2448070714251411 0.0006249031483057936
вересаев 1.2448070714251411 0.0006249031483057936
отметить 0.521703387372403 0.00026189929084959984
прислать 0.7676858167054786 0.0003853844461372884
принести 0.5336026106721107 0.00026787279652214387
кихот 1.6127838567197355 0.0008096304501605097
предыдущий 0.9138138523837167 0.000458741893766926
ширвиндт 2.089905111439398 0.001049149152329015
момент 0.5101215148225878 0.0002560850978025039
пол 1.3117538610557542 0.0006585109744255794
беспокойный 1.3117538610557542 0.0006585109744255794
записной 1.089905111439398 0.0005471411202005009
бобик 2.089905111439398 0.001049149152329015
учёный 0.47712125471966244 0.0002395187021685052
бытовой 0.7676858167054786 0.0003853844461372884
воспоминание 0.27699175479654237 0.0001390520857412361
деревце 2.089905111439398 0.001049149152329015
американский 0.6427470800971787 0.0003226641968359331
российский 0.025447122212479436 1.27746597452206e-05
больница 0.6919651027673603 0.00034737203954184753
га-ноцрь 2.089905111439398 0.001049149152329015
ибойя 2.089905111439398 0.001049149152329015
середина 0.5713911715615104 0.00028684295761119996
мансарда 2.089905111439398 0.001049149152329015
деятельность 0.0035452807646496587 1.7797594200048487e-06
проходить 0.584755133119492 0.0002935517736543634
гениальный 1.089905111439398 0.0005471411202005009
романец 2.089905111439398 0.001049149152329015
запасевич 2.089905111439398 0.001049149152329015
громов 1.2448070714251411 0.0006249031483057936
описание 0.0 0.0
подробный 0.9138138523837167 0.000458741893766926
серия 0.2905645619858162 0.0001458657439687832
держава→унр→ 2.089905111439398 0.001049149152329015
орган 0.811151510486569 0.00040720457353743417
кв 0.8346326063360918 0.0004189922722570742
печатать 0.67493176346858 0.00033882116639988953
медиафайл 0.1503858588207794 7.5494909046576e-05
черновик 1.089905111439398 0.0005471411202005009
объясняться 1.1868151244474543 0.000595790725124224
избавиться 1.390935107103379 0.0006982605959354312
северный 0.49884050441289873 0.0002504219399663146
запоздать 2.089905111439398 0.001049149152329015
статья 0.025447122212479436 1.27746597452206e-05
нехороший 1.7888751157754168 0.0008980296765940846
душа 0.49884050441289873 0.0002504219399663146
смоленщина 1.6127838567197355 0.0008096304501605097
дом 0.13566260200007307 6.81037158634905e-05
публикация 0.23864676272032262 0.00011980259172706958
стев 2.089905111439398 0.001049149152329015
трактат 1.1868151244474543 0.000595790725124224
хлудов 2.089905111439398 0.001049149152329015
честь 0.38233493534146157 0.00019193520850474977
князь 0.5101215148225878 0.0002560850978025039
отложить 1.2448070714251411 0.0006249031483057936
пресса 0.7888751157754168 0.0003960216444655706
рассказ 0.10313337717315306 5.1773783721462375e-05
граница 0.4464524349532105 0.0002241227083098446
матфей 1.6127838567197355 0.0008096304501605097
фотография 0.6127838567197355 0.0003076224180319957
современник 0.3656292418386089 0.00018354881618404059
старый 0.3575113516164294 0.00017947357008856894
янковский 1.2448070714251411 0.0006249031483057936
счёт 0.7676858167054786 0.0003853844461372884
положение 0.5101215148225878 0.0002560850978025039
устроить 0.8857851287834732 0.0004446712493892937
бунша-корецкий 2.089905111439398 0.001049149152329015
почечный 2.089905111439398 0.001049149152329015
осетия 1.7888751157754168 0.0008980296765940846
ходить 0.7888751157754168 0.0003960216444655706
послеслый 1.1868151244474543 0.000595790725124224
ален 1.4878451201114355 0.0007469102008591543
механический 1.6127838567197355 0.0008096304501605097
подсчёт 2.089905111439398 0.001049149152329015
замятин 1.4878451201114355 0.0007469102008591543
терентий 2.089905111439398 0.001049149152329015
войти 0.0 0.0
присылать 1.6127838567197355 0.0008096304501605097
целитель 1.7888751157754168 0.0008980296765940846
императорский 0.521703387372403 0.00026189929084959984
комаровский 1.7888751157754168 0.0008980296765940846
законный 1.089905111439398 0.0005471411202005009
синеглазка 2.089905111439398 0.001049149152329015
афраний 2.089905111439398 0.001049149152329015
познакомиться 0.48784512011143555 0.0002449021687306403
окончательно 0.728177275421805 0.00036555084107520327
мировой 0.39970903141088426 0.0002006571442825724
центральный 0.39970903141088426 0.0002006571442825724
габор 2.089905111439398 0.001049149152329015
фр 0.67493176346858 0.00033882116639988953
лановый 2.089905111439398 0.001049149152329015
рейн 1.390935107103379 0.0006982605959354312
по-настоящему 1.1868151244474543 0.000595790725124224
копия 0.39970903141088426 0.0002006571442825724
датировать 1.2448070714251411 0.0006249031483057936
польск. 2.089905111439398 0.001049149152329015
чемс 2.089905111439398 0.001049149152329015
ред 0.2573961987331616 0.00012921495920339437
биографический 0.34171708443319754 0.00017154472110100276
кук 0.0 0.0
картер 2.089905111439398 0.001049149152329015
победа 0.5713911715615104 0.00028684295761119996
режиссёр-ассистент 2.089905111439398 0.001049149152329015
блистательный 1.6127838567197355 0.0008096304501605097
говорить 0.2638303087385715 0.00013244493410570856
юбер 2.089905111439398 0.001049149152329015
рыжухина 2.089905111439398 0.001049149152329015
знаменитый 0.47712125471966244 0.0002395187021685052
капорцев 2.089905111439398 0.001049149152329015
с.ссылка 1.7888751157754168 0.0008980296765940846
работа 0.1814200925607482 9.107434365499407e-05
возвратить 1.3117538610557542 0.0006585109744255794
сочинить 1.135662602000073 0.0005701117479920045
рик 0.8594561900611241 0.000431453910673255
похождение 1.0107238653917732 0.0005073914986906492
дрожжи 1.7888751157754168 0.0008980296765940846
другой 0.018023104133272592 9.047743038791462e-06
значение 0.42714727975782385 0.000214431365340273
ребёнок 0.21484384804769785 0.00010785333737334229
евстигнеев 2.089905111439398 0.001049149152329015
наумов 1.3117538610557542 0.0006585109744255794
либо 0.8594561900611241 0.000431453910673255
григорий 0.6275071135404419 0.0003150136112150812
исполниться 0.9138138523837167 0.000458741893766926
бенедикт 1.4878451201114355 0.0007469102008591543
огонёк 0.584755133119492 0.0002935517736543634
огромный 0.584755133119492 0.0002935517736543634
экз 0.21484384804769785 0.00010785333737334229
работать 0.09867903574690305 4.953766854764209e-05
случайный 0.0 0.0
мягков 1.3117538610557542 0.0006585109744255794
творческий 0.33403025576690654 0.00016768587136892896
сравнить 1.048512426281173 0.0005263616597797052
кавказ 0.9759617591325612 0.0004899406421348198
повесть 0.11218150615055017 5.631601714385048e-05
результат 0.46665582104149744 0.00023426497040235814
желена 1.7888751157754168 0.0008980296765940846
красный 0.31175386105575426 0.00015650294229706537
прах 0.9138138523837167 0.000458741893766926
окончить 0.17082701906332404 8.575653567435945e-05
цель 0.49884050441289873 0.0002504219399663146
кафе 1.3117538610557542 0.0006585109744255794
настольный 0.0 0.0
решаться 1.6127838567197355 0.0008096304501605097
галибин 1.6127838567197355 0.0008096304501605097
мия 2.089905111439398 0.001049149152329015
меркуров 1.7888751157754168 0.0008980296765940846
лаврентьев 1.6127838567197355 0.0008096304501605097
хернадя 2.089905111439398 0.001049149152329015
судья 1.4878451201114355 0.0007469102008591543
человек 0.029207271085786267 1.4662284681619611e-05
дятел 2.089905111439398 0.001049149152329015
отдельный 0.39093510710337914 0.00019625256380691723
дружить 0.9759617591325612 0.0004899406421348198
париж 0.5336026106721107 0.00026787279652214387
зибров 1.7888751157754168 0.0008980296765940846
венчание 1.3117538610557542 0.0006585109744255794
запретить 0.5336026106721107 0.00026787279652214387
состояться 0.31905309979725377 0.00016016721877372175
нащокинский 1.7888751157754168 0.0008980296765940846
знаменосец 2.089905111439398 0.001049149152329015
республика→ 2.089905111439398 0.001049149152329015
резкий 0.67493176346858 0.00033882116639988953
архив 0.34954242194515406 0.0001754731033861215
выходить 0.4086638740638107 0.0002051525472207885
ночь 0.39093510710337914 0.00019625256380691723
куравлёва 1.7888751157754168 0.0008980296765940846
афана́сиевич 1.7888751157754168 0.0008980296765940846
боль 0.8346326063360918 0.0004189922722570742
вооружённый 1.3117538610557542 0.0006585109744255794
шаг 0.8346326063360918 0.0004189922722570742
он 0.38233493534146157 0.00019193520850474977
маяковский 1.048512426281173 0.0005263616597797052
д'этэ 2.089905111439398 0.001049149152329015
бенкендорф 1.7888751157754168 0.0008980296765940846
направление 0.30457527642863086 0.00015289923515493514
шевченко 1.089905111439398 0.0005471411202005009
полоумный 2.089905111439398 0.001049149152329015
м. 0.06459924617462771 3.242934044911029e-05
сентябрь 0.1503858588207794 7.5494909046576e-05
стесать 2.089905111439398 0.001049149152329015
прорыв 1.390935107103379 0.0006982605959354312
век 0.1814200925607482 9.107434365499407e-05
холоубек 2.089905111439398 0.001049149152329015
вайда 1.6127838567197355 0.0008096304501605097
каталог 1.089905111439398 0.0005471411202005009
фенький 2.089905111439398 0.001049149152329015
ги 1.7888751157754168 0.0008980296765940846
мольер 1.7888751157754168 0.0008980296765940846
н. 0.11218150615055017 5.631601714385048e-05
здоровье 0.5458370670891223 0.00027401459191220994
фрг 1.1868151244474543 0.000595790725124224
выглядеть 1.089905111439398 0.0005471411202005009
печать 0.43669259766405427 0.0002192231915984208
поляк 1.089905111439398 0.0005471411202005009
израиль 1.048512426281173 0.0005263616597797052
минин 1.6127838567197355 0.0008096304501605097
империя→российский 2.089905111439398 0.001049149152329015
неда 2.089905111439398 0.001049149152329015
керженец 2.089905111439398 0.001049149152329015
шансон 1.7888751157754168 0.0008980296765940846
лосев 1.6127838567197355 0.0008096304501605097
январь 0.08558373765675535 4.2963723723270754e-05
сборник 0.14051510479448517 7.053971124221143e-05
руджеро 2.089905111439398 0.001049149152329015
броневой 1.7888751157754168 0.0008980296765940846
алекс 2.089905111439398 0.001049149152329015
памятник 0.31175386105575426 0.00015650294229706537
восьмой 1.6127838567197355 0.0008096304501605097
николай 0.31905309979725377 0.00016016721877372175
сам 0.22658225131894205 0.0001137461100998705
бондаренко 1.1868151244474543 0.000595790725124224
энциклопедия 0.1978105087489175 9.930246423138428e-05
заявление 0.0 0.0
юность 0.43669259766405427 0.0002192231915984208
репертуар 0.9759617591325612 0.0004899406421348198
число 0.2638303087385715 0.00013244493410570856
рождение 0.010723865391773066 5.383466562135073e-06
гараш 2.089905111439398 0.001049149152329015
ул 0.6919651027673603 0.00034737203954184753
доктор 0.5101215148225878 0.0002560850978025039
причина 0.4564366558598114 0.0002291348673995037
ходатайство 1.0107238653917732 0.0005073914986906492
система 0.521703387372403 0.00026189929084959984
гольдин 2.089905111439398 0.001049149152329015
тост 1.6127838567197355 0.0008096304501605097
гоголь 0.6127838567197355 0.0003076224180319957
экономить 1.6127838567197355 0.0008096304501605097
альберто 1.7888751157754168 0.0008980296765940846
сергеевич 0.7676858167054786 0.0003853844461372884
имущество 1.089905111439398 0.0005471411202005009
турбина 2.089905111439398 0.001049149152329015
зеркаловый 2.089905111439398 0.001049149152329015
густав 1.1868151244474543 0.000595790725124224
аѳанасьевичъ 2.089905111439398 0.001049149152329015
ослябить 2.089905111439398 0.001049149152329015
сбить 1.7888751157754168 0.0008980296765940846
зельник 2.089905111439398 0.001049149152329015
крестовоздвиженский 1.7888751157754168 0.0008980296765940846
войско 0.6585413472804106 0.00033059304582349925
докладная 1.390935107103379 0.0006982605959354312
бенефис 1.6127838567197355 0.0008096304501605097
сотрудник 0.47712125471966244 0.0002395187021685052
еринич 2.089905111439398 0.001049149152329015
алессандро 2.089905111439398 0.001049149152329015
харьков 0.9138138523837167 0.000458741893766926
лицо 0.39093510710337914 0.00019625256380691723
карточка 0.9759617591325612 0.0004899406421348198
столичный 0.9138138523837167 0.000458741893766926
муравьёв 1.135662602000073 0.0005701117479920045
ляндрес 2.089905111439398 0.001049149152329015
даниловский 1.7888751157754168 0.0008980296765940846
библиография 0.2510560207021426 0.0001260321389066981
булгаков 0.94377707576116 0.0004737836725708634
джон 1.0107238653917732 0.0005073914986906492
лоусон 2.089905111439398 0.001049149152329015
кириченко 2.089905111439398 0.001049149152329015
дейтч 2.089905111439398 0.001049149152329015
мнение 0.4086638740638107 0.0002051525472207885
богослов 1.6127838567197355 0.0008096304501605097
покупать 1.4878451201114355 0.0007469102008591543
олег 0.5458370670891223 0.00027401459191220994
женский 0.728177275421805 0.00036555084107520327
параллель 1.6127838567197355 0.0008096304501605097
шапошников 1.6127838567197355 0.0008096304501605097
шарик 1.390935107103379 0.0006982605959354312
проза 0.17609125905568124 8.839922643357491e-05
хороший 0.20909151915860658 0.00010496562206757357
творчеству.120-летие 2.089905111439398 0.001049149152329015
желанный 2.089905111439398 0.001049149152329015
псалом 1.4878451201114355 0.0007469102008591543
соколов 0.811151510486569 0.00040720457353743417
фонарь 1.135662602000073 0.0005701117479920045
самоцветный 2.089905111439398 0.001049149152329015
третий 0.28372513745551076 0.0001424322979194331
критика 0.2573961987331616 0.00012921495920339437
