русский 0.0035452807646496587 4.6957361121187535e-06
автор 0.09867903574690305 0.00013070070959854708
бригада 0.94377707576116 0.0012500358619353111
валеев 2.089905111439398 0.0027680862403170834
прозаик 0.21484384804769785 0.00028456138814264613
большой 0.21484384804769785 0.00028456138814264613
шиғырҙар 2.089905111439398 0.0027680862403170834
настоящий 0.3264771178764606 0.00043242002367743126
местность 1.089905111439398 0.0014435829290588055
журнал 0.03682666795597817 4.8777043650302215e-05
средний 0.5713911715615104 0.0007568094987569675
зиганшин 2.089905111439398 0.0027680862403170834
иосиф 0.8346326063360918 0.0011054736507762806
московский 0.14051510479448517 0.00018611272158209957
неопр. 0.1454224392892293 0.00019261250236984014
кандидат 0.6427470800971787 0.000851320635890303
мост 0.8346326063360918 0.0011054736507762806
университет 0.15540666019583024 0.00020583663602096722
дорога 0.3739017678045988 0.000495234129542515
вступа 0.7096938697277919 0.0009399918804341615
установить 0.34171708443319754 0.00045260540984529477
опубликовать 0.1214221628854628 0.00016082405680193748
авиалайнер 2.089905111439398 0.0027680862403170834
государственный 0.1814200925607482 0.00024029151332549431
к. 0.21484384804769785 0.00028456138814264613
плодотворный 1.048512426281173 0.0013887581805048649
ежегодный 0.8857851287834732 0.0011732253361370504
покупка 1.6127838567197355 0.002136137558569186
май 0.16562582537751624 0.00021937195414240563
одновременно 0.5101215148225878 0.0006756576355266064
лицензия 0.0 0.0
семь 0.6127838567197355 0.0008116342473109079
мечетлинский 2.089905111439398 0.0027680862403170834
самолёт 1.089905111439398 0.0014435829290588055
четырёхпалубный 1.7888751157754168 0.002369371014272075
наследиеправить 1.6127838567197355 0.002136137558569186
л.салимов 2.089905111439398 0.0027680862403170834
городской 0.4178072535036805 0.0005533870907333516
происходить 0.43669259766405427 0.0005784007916080189
направить 0.5458370670891223 0.0007229630027670494
академический 0.584755133119492 0.0007745101100920424
мустафа́ 2.089905111439398 0.0027680862403170834
кариммостать 2.089905111439398 0.0027680862403170834
заслужить 0.8857851287834732 0.0011732253361370504
втб.ть 2.089905111439398 0.0027680862403170834
национальный 0.4086638740638107 0.0005412766543891533
доступно 0.0 0.0
источник 0.0 0.0
художественно-публицистический 1.6127838567197355 0.002136137558569186
телевидение 0.8594561900611241 0.0011383525696173828
вослед 1.7888751157754168 0.002369371014272075
факультет 0.29751342194114405 0.00039405751250482657
небо 0.7888751157754168 0.001044867703013797
кари́м 2.089905111439398 0.0027680862403170834
член 0.18681512444745438 0.00024743725092378065
мир 0.13086371911830436 0.00017332942929576737
медаль 0.5101215148225878 0.0006756576355266064
марат 1.390935107103379 0.0018422981551038133
викисклад 0.18681512444745438 0.00024743725092378065
диплом 0.7474824306171917 0.0009900429544598564
апрель 0.16562582537751624 0.00021937195414240563
к.зиганшин 2.089905111439398 0.0027680862403170834
жюри 1.0107238653917732 0.0013387071064791698
минута 0.811151510486569 0.0010743728615716145
наградыправить 0.7888751157754168 0.001044867703013797
этот 0.0 0.0
николенко 2.089905111439398 0.0027680862403170834
главное 0.0 0.0
валидти 2.089905111439398 0.0027680862403170834
церемония 0.811151510486569 0.0010743728615716145
развитие 0.4178072535036805 0.0005533870907333516
полнометражный 1.2448070714251411 0.0016487510879803194
смотреть 0.17609125905568124 0.00023323345570288906
пьеса 0.33403025576690654 0.00044242417982371724
наградить 0.5101215148225878 0.0006756576355266064
докучаев 1.4878451201114355 0.001970655788227067
снятой 0.5584261943971428 0.0007396373435723746
поддержка 0.5584261943971428 0.0007396373435723746
многосторонний 1.6127838567197355 0.002136137558569186
берёзовый 1.6127838567197355 0.002136137558569186
википедия 0.0 0.0
деревенский 0.8857851287834732 0.0011732253361370504
вечер 0.5101215148225878 0.0006756576355266064
интернет-портал 1.2448070714251411 0.0016487510879803194
гл 0.47712125471966244 0.0006319486817478973
мустафа 2.089905111439398 0.0027680862403170834
явь 1.7888751157754168 0.002369371014272075
стих 0.31905309979725377 0.0004225868871486805
улица 0.30457527642863086 0.00040341096215712696
муниципальный 1.089905111439398 0.0014435829290588055
высота 0.9759617591325612 0.0012926645816325314
жуковый 2.089905111439398 0.0027680862403170834
испр 0.9138138523837167 0.0012103494733559162
поэт 0.2448070714251411 0.0003242477767220412
здание 0.5458370670891223 0.0007229630027670494
отряд 0.9138138523837167 0.0012103494733559162
сцена 0.47712125471966244 0.0006319486817478973
андерсен 1.390935107103379 0.0018422981551038133
живой 0.4178072535036805 0.0005533870907333516
повестарый 2.089905111439398 0.0027680862403170834
уфа 1.135662602000073 0.0015041888768212888
видеоклип 2.089905111439398 0.0027680862403170834
пока 0.46665582104149744 0.0006180871801874138
простор 1.2448070714251411 0.0016487510879803194
править 0.0 0.0
упоминаться 0.811151510486569 0.0010743728615716145
место 0.021719249693236305 2.8767218136736827e-05
писатея 2.089905111439398 0.0027680862403170834
история 0.12611728409384265 0.00016704276038919557
и-1 2.089905111439398 0.0027680862403170834
бикбаев 2.089905111439398 0.0027680862403170834
вода 0.67493176346858 0.0008939493555875232
районный 0.8857851287834732 0.0011732253361370504
могила 0.31175386105575426 0.00041291902126589967
огонь 0.5985434176051253 0.0007927727385498349
республика 0.6427470800971787 0.000851320635890303
пункт 0.728177275421805 0.0009644732124792119
кабардино-балкария 1.7888751157754168 0.002369371014272075
ольга 0.43669259766405427 0.0005784007916080189
монумент 1.1868151244474543 0.0015719405621820587
аэропорт 1.4878451201114355 0.001970655788227067
основный 0.42714727975782385 0.0005657579864342038
отличаться 0.42714727975782385 0.0005657579864342038
бельский 1.7888751157754168 0.002369371014272075
старший 0.3575113516164294 0.00047352496902838327
бюст 0.8346326063360918 0.0011054736507762806
меню 0.0 0.0
указ 0.5584261943971428 0.0007396373435723746
впереди 1.1868151244474543 0.0015719405621820587
текущий 0.584755133119492 0.0007745101100920424
архивировать 0.2448070714251411 0.0003242477767220412
карим 2.089905111439398 0.0027680862403170834
поблизости 0.0 0.0
дәүер 2.089905111439398 0.0027680862403170834
диалог 0.6919651027673603 0.0009165100698905435
круизный 1.6127838567197355 0.002136137558569186
требовать 0.4564366558598114 0.0006045518620659754
прокат 1.135662602000073 0.0015041888768212888
нефтекамск 2.089905111439398 0.0027680862403170834
ущелие 2.089905111439398 0.0027680862403170834
александр 0.15540666019583024 0.00020583663602096722
многие 0.39970903141088426 0.0005294159356435553
населить 1.089905111439398 0.0014435829290588055
авиакомпания 1.6127838567197355 0.002136137558569186
литератураправить 0.21484384804769785 0.00028456138814264613
лунный 1.2448070714251411 0.0016487510879803194
съезд 0.728177275421805 0.0009644732124792119
село 0.4086638740638107 0.0005412766543891533
башкирский 1.089905111439398 0.0014435829290588055
бобёр 1.390935107103379 0.0018422981551038133
достойный 0.811151510486569 0.0010743728615716145
библиотека 0.17609125905568124 0.00023323345570288906
семья 0.10763387839982952 0.00014256142834414504
доска 0.4464524349532105 0.0005913277284148484
жизнь 0.08990511143939793 0.00011907961780052706
педагогика 1.2448070714251411 0.0016487510879803194
корпус 0.7888751157754168 0.001044867703013797
фильм 0.2448070714251411 0.0003242477767220412
энгельс 1.390935107103379 0.0018422981551038133
страна 0.2638303087385715 0.0003494441175345318
длина 1.135662602000073 0.0015041888768212888
европа-азия 2.089905111439398 0.0027680862403170834
гимназия 0.48784512011143555 0.0006461524769687888
лирика 0.9759617591325612 0.0012926645816325314
дата 0.014358150046867215 1.901741728061883e-05
семейный 0.5713911715615104 0.0007568094987569675
страница 0.0 0.0
родиться 0.0 0.0
сугышчысый 2.089905111439398 0.0027680862403170834
ссылка 0.08990511143939793 0.00011907961780052706
гауна 1.7888751157754168 0.002369371014272075
также 0.14051510479448517 0.00018611272158209957
писатель 0.05247861349877426 6.950809734936988e-05
переводчик 0.46665582104149744 0.0006180871801874138
укрепление 1.135662602000073 0.0015041888768212888
фронтовой 1.2448070714251411 0.0016487510879803194
выпускаться 1.390935107103379 0.0018422981551038133
появиться 0.30457527642863086 0.00040341096215712696
ленин 0.5336026106721107 0.0007067584247312724
который 0.0605213337541883 8.01607069591898e-05
пройти 0.3656292418386089 0.00048427714150809124
мемориальный 0.4178072535036805 0.0005533870907333516
салават 2.089905111439398 0.0027680862403170834
кушаренковый 2.089905111439398 0.0027680862403170834
марка 0.7474824306171917 0.0009900429544598564
государство 0.6275071135404419 0.0008311352497224395
согласно 0.5101215148225878 0.0006756576355266064
издательство 0.17609125905568124 0.00023323345570288906
сердце 0.4464524349532105 0.0005913277284148484
правление 0.728177275421805 0.0009644732124792119
пожертвовать 0.0 0.0
метр 1.390935107103379 0.0018422981551038133
политика 0.0 0.0
либретто 0.9138138523837167 0.0012103494733559162
чесноковка 2.089905111439398 0.0027680862403170834
артдивизион 1.7888751157754168 0.002369371014272075
помилование 1.390935107103379 0.0018422981551038133
информация 0.5985434176051253 0.0007927727385498349
грандиозный 1.390935107103379 0.0018422981551038133
драматург 0.42714727975782385 0.0005657579864342038
отредактировать 0.0 0.0
книга 0.0445821326527405 5.9049182321510594e-05
школа 0.1814200925607482 0.00024029151332549431
премия 0.16562582537751624 0.00021937195414240563
т. 0.20909151915860658 0.0002769424094815981
студент 0.4564366558598114 0.0006045518620659754
новгород 0.7096938697277919 0.0009399918804341615
г.р. 1.7888751157754168 0.002369371014272075
сочетать 1.2448070714251411 0.0016487510879803194
вице-президент 1.3117538610557542 0.0017374223325241776
филипп 1.2448070714251411 0.0016487510879803194
наградной 1.2448070714251411 0.0016487510879803194
биографияправить 0.06871581236945988 9.101432101915216e-05
ахмет-зак 2.089905111439398 0.0027680862403170834
неопр 0.29751342194114405 0.00039405751250482657
а. 0.04851242628117289 6.42548692465866e-05
ильгиз 2.089905111439398 0.0027680862403170834
весенний 1.1868151244474543 0.0015719405621820587
время 0.0770678867342257 0.00010207667117115986
ю.болгаров 2.089905111439398 0.0027680862403170834
сормово 1.7888751157754168 0.002369371014272075
проект 0.31905309979725377 0.0004225868871486805
пику 2.089905111439398 0.0027680862403170834
кармаскал 2.089905111439398 0.0027680862403170834
ст 0.6585413472804106 0.0008722401950733915
птица 0.94377707576116 0.0012500358619353111
голос 0.5713911715615104 0.0007568094987569675
академия 0.3575113516164294 0.00047352496902838327
корреспондент 0.6427470800971787 0.000851320635890303
сафиевич 2.089905111439398 0.0027680862403170834
рсфср 0.39093510710337914 0.0005177948438455352
прокатчик 2.089905111439398 0.0027680862403170834
девушка 0.8857851287834732 0.0011732253361370504
сын 0.18681512444745438 0.00024743725092378065
язык 0.0 0.0
президент 0.6275071135404419 0.0008311352497224395
творчество 0.08990511143939793 0.00011907961780052706
глава 0.34954242194515406 0.00046297009529159476
окт 1.390935107103379 0.0018422981551038133
мерзабек 2.089905111439398 0.0027680862403170834
один 0.1454224392892293 0.00019261250236984014
именной 1.390935107103379 0.0018422981551038133
ю. 0.23864676272032262 0.0003160884274441359
а.новакович 2.089905111439398 0.0027680862403170834
дебют 0.43669259766405427 0.0005784007916080189
указать 0.0 0.0
окончание 0.5101215148225878 0.0006756576355266064
жанр 0.19227802014895654 0.00025467287436947884
диспансер 2.089905111439398 0.0027680862403170834
пассажирский 1.1868151244474543 0.0015719405621820587
цамо 1.7888751157754168 0.002369371014272075
город 0.1604861857251052 0.00021256448440411284
шамонино 2.089905111439398 0.0027680862403170834
андрей 0.31905309979725377 0.0004225868871486805
ссср 0.08558373765675535 0.00011335594391623225
осипов 0.8346326063360918 0.0011054736507762806
труд 0.29751342194114405 0.00039405751250482657
заметка 0.4464524349532105 0.0005913277284148484
г.-й 2.089905111439398 0.0027680862403170834
москва,1972 2.089905111439398 0.0027680862403170834
народ 0.2448070714251411 0.0003242477767220412
присвоить 0.6919651027673603 0.0009165100698905435
поддерживать 0.728177275421805 0.0009644732124792119
мастерская 0.728177275421805 0.0009644732124792119
район 0.42714727975782385 0.0005657579864342038
основать 0.584755133119492 0.0007745101100920424
заслуга 0.6427470800971787 0.000851320635890303
почтовый 0.584755133119492 0.0007745101100920424
саф 2.089905111439398 0.0027680862403170834
лейтенант 1.135662602000073 0.0015041888768212888
помогать 0.6585413472804106 0.0008722401950733915
родина 0.39970903141088426 0.0005294159356435553
иной 0.0 0.0
разработчик 0.0 0.0
дементьев 1.390935107103379 0.0018422981551038133
аула… 2.089905111439398 0.0027680862403170834
некоторый 0.23864676272032262 0.0003160884274441359
война 0.20341438626691605 0.00026942302816810074
станиславский 1.048512426281173 0.0013887581805048649
муста́ть 2.089905111439398 0.0027680862403170834
молодёжный 1.089905111439398 0.0014435829290588055
жить 0.11218150615055017 0.0001485847763583446
летать 1.135662602000073 0.0015041888768212888
исследование 0.47712125471966244 0.0006319486817478973
существовать 0.521703387372403 0.0006909978640694079
реализм 0.521703387372403 0.0006909978640694079
совместно 0.6127838567197355 0.0008116342473109079
посадить 1.3117538610557542 0.0017374223325241776
аэрофлот 1.3117538610557542 0.0017374223325241776
сабиров 2.089905111439398 0.0027680862403170834
казань 1.0107238653917732 0.0013387071064791698
высш 1.7888751157754168 0.002369371014272075
одарённый 1.3117538610557542 0.0017374223325241776
делегат 1.3117538610557542 0.0017374223325241776
отечественный 0.2703611758975292 0.00035809427271195923
версия 0.0 0.0
иглиный 2.089905111439398 0.0027680862403170834
очаг 1.6127838567197355 0.002136137558569186
марк 0.5584261943971428 0.0007396373435723746
вуз 1.1868151244474543 0.0015719405621820587
культура 0.19227802014895654 0.00025467287436947884
марагим 2.089905111439398 0.0027680862403170834
штука 1.4878451201114355 0.001970655788227067
наследие 0.521703387372403 0.0006909978640694079
август 0.17082701906332404 0.0002262609524017537
десятка 1.048512426281173 0.0013887581805048649
условие 0.0 0.0
прометей 1.4878451201114355 0.001970655788227067
празднование 0.94377707576116 0.0012500358619353111
сновидение 1.2448070714251411 0.0016487510879803194
окт.14 2.089905111439398 0.0027680862403170834
использование 0.0 0.0
народный 0.30457527642863086 0.00040341096215712696
татарин 1.7888751157754168 0.002369371014272075
газета 0.11677725783969929 0.00015467186468834344
научно-публицистический 2.089905111439398 0.0027680862403170834
театр 0.23257261500812945 0.0003080431986862642
большеустьикинский 2.089905111439398 0.0027680862403170834
указатель 0.8594561900611241 0.0011383525696173828
смерть 0.06871581236945988 9.101432101915216e-05
кобзон 2.089905111439398 0.0027680862403170834
хранение 1.390935107103379 0.0018422981551038133
чишминский 2.089905111439398 0.0027680862403170834
башкирия 1.390935107103379 0.0018422981551038133
янаул 2.089905111439398 0.0027680862403170834
ковальчук 1.3117538610557542 0.0017374223325241776
край 0.46665582104149744 0.0006180871801874138
качество 0.34954242194515406 0.00046297009529159476
бросать 1.3117538610557542 0.0017374223325241776
кировский 1.390935107103379 0.0018422981551038133
проверка 0.584755133119492 0.0007745101100920424
мотив 0.3264771178764606 0.00043242002367743126
профсоюз 1.2448070714251411 0.0016487510879803194
посвятить 0.17609125905568124 0.00023323345570288906
задача 0.6127838567197355 0.0008116342473109079
призвать 0.6275071135404419 0.0008311352497224395
цгаоо 2.089905111439398 0.0027680862403170834
детство 0.30457527642863086 0.00040341096215712696
муртазин 2.089905111439398 0.0027680862403170834
ряд 0.2905645619858162 0.0003848537244845248
известия,1989.- 2.089905111439398 0.0027680862403170834
кавалер 0.8346326063360918 0.0011054736507762806
губерния 0.33403025576690654 0.00044242417982371724
роман-газета 1.135662602000073 0.0015041888768212888
свыше 1.2448070714251411 0.0016487510879803194
отметить 0.521703387372403 0.0006909978640694079
м.с 2.089905111439398 0.0027680862403170834
вернуться 0.3264771178764606 0.00043242002367743126
рамка 0.7474824306171917 0.0009900429544598564
бронзовый 0.8594561900611241 0.0011383525696173828
больший 0.14051510479448517 0.00018611272158209957
булат 1.2448070714251411 0.0016487510879803194
сквозь 0.8594561900611241 0.0011383525696173828
москва 0.05247861349877426 6.950809734936988e-05
построить 0.6919651027673603 0.0009165100698905435
найти 0.0 0.0
салимов 2.089905111439398 0.0027680862403170834
открыть 0.0 0.0
филологический 0.6919651027673603 0.0009165100698905435
момент 0.5101215148225878 0.0006756576355266064
президиум 0.7888751157754168 0.001044867703013797
акмулла 1.6127838567197355 0.002136137558569186
единица 1.3117538610557542 0.0017374223325241776
чёрный 0.48784512011143555 0.0006461524769687888
имя 0.08990511143939793 0.00011907961780052706
награда 0.23864676272032262 0.0003160884274441359
изучение 0.584755133119492 0.0007745101100920424
горка 1.4878451201114355 0.001970655788227067
российский 0.025447122212479436 3.370479763242309e-05
середина 0.5713911715615104 0.0007568094987569675
советский 0.1454224392892293 0.00019261250236984014
младший 0.5336026106721107 0.0007067584247312724
деятельность 0.0035452807646496587 4.6957361121187535e-06
драмалар 2.089905111439398 0.0027680862403170834
номинал 1.089905111439398 0.0014435829290588055
последний 0.0 0.0
хусаин 2.089905111439398 0.0027680862403170834
ранить 0.94377707576116 0.0012500358619353111
альфий 2.089905111439398 0.0027680862403170834
вдохновение 1.089905111439398 0.0014435829290588055
являться 0.2448070714251411 0.0003242477767220412
лауреат 0.30457527642863086 0.00040341096215712696
описание 0.0 0.0
встреча 0.4178072535036805 0.0005533870907333516
очерковый 0.584755133119492 0.0007745101100920424
литература 0.05648135595244821 7.480974298337511e-05
башҡортостать 2.089905111439398 0.0027680862403170834
орден 0.4178072535036805 0.0005533870907333516
драматический 0.5584261943971428 0.0007396373435723746
р. 0.42714727975782385 0.0005657579864342038
сотрудничество 0.7676858167054786 0.001016802406232422
тронуться 1.7888751157754168 0.002369371014272075
творчествоправить 0.6275071135404419 0.0008311352497224395
медиафайл 0.1503858588207794 0.00019918656797454225
юсупов 1.7888751157754168 0.002369371014272075
битый 2.089905111439398 0.0027680862403170834
изобразительный 0.9759617591325612 0.0012926645816325314
чишма 2.089905111439398 0.0027680862403170834
общественный 0.27699175479654237 0.0003668764964192614
переехать 0.38233493534146157 0.0005064038878694855
чегемский 2.089905111439398 0.0027680862403170834
значительно 0.5458370670891223 0.0007229630027670494
верховный 0.6919651027673603 0.0009165100698905435
открыться 0.6427470800971787 0.000851320635890303
подарок 1.0107238653917732 0.0013387071064791698
поэма 0.5336026106721107 0.0007067584247312724
деревня 0.4564366558598114 0.0006045518620659754
начальник 0.6585413472804106 0.0008722401950733915
яҙғ 2.089905111439398 0.0027680862403170834
первый 0.05247861349877426 6.950809734936988e-05
дом 0.13566260200007307 0.0001796855655630107
выпустить 0.4178072535036805 0.0005533870907333516
полгода 1.0107238653917732 0.0013387071064791698
поэтический 0.5713911715615104 0.0007568094987569675
честь 0.38233493534146157 0.0005064038878694855
деятель 0.30457527642863086 0.00040341096215712696
министр 0.67493176346858 0.0008939493555875232
биография 0.07287177214061759 9.651890349750674e-05
посадка 1.4878451201114355 0.001970655788227067
стать 0.08558373765675535 0.00011335594391623225
учредить 0.6919651027673603 0.0009165100698905435
ответственность 0.0 0.0
п. 0.17609125905568124 0.00023323345570288906
степень 0.33403025576690654 0.00044242417982371724
редактироваться 0.029207271085786267 3.8685127265942074e-05
документ 0.43669259766405427 0.0005784007916080189
институт 0.2510560207021426 0.0003325245307313147
башк 1.7888751157754168 0.002369371014272075
современник 0.3656292418386089 0.00048427714150809124
аудитория 1.048512426281173 0.0013887581805048649
л. 0.1604861857251052 0.00021256448440411284
муставать 2.089905111439398 0.0027680862403170834
документальный 0.4086638740638107 0.0005412766543891533
уфимский 1.6127838567197355 0.002136137558569186
сгореть 1.4878451201114355 0.001970655788227067
область 0.18681512444745438 0.00024743725092378065
киностудия 1.089905111439398 0.0014435829290588055
радость 0.811151510486569 0.0010743728615716145
премьера 0.6919651027673603 0.0009165100698905435
мастер 0.6275071135404419 0.0008311352497224395
затмение 1.7888751157754168 0.002369371014272075
трудный 0.9138138523837167 0.0012103494733559162
госпиталь 0.7888751157754168 0.001044867703013797
башкир 1.4878451201114355 0.001970655788227067
тимербулат 2.089905111439398 0.0027680862403170834
знамя 0.3575113516164294 0.00047352496902838327
оп 0.94377707576116 0.0012500358619353111
дерево 0.8346326063360918 0.0011054736507762806
изд 0.33403025576690654 0.00044242417982371724
март 0.14051510479448517 0.00018611272158209957
широкий 0.521703387372403 0.0006909978640694079
башкир-вотчинник 2.089905111439398 0.0027680862403170834
айгуль 2.089905111439398 0.0027680862403170834
начать 0.27699175479654237 0.0003668764964192614
трагедия 0.67493176346858 0.0008939493555875232
осень 0.39093510710337914 0.0005177948438455352
опись 1.390935107103379 0.0018422981551038133
отечество 0.7096938697277919 0.0009399918804341615
день 0.1454224392892293 0.00019261250236984014
произведение 0.010723865391773066 1.4203795220891479e-05
получить 0.17082701906332404 0.0002262609524017537
выдающийся 0.47712125471966244 0.0006319486817478973
компания 0.811151510486569 0.0010743728615716145
вы 1.2448070714251411 0.0016487510879803194
памятный 0.47712125471966244 0.0006319486817478973
созыв 1.0107238653917732 0.0013387071064791698
кинокомпания 1.2448070714251411 0.0016487510879803194
водоходъ 2.089905111439398 0.0027680862403170834
земля 0.4086638740638107 0.0005412766543891533
союз 0.2573961987331616 0.0003409221175273664
иа 1.2448070714251411 0.0016487510879803194
шереметьево 2.089905111439398 0.0027680862403170834
знак 0.3739017678045988 0.000495234129542515
войти 0.0 0.0
адвокат 1.135662602000073 0.0015041888768212888
назвать 0.23257261500812945 0.0003080431986862642
двор 0.7474824306171917 0.0009900429544598564
официальный 0.39093510710337914 0.0005177948438455352
башинформ 2.089905111439398 0.0027680862403170834
малый 0.33403025576690654 0.00044242417982371724
согревать 2.089905111439398 0.0027680862403170834
ильгам 1.6127838567197355 0.002136137558569186
программа 0.521703387372403 0.0006909978640694079
связаться 0.0 0.0
многий 0.4464524349532105 0.0005913277284148484
память 0.2206733917084217 0.00029228263802439963
центральный 0.39970903141088426 0.0005294159356435553
комитет 0.584755133119492 0.0007745101100920424
тимирязeв 2.089905111439398 0.0027680862403170834
лист 0.6427470800971787 0.000851320635890303
тат 2.089905111439398 0.0027680862403170834
ленинский 0.8594561900611241 0.0011383525696173828
рус. 0.3264771178764606 0.00043242002367743126
избираться 1.1868151244474543 0.0015719405621820587
учиться 0.2703611758975292 0.00035809427271195923
дружба 0.5336026106721107 0.0007067584247312724
рубль 0.5584261943971428 0.0007396373435723746
алматы 1.6127838567197355 0.002136137558569186
китапа 2.089905111439398 0.0027680862403170834
год 0.0 0.0
муромский 1.7888751157754168 0.002369371014272075
банк 0.811151510486569 0.0010743728615716145
ред 0.2573961987331616 0.0003409221175273664
конь 1.0107238653917732 0.0013387071064791698
россия 0.0770678867342257 0.00010207667117115986
асср 1.2448070714251411 0.0016487510879803194
весть 2.089905111439398 0.0027680862403170834
находиться 0.34171708443319754 0.00045260540984529477
медведев 1.089905111439398 0.0014435829290588055
дочь 0.20909151915860658 0.0002769424094815981
почётный 0.5336026106721107 0.0007067584247312724
екатеринбург 0.8594561900611241 0.0011383525696173828
кук 0.0 0.0
правка 0.5985434176051253 0.0007927727385498349
сельский 0.6919651027673603 0.0009165100698905435
крест 0.8346326063360918 0.0011054736507762806
академик 0.7888751157754168 0.001044867703013797
ноябрь 0.1978105087489175 0.00026200067383962583
фонд 0.43669259766405427 0.0005784007916080189
говорить 0.2638303087385715 0.0003494441175345318
песня 0.48784512011143555 0.0006461524769687888
новакович 2.089905111439398 0.0027680862403170834
безымянный 1.3117538610557542 0.0017374223325241776
писать 0.13566260200007307 0.0001796855655630107
чл 1.6127838567197355 0.002136137558569186
получать 0.6919651027673603 0.0009165100698905435
видеозапись 2.089905111439398 0.0027680862403170834
художество 1.048512426281173 0.0013887581805048649
конфиденциальность 0.0 0.0
снимать 0.9138138523837167 0.0012103494733559162
работа 0.1814200925607482 0.00024029151332549431
учреждение 0.811151510486569 0.0010743728615716145
февраль 0.1214221628854628 0.00016082405680193748
быть 0.34954242194515406 0.00046297009529159476
звучать 0.8857851287834732 0.0011732253361370504
главный 0.0 0.0
торжественный 0.8346326063360918 0.0011054736507762806
содержание 0.0 0.0
успех 0.4086638740638107 0.0005412766543891533
вкп 1.0107238653917732 0.0013387071064791698
педагогический 0.6585413472804106 0.0008722401950733915
кладбище 0.2448070714251411 0.0003242477767220412
шолохов 1.048512426281173 0.0013887581805048649
показ 1.3117538610557542 0.0017374223325241776
социалистический 0.6127838567197355 0.0008116342473109079
исток 1.0107238653917732 0.0013387071064791698
другой 0.018023104133272592 2.3871661103672307e-05
воин 0.9759617591325612 0.0012926645816325314
федерация 0.5336026106721107 0.0007067584247312724
значение 0.42714727975782385 0.0005657579864342038
отказ 0.0 0.0
стихотворение 0.3739017678045988 0.000495234129542515
училище 0.521703387372403 0.0006909978640694079
монета 0.8346326063360918 0.0011054736507762806
рб 2.089905111439398 0.0027680862403170834
боевой 0.728177275421805 0.0009644732124792119
учредитель 1.135662602000073 0.0015041888768212888
теплоход 0.9759617591325612 0.0012926645816325314
крестьянский 0.7474824306171917 0.0009900429544598564
искусство 0.2448070714251411 0.0003242477767220412
гражданство 0.021719249693236305 2.8767218136736827e-05
хикәйәләр 2.089905111439398 0.0027680862403170834
окт.8 2.089905111439398 0.0027680862403170834
краеведение 1.4878451201114355 0.001970655788227067
спутниковый 2.089905111439398 0.0027680862403170834
перевести 0.31175386105575426 0.00041291902126589967
завод 0.584755133119492 0.0007745101100920424
влксм 1.135662602000073 0.0015041888768212888
а.кильмухаметов 2.089905111439398 0.0027680862403170834
примечание 0.07287177214061759 9.651890349750674e-05
экз 0.21484384804769785 0.00028456138814264613
тираж 0.49884050441289873 0.0006607158998846341
и. 0.14051510479448517 0.00018611272158209957
окт.16 2.089905111439398 0.0027680862403170834
случайный 0.0 0.0
президентский 1.2448070714251411 0.0016487510879803194
шиғрить 2.089905111439398 0.0027680862403170834
творческий 0.33403025576690654 0.00044242417982371724
звание 0.521703387372403 0.0006909978640694079
притяжение 1.4878451201114355 0.001970655788227067
сестрёнка 2.089905111439398 0.0027680862403170834
родимый 2.089905111439398 0.0027680862403170834
крылатый 1.3117538610557542 0.0017374223325241776
повесть 0.11218150615055017 0.0001485847763583446
б. 0.2510560207021426 0.0003325245307313147
второй 0.15540666019583024 0.00020583663602096722
красный 0.31175386105575426 0.00041291902126589967
нафиков 2.089905111439398 0.0027680862403170834
звезда 0.3656292418386089 0.00048427714150809124
вечерний 0.7474824306171917 0.0009900429544598564
иметь 0.2510560207021426 0.0003325245307313147
окончить 0.17082701906332404 0.0002262609524017537
проверить 0.5713911715615104 0.0007568094987569675
настольный 0.0 0.0
таганок 2.089905111439398 0.0027680862403170834
режиссёр-постановщик 1.4878451201114355 0.001970655788227067
мостафа 2.089905111439398 0.0027680862403170834
рейс 1.2448070714251411 0.0016487510879803194
галибин 1.6127838567197355 0.002136137558569186
мусульманский 2.089905111439398 0.0027680862403170834
секретарь 0.5336026106721107 0.0007067584247312724
середняк 2.089905111439398 0.0027680862403170834
следить 0.0 0.0
образец 0.7888751157754168 0.001044867703013797
июнь 0.1814200925607482 0.00024029151332549431
трудовой 0.6275071135404419 0.0008311352497224395
международный 0.3656292418386089 0.00048427714150809124
художественный 0.2206733917084217 0.00029228263802439963
выздоровление 1.3117538610557542 0.0017374223325241776
художник 0.39970903141088426 0.0005294159356435553
подданство 0.20909151915860658 0.0002769424094815981
пьесалар 2.089905111439398 0.0027680862403170834
около 0.46665582104149744 0.0006180871801874138
гамзат 2.089905111439398 0.0027680862403170834
состояться 0.31905309979725377 0.0004225868871486805
скончаться 0.3264771178764606 0.00043242002367743126
вклад 0.6585413472804106 0.0008722401950733915
расул 2.089905111439398 0.0027680862403170834
бирск 2.089905111439398 0.0027680862403170834
кабардино-балкарский 2.089905111439398 0.0027680862403170834
серебряный 0.6427470800971787 0.000851320635890303
архив 0.34954242194515406 0.00046297009529159476
герой 0.21484384804769785 0.00028456138814264613
недоступный 0.2703611758975292 0.00035809427271195923
стипендия 1.2448070714251411 0.0016487510879803194
ночь 0.39093510710337914 0.0005177948438455352
защита 0.47712125471966244 0.0006319486817478973
лайнер 1.4878451201114355 0.001970655788227067
адт 2.089905111439398 0.0027680862403170834
достигнутый 2.089905111439398 0.0027680862403170834
статистика 0.0 0.0
семьяправить 0.5985434176051253 0.0007927727385498349
избранный 0.38233493534146157 0.0005064038878694855
мустафович 2.089905111439398 0.0027680862403170834
памятьправить 0.6919651027673603 0.0009165100698905435
тәржемәләр 2.089905111439398 0.0027680862403170834
кавказский 1.0107238653917732 0.0013387071064791698
направление 0.30457527642863086 0.00040341096215712696
портал 0.6275071135404419 0.0008311352497224395
дума 0.67493176346858 0.0008939493555875232
выйти 0.10763387839982952 0.00014256142834414504
гашение 2.089905111439398 0.0027680862403170834
связь 0.39093510710337914 0.0005177948438455352
эльмир 2.089905111439398 0.0027680862403170834
м. 0.06459924617462771 8.556191546308307e-05
сентябрь 0.1503858588207794 0.00019918656797454225
декабрь 0.14051510479448517 0.00018611272158209957
доп 0.67493176346858 0.0008939493555875232
ил 0.728177275421805 0.0009644732124792119
век 0.1814200925607482 0.00024029151332549431
юлаева 2.089905111439398 0.0027680862403170834
сила 0.30457527642863086 0.00040341096215712696
аварийный 2.089905111439398 0.0027680862403170834
тяжело 0.728177275421805 0.0009644732124792119
председатель 0.49884050441289873 0.0006607158998846341
печать 0.43669259766405427 0.0005784007916080189
центр 0.38233493534146157 0.0005064038878694855
судно 1.1868151244474543 0.0015719405621820587
правовой 1.4878451201114355 0.001970655788227067
гтрк 1.390935107103379 0.0018422981551038133
г. 0.1214221628854628 0.00016082405680193748
д. 0.1814200925607482 0.00024029151332549431
мостая 2.089905111439398 0.0027680862403170834
мотострелковый 1.7888751157754168 0.002369371014272075
сборник 0.14051510479448517 0.00018611272158209957
округ 0.6919651027673603 0.0009165100698905435
инфаркт 1.2448070714251411 0.0016487510879803194
термин 0.7676858167054786 0.001016802406232422
тысяча 0.5458370670891223 0.0007229630027670494
рф 0.728177275421805 0.0009644732124792119
ждать 0.7096938697277919 0.0009399918804341615
общеобразовательный 1.390935107103379 0.0018422981551038133
золотой 0.3739017678045988 0.000495234129542515
мы 0.0 0.0
памятник 0.31175386105575426 0.00041291902126589967
кпсс 0.7676858167054786 0.001016802406232422
улы 2.089905111439398 0.0027680862403170834
ватан 2.089905111439398 0.0027680862403170834
одноимённый 0.42714727975782385 0.0005657579864342038
похоронный 0.3264771178764606 0.00043242002367743126
са́фича 2.089905111439398 0.0027680862403170834
энциклопедия 0.1978105087489175 0.00026200067383962583
заявление 0.0 0.0
литературный 0.03682666795597817 4.8777043650302215e-05
и.николенко 2.089905111439398 0.0027680862403170834
мустая 2.089905111439398 0.0027680862403170834
октябрь 0.1503858588207794 0.00019918656797454225
число 0.2638303087385715 0.0003494441175345318
рождение 0.010723865391773066 1.4203795220891479e-05
саид 1.6127838567197355 0.002136137558569186
приходить 0.8594561900611241 0.0011383525696173828
мгновение 1.390935107103379 0.0018422981551038133
яндекс-карта 2.089905111439398 0.0027680862403170834
мудрец 1.1868151244474543 0.0015719405621820587
фасад 1.089905111439398 0.0014435829290588055
депутат 0.7474824306171917 0.0009900429544598564
передовой 1.048512426281173 0.0013887581805048649
оцифрованный 1.7888751157754168 0.002369371014272075
новый 0.0770678867342257 0.00010207667117115986
бит.примечанияправить 2.089905111439398 0.0027680862403170834
болгаров 2.089905111439398 0.0027680862403170834
возвращение 0.39093510710337914 0.0005177948438455352
долгий-долгий 2.089905111439398 0.0027680862403170834
кәрим 2.089905111439398 0.0027680862403170834
каримов 2.089905111439398 0.0027680862403170834
тауыштара 2.089905111439398 0.0027680862403170834
кляшева 2.089905111439398 0.0027680862403170834
обращение 0.14051510479448517 0.00018611272158209957
прозаический 0.7676858167054786 0.001016802406232422
с. 0.11218150615055017 0.0001485847763583446
и.валеев 2.089905111439398 0.0027680862403170834
начало 0.16562582537751624 0.00021937195414240563
заместитель 0.9138138523837167 0.0012103494733559162
педуниверситет 2.089905111439398 0.0027680862403170834
кляшевый 2.089905111439398 0.0027680862403170834
гражданин 0.6275071135404419 0.0008311352497224395
текст 0.20341438626691605 0.00026942302816810074
два 0.20909151915860658 0.0002769424094815981
сайт 0.1214221628854628 0.00016082405680193748
наш 0.21484384804769785 0.00028456138814264613
башкортостан 1.7888751157754168 0.002369371014272075
свет 0.31905309979725377 0.0004225868871486805
листок 1.048512426281173 0.0013887581805048649
татарский 1.1868151244474543 0.0015719405621820587
намуса 2.089905111439398 0.0027680862403170834
классика 0.5584261943971428 0.0007396373435723746
библиографический 0.6275071135404419 0.0008311352497224395
многолетний 0.7888751157754168 0.001044867703013797
в. 0.11677725783969929 0.00015467186468834344
наука 0.1978105087489175 0.00026200067383962583
гафар 2.089905111439398 0.0027680862403170834
алиев 2.089905111439398 0.0027680862403170834
поставить 0.34171708443319754 0.00045260540984529477
учить 0.8857851287834732 0.0011732253361370504
свердловский 1.1868151244474543 0.0015719405621820587
совет 0.3264771178764606 0.00043242002367743126
опытный 0.6127838567197355 0.0008116342473109079
хребет 1.4878451201114355 0.001970655788227067
бывший 0.3656292418386089 0.00048427714150809124
нижний 0.7474824306171917 0.0009900429544598564
пик 1.4878451201114355 0.001970655788227067
республиканский 1.048512426281173 0.0013887581805048649
хороший 0.20909151915860658 0.0002769424094815981
нога 0.7474824306171917 0.0009900429544598564
армия 0.3656292418386089 0.00048427714150809124
кульмухаметов 2.089905111439398 0.0027680862403170834
похищение 1.4878451201114355 0.001970655788227067
кардиологический 2.089905111439398 0.0027680862403170834
участник 0.30457527642863086 0.00040341096215712696
экранизировать 0.7888751157754168 0.001044867703013797
года… 1.6127838567197355 0.002136137558569186
проверяться 0.6919651027673603 0.0009165100698905435
сафич 2.089905111439398 0.0027680862403170834
внук 0.584755133119492 0.0007745101100920424
почёт 0.8594561900611241 0.0011383525696173828
