русский 0.0035452807646496587 2.776257450782818e-06
изменить 0.7474824306171917 0.0005853425455107218
большой 0.21484384804769785 0.0001682410712981189
андреян 2.089905111439398 0.0016365740888327316
ритм 1.2448070714251411 0.0009747901890564927
казак 0.6585413472804106 0.0005156940855758893
к. 0.21484384804769785 0.0001682410712981189
лицензия 0.0 0.0
городской 0.4178072535036805 0.0003271787419762572
национальный 0.4086638740638107 0.0003200186954297656
садовник 1.7888751157754168 0.0014008419074200602
разгромный 1.2448070714251411 0.0009747901890564927
воссоздать 1.6127838567197355 0.0012629474210804506
тасс 0.7096938697277919 0.0005557508768424369
врачебный 1.3117538610557542 0.0010272152396677793
литературно-музыкальный 1.3117538610557542 0.0010272152396677793
написать 0.1604861857251052 0.00012567438193038778
апрель 0.16562582537751624 0.00012969915847886942
михаилович 0.48784512011143555 0.0003820243697035517
волновать 1.1868151244474543 0.0009293775445947175
главное 0.0 0.0
печататься 0.521703387372403 0.0004085382829854369
прежде 0.5584261943971428 0.0004372953754088824
бурденко 1.6127838567197355 0.0012629474210804506
нагибин 1.390935107103379 0.0010892209139415656
снятой 0.5584261943971428 0.0004372953754088824
метрополь 1.2448070714251411 0.0009747901890564927
волна 0.811151510486569 0.0006352008696057706
википедия 0.0 0.0
око 1.6127838567197355 0.0012629474210804506
улица 0.30457527642863086 0.00023850843886345408
лето 0.4086638740638107 0.0003200186954297656
грустный 1.390935107103379 0.0010892209139415656
убийца 1.1868151244474543 0.0009293775445947175
хинчинский 2.089905111439398 0.0016365740888327316
ерофеев 1.089905111439398 0.0008534887325288943
пока 0.46665582104149744 0.0003654313398915407
петров 0.7096938697277919 0.0005557508768424369
реконструкция 1.2448070714251411 0.0009747901890564927
место 0.021719249693236305 1.7008026384679957e-05
телевизионный 1.0107238653917732 0.0007914830582551081
старание 1.1868151244474543 0.0009293775445947175
студия 0.8594561900611241 0.0006730275568215537
смеяться 1.089905111439398 0.0008534887325288943
эссе 0.5985434176051253 0.0004687105854386259
отличаться 0.42714727975782385 0.0003344927797633703
круг 0.521703387372403 0.0004085382829854369
старший 0.3575113516164294 0.000279961904163218
минчин 2.089905111439398 0.0016365740888327316
из-за 0.39093510710337914 0.0003061355576377284
владимирович 0.7888751157754168 0.000617756551116223
дистанцирование 2.089905111439398 0.0016365740888327316
созвучно 1.7888751157754168 0.0014008419074200602
эмиграцииправить 1.7888751157754168 0.0014008419074200602
июль 0.19227802014895654 0.000150570101917742
пособие 0.8346326063360918 0.0006535885719154987
часть 0.2703611758975292 0.00021171587775844106
эмиграция 0.7676858167054786 0.000601163521304212
марлен 1.4878451201114355 0.0011651097260073889
подцензурный 1.6127838567197355 0.0012629474210804506
татьяна 0.6275071135404419 0.0004913916315900093
ещё 0.22658225131894205 0.0001774332430062193
родиться 0.0 0.0
виктор 0.521703387372403 0.0004085382829854369
электричество 1.7888751157754168 0.0014008419074200602
пройти 0.3656292418386089 0.00028631890512028886
лагерь 0.8346326063360918 0.0006535885719154987
сделать 0.3656292418386089 0.00028631890512028886
коллекция 0.7888751157754168 0.000617756551116223
перешагнуть 2.089905111439398 0.0016365740888327316
аврора 1.6127838567197355 0.0012629474210804506
книга 0.0445821326527405 3.491161523315622e-05
школа 0.1814200925607482 0.00014206741782360862
роман 0.10763387839982952 8.428651401709438e-05
улучшение 1.048512426281173 0.0008210747269233931
личный 0.3264771178764606 0.000255659450177338
семёнов 1.089905111439398 0.0008534887325288943
репрессия 0.8594561900611241 0.0006730275568215537
проект 0.31905309979725377 0.0002498458103345762
академия 0.3575113516164294 0.000279961904163218
провести 0.4564366558598114 0.0003574288612841123
разрешить 0.8857851287834732 0.0006936453631820463
фестиваль 0.67493176346858 0.00052852918047657
жена 0.2206733917084217 0.00017280610157276562
перевод 0.34171708443319754 0.0002675936448184789
бестселлер 0.9138138523837167 0.0007155942461892848
язык 0.0 0.0
высотка 2.089905111439398 0.0016365740888327316
арбор 1.7888751157754168 0.0014008419074200602
политиздата 1.089905111439398 0.0008534887325288943
вести.р 1.4878451201114355 0.0011651097260073889
гора 0.67493176346858 0.00052852918047657
помпей 1.7888751157754168 0.0014008419074200602
правда 0.2638303087385715 0.0002066016513222956
джина 1.7888751157754168 0.0014008419074200602
раздел 0.47712125471966244 0.00037362666775228067
сталин 0.6127838567197355 0.0004798620647766135
присвоить 0.6919651027673603 0.0005418677390503997
лентапедия 1.4878451201114355 0.0011651097260073889
артерия 2.089905111439398 0.0016365740888327316
сексуальный 1.390935107103379 0.0010892209139415656
врач 0.6127838567197355 0.0004798620647766135
ксения 0.8857851287834732 0.0006936453631820463
справочник 0.9759617591325612 0.0007642613618892414
постановка 0.5713911715615104 0.0004474480591711123
некоторый 0.23864676272032262 0.00018688078521560112
жить 0.11218150615055017 8.784769471460468e-05
деятельностиправить 1.2448070714251411 0.0009747901890564927
совместно 0.6127838567197355 0.0004798620647766135
редколлегия 0.9759617591325612 0.0007642613618892414
разрешение 0.8594561900611241 0.0006730275568215537
марк 0.5584261943971428 0.0004372953754088824
август 0.17082701906332404 0.0001337721370895255
сша 0.5713911715615104 0.0004474480591711123
теоретически 1.7888751157754168 0.0014008419074200602
открытие 0.521703387372403 0.0004085382829854369
летучий 1.4878451201114355 0.0011651097260073889
алёша 1.1868151244474543 0.0009293775445947175
театр 0.23257261500812945 0.0001821242090901562
персонаж 0.5584261943971428 0.0004372953754088824
такжеправить 0.8594561900611241 0.0006730275568215537
мотив 0.3264771178764606 0.000255659450177338
бесцензурный 1.4878451201114355 0.0011651097260073889
возглавлять 0.7888751157754168 0.000617756551116223
посвятить 0.17609125905568124 0.00013789448633960943
ермолин 1.2448070714251411 0.0009747901890564927
ряд 0.2905645619858162 0.00022753685355193125
падчерица 1.6127838567197355 0.0012629474210804506
вопрос 0.2703611758975292 0.00021171587775844106
сатира 0.7474824306171917 0.0005853425455107218
последствие 0.8857851287834732 0.0006936453631820463
помимо 0.6275071135404419 0.0004913916315900093
юг 0.9759617591325612 0.0007642613618892414
булат 1.2448070714251411 0.0009747901890564927
гавро 2.089905111439398 0.0016365740888327316
открыть 0.0 0.0
тюрьма 0.7474824306171917 0.0005853425455107218
тамара 0.9759617591325612 0.0007642613618892414
личность 0.43669259766405427 0.0003419675784370041
филологический 0.6919651027673603 0.0005418677390503997
обвинить 0.7888751157754168 0.000617756551116223
телепередача 1.135662602000073 0.00088932075332817
наук.семьяправить 2.089905111439398 0.0016365740888327316
детский 0.39093510710337914 0.0003061355576377284
аристофаниана 2.089905111439398 0.0016365740888327316
последний 0.0 0.0
симпозиум 1.1868151244474543 0.0009293775445947175
табакерка 2.089905111439398 0.0016365740888327316
литература 0.05648135595244821 4.4229722750546755e-05
орден 0.4178072535036805 0.0003271787419762572
р. 0.42714727975782385 0.0003344927797633703
ахмадулин 1.6127838567197355 0.0012629474210804506
жаль 1.2448070714251411 0.0009747901890564927
общественный 0.27699175479654237 0.00021690818699807548
бегун 2.089905111439398 0.0016365740888327316
рассадина 1.6127838567197355 0.0012629474210804506
анна 0.3739017678045988 0.0002927969990638988
стать 0.08558373765675535 6.701937169675439e-05
пять 0.42714727975782385 0.0003344927797633703
свой 0.0770678867342257 6.035073354285489e-05
крайний 0.7474824306171917 0.0005853425455107218
л. 0.1604861857251052 0.00012567438193038778
приключенческий 1.2448070714251411 0.0009747901890564927
узкий 1.1868151244474543 0.0009293775445947175
саша 1.135662602000073 0.00088932075332817
эпоха 0.4464524349532105 0.0003496103640980505
викискладес 2.089905111439398 0.0016365740888327316
похожий 0.7888751157754168 0.000617756551116223
таинственный 1.0107238653917732 0.0007914830582551081
аксёноваправить 2.089905111439398 0.0016365740888327316
изд 0.33403025576690654 0.00026157420185348986
тарасов 1.2448070714251411 0.0009747901890564927
начать 0.27699175479654237 0.00021690818699807548
восстановить 0.8346326063360918 0.0006535885719154987
мемуарный 1.1868151244474543 0.0009293775445947175
ныне 0.3739017678045988 0.0002927969990638988
памятный 0.47712125471966244 0.00037362666775228067
союз 0.2573961987331616 0.0002015631939962111
земля 0.4086638740638107 0.0003200186954297656
отдел 0.521703387372403 0.0004085382829854369
сообщество 1.0107238653917732 0.0007914830582551081
противный 1.1868151244474543 0.0009293775445947175
кругосвета 0.8346326063360918 0.0006535885719154987
неприкасаемый 2.089905111439398 0.0016365740888327316
новость 0.42714727975782385 0.0003344927797633703
принадлежность 0.8857851287834732 0.0006936453631820463
организатор 0.94377707576116 0.0007390580076438215
майя 0.9759617591325612 0.0007642613618892414
год 0.0 0.0
эволюция 0.9138138523837167 0.0007155942461892848
кармен 2.089905111439398 0.0016365740888327316
проработка 2.089905111439398 0.0016365740888327316
автобиографический 0.49884050441289873 0.00039063469413696064
россия 0.0770678867342257 6.035073354285489e-05
дочь 0.20909151915860658 0.00016373650678042803
правка 0.5985434176051253 0.0004687105854386259
гаучер-колледж 2.089905111439398 0.0016365740888327316
боровский 1.6127838567197355 0.0012629474210804506
стальной 1.390935107103379 0.0010892209139415656
затоварить 2.089905111439398 0.0016365740888327316
госпитализировать 1.390935107103379 0.0010892209139415656
плохо 0.7888751157754168 0.000617756551116223
неизданный 1.0107238653917732 0.0007914830582551081
василий 0.49884050441289873 0.00039063469413696064
конфиденциальность 0.0 0.0
хозяин 0.7888751157754168 0.000617756551116223
февраль 0.1214221628854628 9.508391768634518e-05
дополнить 0.811151510486569 0.0006352008696057706
барщевский 2.089905111439398 0.0016365740888327316
педагогический 0.6585413472804106 0.0005156940855758893
бороться 0.7888751157754168 0.000617756551116223
идиот 1.135662602000073 0.00088932075332817
посетить 0.6585413472804106 0.0005156940855758893
шпионский 1.4878451201114355 0.0011651097260073889
сахарный 1.4878451201114355 0.0011651097260073889
нтв 1.135662602000073 0.00088932075332817
замужем 0.8857851287834732 0.0006936453631820463
перевести 0.31175386105575426 0.00024412988336394226
художник-постановщик 1.7888751157754168 0.0014008419074200602
здравоохранение 2.089905111439398 0.0016365740888327316
реабилитировать 1.2448070714251411 0.0009747901890564927
дилогия 1.390935107103379 0.0010892209139415656
исправить 1.0107238653917732 0.0007914830582551081
отец 0.17082701906332404 0.0001337721370895255
телеэфир 2.089905111439398 0.0016365740888327316
звезда 0.3656292418386089 0.00028631890512028886
ква-ква 2.089905111439398 0.0016365740888327316
карелия 1.3117538610557542 0.0010272152396677793
приезд 0.94377707576116 0.0007390580076438215
сериал 0.8857851287834732 0.0006936453631820463
годаправить 1.6127838567197355 0.0012629474210804506
следить 0.0 0.0
керуак 2.089905111439398 0.0016365740888327316
художественный 0.2206733917084217 0.00017280610157276562
единственный 0.48784512011143555 0.0003820243697035517
международный 0.3656292418386089 0.00028631890512028886
подданство 0.20909151915860658 0.00016373650678042803
катапульта 2.089905111439398 0.0016365740888327316
подписать 0.5101215148225878 0.00039946868819309934
применяться 1.390935107103379 0.0010892209139415656
карла 1.0107238653917732 0.0007914830582551081
самоубийственный 2.089905111439398 0.0016365740888327316
влади 1.7888751157754168 0.0014008419074200602
соломонович 1.390935107103379 0.0010892209139415656
дело 0.2510560207021426 0.00019659829342376085
замечательный 0.4564366558598114 0.0003574288612841123
аксёновский 2.089905111439398 0.0016365740888327316
избранный 0.38233493534146157 0.00029940088906927297
работник 0.8346326063360918 0.0006535885719154987
композиция 1.048512426281173 0.0008210747269233931
взять 0.5458370670891223 0.00042743701416532676
портал 0.6275071135404419 0.0004913916315900093
канал 0.67493176346858 0.00052852918047657
декабрь 0.14051510479448517 0.00011003532090406043
центр 0.38233493534146157 0.00029940088906927297
меньшинство 2.089905111439398 0.0016365740888327316
г. 0.1214221628854628 9.508391768634518e-05
часто 0.39093510710337914 0.0003061355576377284
вольтерьянец 2.089905111439398 0.0016365740888327316
профессиональный 0.728177275421805 0.0005702249611760415
философия 0.7096938697277919 0.0005557508768424369
похороны 0.67493176346858 0.00052852918047657
дружинник 2.089905111439398 0.0016365740888327316
очерк 0.27699175479654237 0.00021690818699807548
москва-ква-ква 2.089905111439398 0.0016365740888327316
золотой 0.3739017678045988 0.0002927969990638988
фильмамправить 1.7888751157754168 0.0014008419074200602
обнаружить 0.7096938697277919 0.0005557508768424369
маргарита 0.94377707576116 0.0007390580076438215
окуджава 1.4878451201114355 0.0011651097260073889
цапля 1.7888751157754168 0.0014008419074200602
помочь 0.7096938697277919 0.0005557508768424369
барвиха 1.7888751157754168 0.0014008419074200602
весьма 0.6427470800971787 0.0005033258262311501
отделение 0.43669259766405427 0.0003419675784370041
октябрь 0.1503858588207794 0.00011776496383772859
уродить 0.521703387372403 0.0004085382829854369
комбинация 2.089905111439398 0.0016365740888327316
елена 0.4178072535036805 0.0003271787419762572
сёмин 2.089905111439398 0.0016365740888327316
обращение 0.14051510479448517 0.00011003532090406043
следующий 0.48784512011143555 0.0003820243697035517
с. 0.11218150615055017 8.784769471460468e-05
начало 0.16562582537751624 0.00012969915847886942
франция 0.5101215148225878 0.00039946868819309934
анатолий 0.6585413472804106 0.0005156940855758893
узнавать 1.135662602000073 0.00088932075332817
гвардия 0.3264771178764606 0.000255659450177338
совпадение 1.390935107103379 0.0010892209139415656
изографус-эксмо. 2.089905111439398 0.0016365740888327316
свинговать 2.089905111439398 0.0016365740888327316
экранизация 0.4086638740638107 0.0003200186954297656
мейсон 2.089905111439398 0.0016365740888327316
сплошной 1.6127838567197355 0.0012629474210804506
неоконченный 0.8857851287834732 0.0006936453631820463
оставаться 0.49884050441289873 0.00039063469413696064
татарский 1.1868151244474543 0.0009293775445947175
классика 0.5584261943971428 0.0004372953754088824
совет 0.3264771178764606 0.000255659450177338
литагентство 2.089905111439398 0.0016365740888327316
арестовать 0.584755133119492 0.0004579131817693751
коллективный 0.8346326063360918 0.0006535885719154987
традиция 0.5985434176051253 0.0004687105854386259
высоцкий 1.135662602000073 0.00088932075332817
весь 0.2448070714251411 0.00019170483275265552
участник 0.30457527642863086 0.00023850843886345408
изографус-эксмо-пресс 2.089905111439398 0.0016365740888327316
о. 0.31175386105575426 0.00024412988336394226
тоталитаризм 1.048512426281173 0.0008210747269233931
крайность 1.4878451201114355 0.0011651097260073889
роман-эпопея 1.4878451201114355 0.0011651097260073889
изюм 1.4878451201114355 0.0011651097260073889
оргкомитет 1.135662602000073 0.00088932075332817
рождественский 0.9759617591325612 0.0007642613618892414
остров 0.5336026106721107 0.0004178563905028275
байронит 2.089905111439398 0.0016365740888327316
остаться 0.39970903141088426 0.00031300628928025394
рабочий 0.42714727975782385 0.0003344927797633703
консерватор 1.390935107103379 0.0010892209139415656
московский 0.14051510479448517 0.00011003532090406043
эфир 1.089905111439398 0.0008534887325288943
судьба 0.34171708443319754 0.0002675936448184789
искандер 1.3117538610557542 0.0010272152396677793
годыправить 0.6919651027673603 0.0005418677390503997
активно 0.6919651027673603 0.0005418677390503997
частично 1.135662602000073 0.00088932075332817
внешний 0.6585413472804106 0.0005156940855758893
кн 0.5458370670891223 0.00042743701416532676
яйцо 1.6127838567197355 0.0012629474210804506
угода 1.7888751157754168 0.0014008419074200602
шестидесятник 1.390935107103379 0.0010892209139415656
известный 0.2703611758975292 0.00021171587775844106
групповой 1.6127838567197355 0.0012629474210804506
фашизм 1.1868151244474543 0.0009293775445947175
установка 0.9138138523837167 0.0007155942461892848
доступно 0.0 0.0
впоследствии 0.2703611758975292 0.00021171587775844106
рэгтайм 2.089905111439398 0.0016365740888327316
железка 2.089905111439398 0.0016365740888327316
вымышленный 1.2448070714251411 0.0009747901890564927
соло 1.4878451201114355 0.0011651097260073889
карьера 0.7888751157754168 0.000617756551116223
чернышенко 2.089905111439398 0.0016365740888327316
именно 0.39093510710337914 0.0003061355576377284
мир 0.13086371911830436 0.00010247746211300262
джордж 1.3117538610557542 0.0010272152396677793
барруэть-гонзалезть 2.089905111439398 0.0016365740888327316
коваленко 1.7888751157754168 0.0014008419074200602
миф 0.7474824306171917 0.0005853425455107218
марина 0.8857851287834732 0.0006936453631820463
апельсин 2.089905111439398 0.0016365740888327316
пьеса 0.33403025576690654 0.00026157420185348986
знаток 1.089905111439398 0.0008534887325288943
джентльмен 1.3117538610557542 0.0010272152396677793
фазиль 1.6127838567197355 0.0012629474210804506
вечер 0.5101215148225878 0.00039946868819309934
поддержать 0.728177275421805 0.0005702249611760415
котельнический 2.089905111439398 0.0016365740888327316
луна 1.1868151244474543 0.0009293775445947175
допуск 1.7888751157754168 0.0014008419074200602
сначала 0.5713911715615104 0.0004474480591711123
заболевание 0.94377707576116 0.0007390580076438215
операция 0.811151510486569 0.0006352008696057706
описать 0.521703387372403 0.0004085382829854369
доктороу 2.089905111439398 0.0016365740888327316
упоминаться 0.811151510486569 0.0006352008696057706
история 0.12611728409384265 9.876059835069902e-05
друг 0.27699175479654237 0.00021690818699807548
коллегправить 2.089905111439398 0.0016365740888327316
ольга 0.43669259766405427 0.0003419675784370041
командир 0.9759617591325612 0.0007642613618892414
ельцин 1.4878451201114355 0.0011651097260073889
жск 2.089905111439398 0.0016365740888327316
научно-исследовательский 1.048512426281173 0.0008210747269233931
меню 0.0 0.0
мочь 0.29751342194114405 0.00023297840402595462
белаша 2.089905111439398 0.0016365740888327316
распределение 1.2448070714251411 0.0009747901890564927
текущий 0.584755133119492 0.0004579131817693751
астрель 0.7474824306171917 0.0005853425455107218
преподаватель 0.6585413472804106 0.0005156940855758893
вилять 2.089905111439398 0.0016365740888327316
продажа 1.048512426281173 0.0008210747269233931
требовать 0.4564366558598114 0.0003574288612841123
в.есипов 2.089905111439398 0.0016365740888327316
хвост 1.4878451201114355 0.0011651097260073889
аллея 1.089905111439398 0.0008534887325288943
скульптурный 1.2448070714251411 0.0009747901890564927
семья 0.10763387839982952 8.428651401709438e-05
корпус 0.7888751157754168 0.000617756551116223
несогласный 1.390935107103379 0.0010892209139415656
людвигович 2.089905111439398 0.0016365740888327316
какой-то 0.5336026106721107 0.0004178563905028275
розовский 2.089905111439398 0.0016365740888327316
первоначальный 0.8594561900611241 0.0006730275568215537
колымский 1.390935107103379 0.0010892209139415656
появиться 0.30457527642863086 0.00023850843886345408
злословие 1.6127838567197355 0.0012629474210804506
который 0.0605213337541883 4.739337020688199e-05
карикатурный 1.7888751157754168 0.0014008419074200602
ардис 1.6127838567197355 0.0012629474210804506
наталия 1.135662602000073 0.00088932075332817
завершён.в 1.6127838567197355 0.0012629474210804506
пожертвовать 0.0 0.0
сердечный 0.811151510486569 0.0006352008696057706
политика 0.0 0.0
покорить 1.6127838567197355 0.0012629474210804506
факт 0.5458370670891223 0.00042743701416532676
дом-музей 0.6919651027673603 0.0005418677390503997
борис 0.4086638740638107 0.0003200186954297656
рах 1.6127838567197355 0.0012629474210804506
премия 0.16562582537751624 0.00012969915847886942
лексикон 0.8346326063360918 0.0006535885719154987
а. 0.04851242628117289 3.7989370619555904e-05
преподавание 1.089905111439398 0.0008534887325288943
время 0.0770678867342257 6.035073354285489e-05
менделевый 2.089905111439398 0.0016365740888327316
букеровский 1.3117538610557542 0.0010272152396677793
птица 0.94377707576116 0.0007390580076438215
пусть 0.7676858167054786 0.000601163521304212
добиться 0.728177275421805 0.0005702249611760415
крутой 1.135662602000073 0.00088932075332817
длинный 0.811151510486569 0.0006352008696057706
сказать 0.3264771178764606 0.000255659450177338
демократический 0.94377707576116 0.0007390580076438215
глава 0.34954242194515406 0.00027372155203222716
андрей 0.31905309979725377 0.0002498458103345762
книга-мемуары 2.089905111439398 0.0016365740888327316
овчинников 2.089905111439398 0.0016365740888327316
дмитрий 0.3575113516164294 0.000279961904163218
данные 0.584755133119492 0.0004579131817693751
характер 0.5101215148225878 0.00039946868819309934
котёл 1.7888751157754168 0.0014008419074200602
участие 0.27699175479654237 0.00021690818699807548
родина 0.39970903141088426 0.00031300628928025394
иной 0.0 0.0
литературоведение 1.2448070714251411 0.0009747901890564927
казань-inform 2.089905111439398 0.0016365740888327316
кеннана 2.089905111439398 0.0016365740888327316
ленинградский 0.48784512011143555 0.0003820243697035517
быт 0.5713911715615104 0.0004474480591711123
перенести 0.7888751157754168 0.000617756551116223
меклин 2.089905111439398 0.0016365740888327316
одноклассник 1.390935107103379 0.0010892209139415656
гривадий 2.089905111439398 0.0016365740888327316
версия 0.0 0.0
коктебель 1.6127838567197355 0.0012629474210804506
тяжёлый 0.47712125471966244 0.00037362666775228067
тот 0.2448070714251411 0.00019170483275265552
течение 0.4564366558598114 0.0003574288612841123
хуциев 1.6127838567197355 0.0012629474210804506
газета 0.11677725783969929 9.144656056358598e-05
рукопись 0.46665582104149744 0.0003654313398915407
артур 1.2448070714251411 0.0009747901890564927
сатирико-фантастический 2.089905111439398 0.0016365740888327316
па́влович 1.7888751157754168 0.0014008419074200602
евгений 0.3739017678045988 0.0002927969990638988
действовать 0.5458370670891223 0.00042743701416532676
поиск 0.584755133119492 0.0004579131817693751
риа 0.728177275421805 0.0005702249611760415
певец 1.1868151244474543 0.0009293775445947175
мультикультурализм 2.089905111439398 0.0016365740888327316
кавалер 0.8346326063360918 0.0006535885719154987
торуновый 2.089905111439398 0.0016365740888327316
москва 0.05247861349877426 4.1095233750018994e-05
найти 0.0 0.0
младший 0.5336026106721107 0.0004178563905028275
советский 0.1454224392892293 0.00011387818268537924
евгения 1.1868151244474543 0.0009293775445947175
вольтерьянка 2.089905111439398 0.0016365740888327316
принадлежать 0.5101215148225878 0.00039946868819309934
раскачка 2.089905111439398 0.0016365740888327316
мессерер 2.089905111439398 0.0016365740888327316
семён 0.9138138523837167 0.0007155942461892848
сложить 1.7888751157754168 0.0014008419074200602
гореть 1.135662602000073 0.00088932075332817
вновь 0.6127838567197355 0.0004798620647766135
молодой 0.17609125905568124 0.00013789448633960943
севастополь 0.9759617591325612 0.0007642613618892414
изографус-эксмо 2.089905111439398 0.0016365740888327316
переводить 1.0107238653917732 0.0007914830582551081
вскоре 0.4178072535036805 0.0003271787419762572
верховный 0.6919651027673603 0.0005418677390503997
первый 0.05247861349877426 4.1095233750018994e-05
сценарист 0.5101215148225878 0.00039946868819309934
биография 0.07287177214061759 5.7064817651227556e-05
ответственность 0.0 0.0
п. 0.17609125905568124 0.00013789448633960943
редактироваться 0.029207271085786267 2.2871786284875698e-05
институт 0.2510560207021426 0.00019659829342376085
работыправить 1.390935107103379 0.0010892209139415656
внучатый 1.3117538610557542 0.0010272152396677793
критикаправить 0.8346326063360918 0.0006535885719154987
морской 0.7096938697277919 0.0005557508768424369
болезнь 0.521703387372403 0.0004085382829854369
эпитет 1.7888751157754168 0.0014008419074200602
рубеж 0.6919651027673603 0.0005418677390503997
крайне 0.728177275421805 0.0005702249611760415
премьерный 1.6127838567197355 0.0012629474210804506
сентиментальный 1.048512426281173 0.0008210747269233931
суд 0.42714727975782385 0.0003344927797633703
против 0.34954242194515406 0.00027372155203222716
брюшной 1.7888751157754168 0.0014008419074200602
авторский 0.39093510710337914 0.0003061355576377284
произведение 0.010723865391773066 8.397701951270999e-06
день 0.1454224392892293 0.00011387818268537924
сопутствовать 1.6127838567197355 0.0012629474210804506
парижский 1.089905111439398 0.0008534887325288943
знак 0.3739017678045988 0.0002927969990638988
проведение 0.6585413472804106 0.0005156940855758893
брак 0.31905309979725377 0.0002498458103345762
виль 2.089905111439398 0.0016365740888327316
нло 1.390935107103379 0.0010892209139415656
прозаправить 1.7888751157754168 0.0014008419074200602
баскетбол 2.089905111439398 0.0016365740888327316
отступление 1.1868151244474543 0.0009293775445947175
связаться 0.0 0.0
память 0.2206733917084217 0.00017280610157276562
красин 1.7888751157754168 0.0014008419074200602
несмотря 0.4086638740638107 0.0003200186954297656
маленький 0.4464524349532105 0.0003496103640980505
отправить 0.5584261943971428 0.0004372953754088824
пейзаж 1.1868151244474543 0.0009293775445947175
сундучок 2.089905111439398 0.0016365740888327316
общий 0.33403025576690654 0.00026157420185348986
ионович 1.7888751157754168 0.0014008419074200602
матвеевич 1.3117538610557542 0.0010272152396677793
почётный 0.5336026106721107 0.0004178563905028275
автопортрет 1.3117538610557542 0.0010272152396677793
редакция 0.28372513745551076 0.0002221810003567038
прощание 0.7888751157754168 0.000617756551116223
десятилетие 0.7096938697277919 0.0005557508768424369
богуславский 2.089905111439398 0.0016365740888327316
содержание 0.0 0.0
им.бурденко 2.089905111439398 0.0016365740888327316
кладбище 0.2448070714251411 0.00019170483275265552
произведенияправить 0.67493176346858 0.00052852918047657
ваксон 2.089905111439398 0.0016365740888327316
боевик 1.7888751157754168 0.0014008419074200602
гражданство 0.021719249693236305 1.7008026384679957e-05
талантливый 0.8594561900611241 0.0006730275568215537
патриот 1.135662602000073 0.00088932075332817
внешнеторговый 2.089905111439398 0.0016365740888327316
свечение 2.089905111439398 0.0016365740888327316
выпускница 1.1868151244474543 0.0009293775445947175
выговор 1.2448070714251411 0.0009747901890564927
номенклатурный 2.089905111439398 0.0016365740888327316
собеседник 1.089905111439398 0.0008534887325288943
политкорректность 2.089905111439398 0.0016365740888327316
николаевич 0.4464524349532105 0.0003496103640980505
баскетбольный 2.089905111439398 0.0016365740888327316
александрович 0.42714727975782385 0.0003344927797633703
принять 0.23864676272032262 0.00018688078521560112
дать 0.3264771178764606 0.000255659450177338
неожиданный 0.9759617591325612 0.0007642613618892414
наблюдаться 1.390935107103379 0.0010892209139415656
фёдоров 1.089905111439398 0.0008534887325288943
волошинский 1.7888751157754168 0.0014008419074200602
обширный 0.7676858167054786 0.000601163521304212
москвеправить 1.4878451201114355 0.0011651097260073889
оксана 1.4878451201114355 0.0011651097260073889
изографъ-эксмо 2.089905111439398 0.0016365740888327316
сладостный 2.089905111439398 0.0016365740888327316
пожилое 2.089905111439398 0.0016365740888327316
недоступный 0.2703611758975292 0.00021171587775844106
это 0.48784512011143555 0.0003820243697035517
владимир 0.2206733917084217 0.00017280610157276562
защита 0.47712125471966244 0.00037362666775228067
статистика 0.0 0.0
гринберг 2.089905111439398 0.0016365740888327316
романтический 0.8346326063360918 0.0006535885719154987
предполагать 0.7888751157754168 0.000617756551116223
памятьправить 0.6919651027673603 0.0005418677390503997
выйти 0.10763387839982952 8.428651401709438e-05
медицинский 0.8346326063360918 0.0006535885719154987
вернуть 0.8594561900611241 0.0006730275568215537
танковый 1.4878451201114355 0.0011651097260073889
председатель 0.49884050441289873 0.00039063469413696064
забрать 1.089905111439398 0.0008534887325288943
телесериал 0.94377707576116 0.0007390580076438215
торговый 0.9759617591325612 0.0007642613618892414
плавильный 2.089905111439398 0.0016365740888327316
закончить 0.5985434176051253 0.0004687105854386259
премииправить 0.8594561900611241 0.0006730275568215537
обозначить 1.390935107103379 0.0010892209139415656
похоронный 0.3264771178764606 0.000255659450177338
публиковаться 0.3264771178764606 0.000255659450177338
литературный 0.03682666795597817 2.8838424397790268e-05
логово 2.089905111439398 0.0016365740888327316
разоблачение 1.390935107103379 0.0010892209139415656
новый 0.0770678867342257 6.035073354285489e-05
плавание 1.3117538610557542 0.0010272152396677793
представить 0.49884050441289873 0.00039063469413696064
сага 1.3117538610557542 0.0010272152396677793
пребывание 0.6585413472804106 0.0005156940855758893
экранизацииправить 0.9138138523837167 0.0007155942461892848
изложить 0.9138138523837167 0.0007155942461892848
спецвыпуск 2.089905111439398 0.0016365740888327316
туберкулёз 1.048512426281173 0.0008210747269233931
эксмо 0.6585413472804106 0.0005156940855758893
сайт 0.1214221628854628 9.508391768634518e-05
создаваться 0.94377707576116 0.0007390580076438215
эссеистика 1.390935107103379 0.0010892209139415656
деревенщик 2.089905111439398 0.0016365740888327316
битовый 1.7888751157754168 0.0014008419074200602
свет 0.31905309979725377 0.0002498458103345762
протест 0.811151510486569 0.0006352008696057706
в. 0.11677725783969929 9.144656056358598e-05
наука 0.1978105087489175 0.00015490251272428935
опытный 0.6127838567197355 0.0004798620647766135
армия 0.3656292418386089 0.00028631890512028886
крымский 0.6919651027673603 0.0005418677390503997
практика 0.7474824306171917 0.0005853425455107218
рандеву 2.089905111439398 0.0016365740888327316
представлять 0.43669259766405427 0.0003419675784370041
различный 0.49884050441289873 0.00039063469413696064
заявить 0.6427470800971787 0.0005033258262311501
константинович 0.94377707576116 0.0007390580076438215
тётка 1.089905111439398 0.0008534887325288943
автор 0.09867903574690305 7.727410786758266e-05
поколение 0.5713911715615104 0.0004474480591711123
профессор 0.46665582104149744 0.0003654313398915407
настоящий 0.3264771178764606 0.000255659450177338
суметь 0.7676858167054786 0.000601163521304212
журнал 0.03682666795597817 2.8838424397790268e-05
занесение 1.6127838567197355 0.0012629474210804506
солидаризироваться 2.089905111439398 0.0016365740888327316
кандидат 0.6427470800971787 0.0005033258262311501
лягушка 1.7888751157754168 0.0014008419074200602
континент 1.3117538610557542 0.0010272152396677793
сорок 0.7888751157754168 0.000617756551116223
царскосельский 1.3117538610557542 0.0010272152396677793
будин 2.089905111439398 0.0016365740888327316
состояние 0.46665582104149744 0.0003654313398915407
овидий 1.6127838567197355 0.0012629474210804506
письмо 0.22658225131894205 0.0001774332430062193
кесарев 2.089905111439398 0.0016365740888327316
поднебесье 1.7888751157754168 0.0014008419074200602
радио 0.5101215148225878 0.00039946868819309934
несоветский 2.089905111439398 0.0016365740888327316
васи́лия 1.6127838567197355 0.0012629474210804506
взгляд.р 2.089905111439398 0.0016365740888327316
стучать 1.7888751157754168 0.0014008419074200602
этот 0.0 0.0
крым 0.5713911715615104 0.0004474480591711123
зеница 2.089905111439398 0.0016365740888327316
смотреть 0.17609125905568124 0.00013789448633960943
подвергнуть 1.0107238653917732 0.0007914830582551081
включая 0.811151510486569 0.0006352008696057706
педагог 0.9138138523837167 0.0007155942461892848
обозрение 0.521703387372403 0.0004085382829854369
бурный 0.94377707576116 0.0007390580076438215
поддержка 0.5584261943971428 0.0004372953754088824
поражение 1.1868151244474543 0.0009293775445947175
детективный 1.2448070714251411 0.0009747901890564927
хотеть 0.3739017678045988 0.0002927969990638988
илья 0.6919651027673603 0.0005418677390503997
сверхзадача 2.089905111439398 0.0016365740888327316
госпитализация 1.7888751157754168 0.0014008419074200602
свобода 0.38233493534146157 0.00029940088906927297
восемнадцатый 1.390935107103379 0.0010892209139415656
живой 0.4178072535036805 0.0003271787419762572
тарковский 1.6127838567197355 0.0012629474210804506
интеллигент 1.2448070714251411 0.0009747901890564927
править 0.0 0.0
исключение 0.6919651027673603 0.0005418677390503997
книжный 0.34171708443319754 0.0002675936448184789
лайош 2.089905111439398 0.0016365740888327316
звёздный 1.390935107103379 0.0010892209139415656
джаз 1.6127838567197355 0.0012629474210804506
почту… 2.089905111439398 0.0016365740888327316
подполковник 0.94377707576116 0.0007390580076438215
заведовать 0.6919651027673603 0.0005418677390503997
писательский 0.5101215148225878 0.00039946868819309934
свинг 2.089905111439398 0.0016365740888327316
лишить 0.8346326063360918 0.0006535885719154987
псевдоним 0.34171708443319754 0.0002675936448184789
руль 1.4878451201114355 0.0011651097260073889
казанский 1.2448070714251411 0.0009747901890564927
мать 0.18681512444745438 0.0001462921882908805
круглый 1.135662602000073 0.00088932075332817
архивировать 0.2448070714251411 0.00019170483275265552
состав 0.47712125471966244 0.00037362666775228067
музыкант 0.9138138523837167 0.0007155942461892848
поблизости 0.0 0.0
завтрак 1.390935107103379 0.0010892209139415656
дж 1.4878451201114355 0.0011651097260073889
лишь 0.38233493534146157 0.00029940088906927297
остоженка 1.6127838567197355 0.0012629474210804506
кострома 1.3117538610557542 0.0010272152396677793
бэби 2.089905111439398 0.0016365740888327316
передача 0.6919651027673603 0.0005418677390503997
александр 0.15540666019583024 0.00012169667987144107
бабушка 0.6427470800971787 0.0005033258262311501
литератураправить 0.21484384804769785 0.0001682410712981189
архивный 0.38233493534146157 0.00029940088906927297
бородатый 2.089905111439398 0.0016365740888327316
одинокий 0.94377707576116 0.0007390580076438215
юлия 1.048512426281173 0.0008210747269233931
принудительно 2.089905111439398 0.0016365740888327316
дата 0.014358150046867215 1.1243657045314968e-05
страница 0.0 0.0
играть 0.6427470800971787 0.0005033258262311501
михаил 0.2510560207021426 0.00019659829342376085
ранний 0.27699175479654237 0.00021690818699807548
цру 1.7888751157754168 0.0014008419074200602
писатель 0.05247861349877426 4.1095233750018994e-05
переводчик 0.46665582104149744 0.0003654313398915407
высказываться 1.089905111439398 0.0008534887325288943
демократия 0.9138138523837167 0.0007155942461892848
брат 0.2703611758975292 0.00021171587775844106
джазовый 1.6127838567197355 0.0012629474210804506
известие 0.5101215148225878 0.00039946868819309934
смертьправить 1.048512426281173 0.0008210747269233931
драматург 0.42714727975782385 0.0003344927797633703
проживать 0.521703387372403 0.0004085382829854369
механизация 1.7888751157754168 0.0014008419074200602
разводить 1.6127838567197355 0.0012629474210804506
эксмо-изографус. 2.089905111439398 0.0016365740888327316
роман-пародия 2.089905111439398 0.0016365740888327316
неделя 0.5713911715615104 0.0004474480591711123
лита 0.7096938697277919 0.0005557508768424369
неопр 0.29751342194114405 0.00023297840402595462
сотрудничать 0.49884050441289873 0.00039063469413696064
инказан 2.089905111439398 0.0016365740888327316
понимать 0.584755133119492 0.0004579131817693751
кемерово 1.6127838567197355 0.0012629474210804506
племянница 0.9138138523837167 0.0007155942461892848
ст 0.6585413472804106 0.0005156940855758893
любовь 0.2573961987331616 0.0002015631939962111
селихов 2.089905111439398 0.0016365740888327316
автомобиль 1.390935107103379 0.0010892209139415656
лев 0.48784512011143555 0.0003820243697035517
удаление 1.7888751157754168 0.0014008419074200602
кузов 2.089905111439398 0.0016365740888327316
комбриг 1.7888751157754168 0.0014008419074200602
берт 1.6127838567197355 0.0012629474210804506
инна 1.2448070714251411 0.0009747901890564927
творчество 0.08990511143939793 7.040337622505711e-05
америка 0.8346326063360918 0.0006535885719154987
георгий 0.5458370670891223 0.00042743701416532676
балтийский 1.135662602000073 0.00088932075332817
рассказать 0.6585413472804106 0.0005156940855758893
ю. 0.23864676272032262 0.00018688078521560112
коллега 0.8857851287834732 0.0006936453631820463
демонстрация 1.3117538610557542 0.0010272152396677793
метростроевский 2.089905111439398 0.0016365740888327316
жанр 0.19227802014895654 0.000150570101917742
ссср 0.08558373765675535 6.701937169675439e-05
антология 0.6919651027673603 0.0005418677390503997
космополит 1.4878451201114355 0.0011651097260073889
сознание 0.6275071135404419 0.0004913916315900093
разработчик 0.0 0.0
война 0.20341438626691605 0.0001592908271471543
безумствовать 2.089905111439398 0.0016365740888327316
исследование 0.47712125471966244 0.00037362666775228067
существовать 0.521703387372403 0.0004085382829854369
эксмо-пресс 1.390935107103379 0.0010892209139415656
казань 1.0107238653917732 0.0007914830582551081
нии 1.2448070714251411 0.0009747901890564927
горпожакс 2.089905111439398 0.0016365740888327316
хитросплетение 1.7888751157754168 0.0014008419074200602
лига 1.2448070714251411 0.0009747901890564927
вместе 0.2573961987331616 0.0002015631939962111
удостоиться 1.390935107103379 0.0010892209139415656
условие 0.0 0.0
публицистика 0.521703387372403 0.0004085382829854369
празднование 0.94377707576116 0.0007390580076438215
использование 0.0 0.0
зима 0.7676858167054786 0.000601163521304212
афанасиевич 1.3117538610557542 0.0010272152396677793
мозг 0.9138138523837167 0.0007155942461892848
нем. 0.8594561900611241 0.0006730275568215537
смерть 0.06871581236945988 5.381034641304611e-05
независимый 0.6919651027673603 0.0005418677390503997
магадан 1.2448070714251411 0.0009747901890564927
качество 0.34954242194515406 0.00027372155203222716
подозревать 1.135662602000073 0.00088932075332817
проверка 0.584755133119492 0.0004579131817693751
стиль 0.5584261943971428 0.0004372953754088824
полтора 0.7888751157754168 0.000617756551116223
заключить 0.7676858167054786 0.000601163521304212
беседа 0.5713911715615104 0.0004474480591711123
противостоять 1.048512426281173 0.0008210747269233931
анатолиевич 1.4878451201114355 0.0011651097260073889
гибель 0.811151510486569 0.0006352008696057706
здесь. 2.089905111439398 0.0016365740888327316
единица 1.3117538610557542 0.0010272152396677793
аэропортовский 2.089905111439398 0.0016365740888327316
власть 0.38233493534146157 0.00029940088906927297
награда 0.23864676272032262 0.00018688078521560112
осудить 0.8346326063360918 0.0006535885719154987
туберкулёзный 1.6127838567197355 0.0012629474210804506
идеология 1.0107238653917732 0.0007914830582551081
являться 0.2448070714251411 0.00019170483275265552
лауреат 0.30457527642863086 0.00023850843886345408
встреча 0.4178072535036805 0.0003271787419762572
поженян 2.089905111439398 0.0016365740888327316
бирюков 1.4878451201114355 0.0011651097260073889
легко 0.7888751157754168 0.000617756551116223
столица 0.6275071135404419 0.0004913916315900093
становиться 0.5458370670891223 0.00042743701416532676
битва 1.048512426281173 0.0008210747269233931
жанровый 1.2448070714251411 0.0009747901890564927
ленд-лизовский 2.089905111439398 0.0016365740888327316
полуостров 1.3117538610557542 0.0010272152396677793
кремль 1.0107238653917732 0.0007914830582551081
юбилей 0.6427470800971787 0.0005033258262311501
конец 0.20341438626691605 0.0001592908271471543
оба 0.47712125471966244 0.00037362666775228067
должный 0.4086638740638107 0.0003200186954297656
степень 0.33403025576690654 0.00026157420185348986
музей 0.3739017678045988 0.0002927969990638988
необязательность 1.7888751157754168 0.0014008419074200602
задержать 1.1868151244474543 0.0009293775445947175
документальный 0.4086638740638107 0.0003200186954297656
госпиталь 0.7888751157754168 0.000617756551116223
знамя 0.3575113516164294 0.000279961904163218
март 0.14051510479448517 0.00011003532090406043
соавт 1.7888751157754168 0.0014008419074200602
создать 0.31905309979725377 0.0002498458103345762
никита 0.9138138523837167 0.0007155942461892848
е. 0.1604861857251052 0.00012567438193038778
получить 0.17082701906332404 0.0001337721370895255
дедушка 1.135662602000073 0.00088932075332817
гайдаровский 1.7888751157754168 0.0014008419074200602
аста 0.521703387372403 0.0004085382829854369
модный 1.3117538610557542 0.0010272152396677793
журнальный 0.47712125471966244 0.00037362666775228067
половина 0.49884050441289873 0.00039063469413696064
красноармейский 1.3117538610557542 0.0010272152396677793
диссертация 0.7888751157754168 0.000617756551116223
юмор 0.94377707576116 0.0007390580076438215
сп 0.9759617591325612 0.0007642613618892414
юриевич 1.1868151244474543 0.0009293775445947175
клевета 0.9138138523837167 0.0007155942461892848
аксёнов-фест 2.089905111439398 0.0016365740888327316
рус. 0.3264771178764606 0.000255659450177338
киноальманах 1.2448070714251411 0.0009747901890564927
магаданский 1.2448070714251411 0.0009747901890564927
моторизация 2.089905111439398 0.0016365740888327316
карлина 2.089905111439398 0.0016365740888327316
маршрут 1.3117538610557542 0.0010272152396677793
мой 0.23257261500812945 0.0001821242090901562
антонин 1.3117538610557542 0.0010272152396677793
вася 1.6127838567197355 0.0012629474210804506
ноябрь 0.1978105087489175 0.00015490251272428935
искажение 1.2448070714251411 0.0009747901890564927
зоя 1.6127838567197355 0.0012629474210804506
ключ 1.135662602000073 0.00088932075332817
писать 0.13566260200007307 0.00010623539702433287
дмитриевич 0.8594561900611241 0.0006730275568215537
саввин 1.7888751157754168 0.0014008419074200602
художество 1.048512426281173 0.0008210747269233931
детдом 2.089905111439398 0.0016365740888327316
преувеличение 1.390935107103379 0.0010892209139415656
главный 0.0 0.0
горелик 2.089905111439398 0.0016365740888327316
авантюрный 1.4878451201114355 0.0011651097260073889
диссидентство 1.390935107103379 0.0010892209139415656
отказ 0.0 0.0
называть 0.3575113516164294 0.000279961904163218
блокада 1.135662602000073 0.00088932075332817
искусство 0.2448070714251411 0.00019170483275265552
людвиг 1.4878451201114355 0.0011651097260073889
тв 1.089905111439398 0.0008534887325288943
э. 0.42714727975782385 0.0003344927797633703
примечание 0.07287177214061759 5.7064817651227556e-05
агент 1.135662602000073 0.00088932075332817
звание 0.521703387372403 0.0004085382829854369
диссидент 1.1868151244474543 0.0009293775445947175
слово 0.19227802014895654 0.000150570101917742
культ 0.94377707576116 0.0007390580076438215
б. 0.2510560207021426 0.00019659829342376085
липатов 2.089905111439398 0.0016365740888327316
второй 0.15540666019583024 0.00012169667987144107
библиографияправить 0.4464524349532105 0.0003496103640980505
экз. 1.0107238653917732 0.0007914830582551081
затем 0.2206733917084217 0.00017280610157276562
бумажный 1.6127838567197355 0.0012629474210804506
сегодняшний 1.089905111439398 0.0008534887325288943
проверить 0.5713911715615104 0.0004474480591711123
воронков 2.089905111439398 0.0016365740888327316
набережная 0.811151510486569 0.0006352008696057706
евтушенко 1.6127838567197355 0.0012629474210804506
чайка 1.4878451201114355 0.0011651097260073889
аонида 1.7888751157754168 0.0014008419074200602
июнь 0.1814200925607482 0.00014206741782360862
торговля 0.8346326063360918 0.0006535885719154987
галина 1.0107238653917732 0.0007914830582551081
санаторий 1.0107238653917732 0.0007914830582551081
изограф-эксмо-пресс 2.089905111439398 0.0016365740888327316
американец 1.135662602000073 0.00088932075332817
марокко 1.7888751157754168 0.0014008419074200602
оттепель 1.3117538610557542 0.0010272152396677793
скончаться 0.3264771178764606 0.000255659450177338
герой 0.21484384804769785 0.0001682410712981189
разыскать 1.4878451201114355 0.0011651097260073889
положительный 0.728177275421805 0.0005702249611760415
ловить 1.4878451201114355 0.0011651097260073889
павел 0.5584261943971428 0.0004372953754088824
диабет 1.7888751157754168 0.0014008419074200602
начаться 0.49884050441289873 0.00039063469413696064
вознесенский 1.135662602000073 0.00088932075332817
адрес 0.46665582104149744 0.0003654313398915407
порт 1.1868151244474543 0.0009293775445947175
повторный 1.4878451201114355 0.0011651097260073889
читатель 0.43669259766405427 0.0003419675784370041
ип 2.089905111439398 0.0016365740888327316
путешествие 0.5584261943971428 0.0004372953754088824
пен-клуб 1.3117538610557542 0.0010272152396677793
осложнение 1.6127838567197355 0.0012629474210804506
мечта 0.811151510486569 0.0006352008696057706
мы 0.0 0.0
кпсс 0.7676858167054786 0.000601163521304212
коровин 1.3117538610557542 0.0010272152396677793
дальний 0.7676858167054786 0.000601163521304212
казаться 0.584755133119492 0.0004579131817693751
год.об 2.089905111439398 0.0016365740888327316
конъюнктура 1.7888751157754168 0.0014008419074200602
выход 0.48784512011143555 0.0003820243697035517
сонный 1.4878451201114355 0.0011651097260073889
указывать 0.6275071135404419 0.0004913916315900093
андреевич 0.8346326063360918 0.0006535885719154987
секс 1.4878451201114355 0.0011651097260073889
мая 1.7888751157754168 0.0014008419074200602
несколько 0.19227802014895654 0.000150570101917742
неизвестный 0.48784512011143555 0.0003820243697035517
актриса 0.7676858167054786 0.000601163521304212
страсть 0.8346326063360918 0.0006535885719154987
коммерсантъ 0.9138138523837167 0.0007155942461892848
инсульт 1.4878451201114355 0.0011651097260073889
заместитель 0.9138138523837167 0.0007155942461892848
щегол 1.6127838567197355 0.0012629474210804506
театр-студия 1.1868151244474543 0.0009293775445947175
текст 0.20341438626691605 0.0001592908271471543
аксёнов-фест-2007 2.089905111439398 0.0016365740888327316
основатель 0.94377707576116 0.0007390580076438215
букер 0.8594561900611241 0.0006730275568215537
гость 0.521703387372403 0.0004085382829854369
наш 0.21484384804769785 0.0001682410712981189
полость 1.7888751157754168 0.0014008419074200602
сопредседатель 1.7888751157754168 0.0014008419074200602
клуб 0.67493176346858 0.00052852918047657
вагриус-изограф 2.089905111439398 0.0016365740888327316
желток 2.089905111439398 0.0016365740888327316
бывший 0.3656292418386089 0.00028631890512028886
фильмыправить 1.3117538610557542 0.0010272152396677793
ректор 1.089905111439398 0.0008534887325288943
потребовать 0.94377707576116 0.0007390580076438215
экранизировать 0.7888751157754168 0.000617756551116223
хватить 1.1868151244474543 0.0009293775445947175
интерфакс 1.3117538610557542 0.0010272152396677793
эрнст 1.390935107103379 0.0010892209139415656
гейдёкий 1.7888751157754168 0.0014008419074200602
трилогия 0.8594561900611241 0.0006730275568215537
радиожурналист 2.089905111439398 0.0016365740888327316
оставить 0.48784512011143555 0.0003820243697035517
глагол 1.4878451201114355 0.0011651097260073889
дома-музей 1.135662602000073 0.00088932075332817
ваганьковский 1.1868151244474543 0.0009293775445947175
мост 0.8346326063360918 0.0006535885719154987
университет 0.15540666019583024 0.00012169667987144107
утратить 0.8594561900611241 0.0006730275568215537
родитель 0.43669259766405427 0.0003419675784370041
опубликовать 0.1214221628854628 9.508391768634518e-05
переписка 0.584755133119492 0.0004579131817693751
автобиографичный 1.4878451201114355 0.0011651097260073889
темперамент 1.3117538610557542 0.0010272152396677793
предлагать 0.8346326063360918 0.0006535885719154987
маликов 1.7888751157754168 0.0014008419074200602
семь 0.6127838567197355 0.0004798620647766135
ожог 1.7888751157754168 0.0014008419074200602
сад 0.6427470800971787 0.0005033258262311501
огорчиться 2.089905111439398 0.0016365740888327316
источник 0.0 0.0
диагностировать 1.6127838567197355 0.0012629474210804506
радиоочерк 1.7888751157754168 0.0014008419074200602
шестеро 1.390935107103379 0.0010892209139415656
член 0.18681512444745438 0.0001462921882908805
шутпьесыправить 2.089905111439398 0.0016365740888327316
медаль 0.5101215148225878 0.00039946868819309934
выпуск 0.4464524349532105 0.0003496103640980505
динамика 1.390935107103379 0.0010892209139415656
фамилия 0.0605213337541883 4.739337020688199e-05
змеул 2.089905111439398 0.0016365740888327316
маркс 0.8857851287834732 0.0006936453631820463
попов 0.811151510486569 0.0006352008696057706
центровой 1.7888751157754168 0.0014008419074200602
доминанта 1.6127838567197355 0.0012629474210804506
кармена 1.7888751157754168 0.0014008419074200602
мраморный 1.135662602000073 0.00088932075332817
историко-биографический 1.7888751157754168 0.0014008419074200602
эхо 0.67493176346858 0.00052852918047657
что 0.5713911715615104 0.0004474480591711123
здание 0.5458370670891223 0.00042743701416532676
север 0.9138138523837167 0.0007155942461892848
роберт 1.135662602000073 0.00088932075332817
составитель 0.7096938697277919 0.0005557508768424369
стабов 2.089905111439398 0.0016365740888327316
кардиостимулятор 2.089905111439398 0.0016365740888327316
текст-риф 2.089905111439398 0.0016365740888327316
могила 0.31175386105575426 0.00024412988336394226
вилсон-институт 2.089905111439398 0.0016365740888327316
экспериментальный 1.2448070714251411 0.0009747901890564927
подзаголовок 1.390935107103379 0.0010892209139415656
последовать 0.6275071135404419 0.0004913916315900093
сост 0.4086638740638107 0.0003200186954297656
всё 0.28372513745551076 0.0002221810003567038
быков 0.584755133119492 0.0004579131817693751
относиться 0.4564366558598114 0.0003574288612841123
корнет 1.4878451201114355 0.0011651097260073889
гинзбург 1.1868151244474543 0.0009293775445947175
методический 1.6127838567197355 0.0012629474210804506
зеленин 2.089905111439398 0.0016365740888327316
вася/ 2.089905111439398 0.0016365740888327316
пинок 2.089905111439398 0.0016365740888327316
реформа 0.94377707576116 0.0007390580076438215
пора 0.5101215148225878 0.00039946868819309934
попытка 0.521703387372403 0.0004085382829854369
генис 1.3117538610557542 0.0010272152396677793
гладилин 2.089905111439398 0.0016365740888327316
педагог-методист 1.7888751157754168 0.0014008419074200602
алексей 0.42714727975782385 0.0003344927797633703
кабаков 1.6127838567197355 0.0012629474210804506
жизнь 0.08990511143939793 7.040337622505711e-05
фильм 0.2448070714251411 0.00019170483275265552
ссылка 0.08990511143939793 7.040337622505711e-05
также 0.14051510479448517 0.00011003532090406043
сценарий 0.46665582104149744 0.0003654313398915407
выехать 0.9138138523837167 0.0007155942461892848
проводиться 0.8346326063360918 0.0006535885719154987
издательство 0.17609125905568124 0.00013789448633960943
дневник 0.39970903141088426 0.00031300628928025394
рипол-классик 1.7888751157754168 0.0014008419074200602
такой 0.2510560207021426 0.00019659829342376085
четыре 0.3575113516164294 0.000279961904163218
оборона 0.811151510486569 0.0006352008696057706
резко 0.6585413472804106 0.0005156940855758893
дальнейший 0.5713911715615104 0.0004474480591711123
отредактировать 0.0 0.0
дистанция 2.089905111439398 0.0016365740888327316
ежовщина 2.089905111439398 0.0016365740888327316
площадь 0.6275071135404419 0.0004913916315900093
матушка-россия 2.089905111439398 0.0016365740888327316
особенность 0.6275071135404419 0.0004913916315900093
биографияправить 0.06871581236945988 5.381034641304611e-05
преподавать 0.728177275421805 0.0005702249611760415
пер 0.6127838567197355 0.0004798620647766135
чекалин 1.6127838567197355 0.0012629474210804506
аронович 2.089905111439398 0.0016365740888327316
голос 0.5713911715615104 0.0004474480591711123
оценка 0.47712125471966244 0.00037362666775228067
россия-1 2.089905111439398 0.0016365740888327316
сын 0.18681512444745438 0.0001462921882908805
спустя 0.47712125471966244 0.00037362666775228067
юрий 0.39970903141088426 0.00031300628928025394
павлович 0.8346326063360918 0.0006535885719154987
объединение 0.8346326063360918 0.0006535885719154987
один 0.1454224392892293 0.00011387818268537924
именной 1.390935107103379 0.0010892209139415656
указать 0.0 0.0
окончание 0.5101215148225878 0.00039946868819309934
выражение 0.6919651027673603 0.0005418677390503997
склифосовский 1.7888751157754168 0.0014008419074200602
учебный 0.5985434176051253 0.0004687105854386259
сталинский 0.8346326063360918 0.0006535885719154987
город 0.1604861857251052 0.00012567438193038778
контрабанда 1.7888751157754168 0.0014008419074200602
забытый 0.811151510486569 0.0006352008696057706
продукт 1.0107238653917732 0.0007914830582551081
инф 2.089905111439398 0.0016365740888327316
право 0.39093510710337914 0.0003061355576377284
василиевич 0.521703387372403 0.0004085382829854369
альманах 0.4178072535036805 0.0003271787419762572
сутки 0.9759617591325612 0.0007642613618892414
дементьев 1.390935107103379 0.0010892209139415656
нон-стоп 1.7888751157754168 0.0014008419074200602
ревзина 2.089905111439398 0.0016365740888327316
спектакль 0.521703387372403 0.0004085382829854369
участвовать 0.4178072535036805 0.0003271787419762572
афанасий 1.0107238653917732 0.0007914830582551081
интервью 0.3739017678045988 0.0002927969990638988
культура 0.19227802014895654 0.000150570101917742
себя 0.3656292418386089 0.00028631890512028886
визит 1.0107238653917732 0.0007914830582551081
комсомольский 0.6427470800971787 0.0005033258262311501
литератор 0.34171708443319754 0.0002675936448184789
сестра 0.31905309979725377 0.0002498458103345762
хрущёв 1.3117538610557542 0.0010272152396677793
зал 0.46665582104149744 0.0003654313398915407
переставать 1.135662602000073 0.00088932075332817
завершение 1.2448070714251411 0.0009747901890564927
нг 1.3117538610557542 0.0010272152396677793
ах 1.4878451201114355 0.0011651097260073889
аритмия 1.7888751157754168 0.0014008419074200602
обком 1.2448070714251411 0.0009747901890564927
впервые 0.34954242194515406 0.00027372155203222716
консультант 1.3117538610557542 0.0010272152396677793
ежегодно 1.048512426281173 0.0008210747269233931
козлов 1.4878451201114355 0.0011651097260073889
учёный 0.47712125471966244 0.00037362666775228067
воспоминание 0.27699175479654237 0.00021690818699807548
имя 0.08990511143939793 7.040337622505711e-05
американский 0.6427470800971787 0.0005033258262311501
алёна 1.6127838567197355 0.0012629474210804506
больница 0.6919651027673603 0.0005418677390503997
российский 0.025447122212479436 1.9927268764666746e-05
деятельность 0.0035452807646496587 2.776257450782818e-06
пароходство 1.3117538610557542 0.0010272152396677793
полпути 1.7888751157754168 0.0014008419074200602
описание 0.0 0.0
разумение 2.089905111439398 0.0016365740888327316
серия 0.2905645619858162 0.00022753685355193125
веллер 1.4878451201114355 0.0011651097260073889
негатив 2.089905111439398 0.0016365740888327316
реальный 0.6427470800971787 0.0005033258262311501
оцениваться 1.4878451201114355 0.0011651097260073889
глупость 1.3117538610557542 0.0010272152396677793
считать 0.33403025576690654 0.00026157420185348986
медиафайл 0.1503858588207794 0.00011776496383772859
кира 1.390935107103379 0.0010892209139415656
хх 1.048512426281173 0.0008210747269233931
журналист 0.34171708443319754 0.0002675936448184789
грин 1.2448070714251411 0.0009747901890564927
значительно 0.5458370670891223 0.00042743701416532676
статья 0.025447122212479436 1.9927268764666746e-05
своеобразие 1.2448070714251411 0.0009747901890564927
ненародный 2.089905111439398 0.0016365740888327316
изографус 2.089905111439398 0.0016365740888327316
дом 0.13566260200007307 0.00010623539702433287
публикация 0.23864676272032262 0.00018688078521560112
деятель 0.30457527642863086 0.00023850843886345408
шестидесятникипримечанияправить 2.089905111439398 0.0016365740888327316
соавтор 0.8594561900611241 0.0006730275568215537
рассказ 0.10313337717315306 8.076223741045658e-05
граница 0.4464524349532105 0.0003496103640980505
современник 0.3656292418386089 0.00028631890512028886
англоязычный 1.390935107103379 0.0010892209139415656
сквер 0.9138138523837167 0.0007155942461892848
кириллица 2.089905111439398 0.0016365740888327316
виолетта 2.089905111439398 0.0016365740888327316
вашингтон 1.6127838567197355 0.0012629474210804506
карузый 2.089905111439398 0.0016365740888327316
шопенгауэр 1.3117538610557542 0.0010272152396677793
всесоюзный 0.6127838567197355 0.0004798620647766135
подписывать 1.089905111439398 0.0008534887325288943
проиграть 1.1868151244474543 0.0009293775445947175
войти 0.0 0.0
двухвековой 2.089905111439398 0.0016365740888327316
карантинный 2.089905111439398 0.0016365740888327316
написание 0.6919651027673603 0.0005418677390503997
нация 1.089905111439398 0.0008534887325288943
лиснянский 2.089905111439398 0.0016365740888327316
рейн 1.390935107103379 0.0010892209139415656
копия 0.39970903141088426 0.00031300628928025394
ред 0.2573961987331616 0.0002015631939962111
свияжск 2.089905111439398 0.0016365740888327316
приглашение 0.811151510486569 0.0006352008696057706
папа 1.1868151244474543 0.0009293775445947175
кук 0.0 0.0
подвергнуться 0.94377707576116 0.0007390580076438215
победа 0.5713911715615104 0.0004474480591711123
есипов 2.089905111439398 0.0016365740888327316
колыма 1.390935107103379 0.0010892209139415656
говорить 0.2638303087385715 0.0002066016513222956
знаменитый 0.47712125471966244 0.00037362666775228067
караван 1.2448070714251411 0.0009747901890564927
работа 0.1814200925607482 0.00014206741782360862
аксёновеправить 2.089905111439398 0.0016365740888327316
показ 1.3117538610557542 0.0010272152396677793
рик 0.8594561900611241 0.0006730275568215537
другой 0.018023104133272592 1.4113628921904927e-05
носить 0.4564366558598114 0.0003574288612841123
почта 0.8857851287834732 0.0006936453631820463
ребёнок 0.21484384804769785 0.0001682410712981189
змеуть 2.089905111439398 0.0016365740888327316
разгон 1.6127838567197355 0.0012629474210804506
изограф 1.7888751157754168 0.0014008419074200602
научно-творческий 2.089905111439398 0.0016365740888327316
издать 0.27699175479654237 0.00021690818699807548
девять 0.8594561900611241 0.0006730275568215537
палата 0.7096938697277919 0.0005557508768424369
издание 0.16562582537751624 0.00012969915847886942
специальный 0.6919651027673603 0.0005418677390503997
григорий 0.6275071135404419 0.0004913916315900093
огонёк 0.584755133119492 0.0004579131817693751
вьюноша 2.089905111439398 0.0016365740888327316
экз 0.21484384804769785 0.0001682410712981189
работать 0.09867903574690305 7.727410786758266e-05
тромб 1.7888751157754168 0.0014008419074200602
случайный 0.0 0.0
повесть 0.11218150615055017 8.784769471460468e-05
красный 0.31175386105575426 0.00024412988336394226
окончить 0.17082701906332404 0.0001337721370895255
настольный 0.0 0.0
интеллигенция 0.6919651027673603 0.0005418677390503997
потерять 0.811151510486569 0.0006352008696057706
изографъ 2.089905111439398 0.0016365740888327316
удаться 0.5713911715615104 0.0004474480591711123
редкий 0.8346326063360918 0.0006535885719154987
человек 0.029207271085786267 2.2871786284875698e-05
белоручка 2.089905111439398 0.0016365740888327316
рухнуть 1.390935107103379 0.0010892209139415656
отдельный 0.39093510710337914 0.0003061355576377284
ланина 1.390935107103379 0.0010892209139415656
погибнуть 0.67493176346858 0.00052852918047657
аксон 2.089905111439398 0.0016365740888327316
диктатура 1.6127838567197355 0.0012629474210804506
состояться 0.31905309979725377 0.0002498458103345762
сакс 1.7888751157754168 0.0014008419074200602
бюро 1.089905111439398 0.0008534887325288943
резкий 0.67493176346858 0.00052852918047657
ухудшиться 1.1868151244474543 0.0009293775445947175
нюхал… 2.089905111439398 0.0016365740888327316
ночь 0.39093510710337914 0.0003061355576377284
приёмная 1.4878451201114355 0.0011651097260073889
незначительный 1.3117538610557542 0.0010272152396677793
он 0.38233493534146157 0.00029940088906927297
проблема 0.4086638740638107 0.0003200186954297656
шаг 0.8346326063360918 0.0006535885719154987
нами… 2.089905111439398 0.0016365740888327316
педиатрический 1.7888751157754168 0.0014008419074200602
восемнадцать 1.3117538610557542 0.0010272152396677793
м. 0.06459924617462771 5.058672370761763e-05
сентябрь 0.1503858588207794 0.00011776496383772859
век 0.1814200925607482 0.00014206741782360862
билет 1.0107238653917732 0.0007914830582551081
н. 0.11218150615055017 8.784769471460468e-05
здоровье 0.5458370670891223 0.00042743701416532676
мечтать 0.8594561900611241 0.0006730275568215537
печать 0.43669259766405427 0.0003419675784370041
выполнить 0.7676858167054786 0.000601163521304212
январь 0.08558373765675535 6.701937169675439e-05
сборник 0.14051510479448517 0.00011003532090406043
памятник 0.31175386105575426 0.00024412988336394226
сам 0.22658225131894205 0.0001774332430062193
одноимённый 0.42714727975782385 0.0003344927797633703
энциклопедия 0.1978105087489175 0.00015490251272428935
горчаков 1.7888751157754168 0.0014008419074200602
заявление 0.0 0.0
юность 0.43669259766405427 0.0003419675784370041
английский 0.4464524349532105 0.0003496103640980505
рождение 0.010723865391773066 8.397701951270999e-06
отрочество 1.135662602000073 0.00088932075332817
его.аксён 2.089905111439398 0.0016365740888327316
педиатр 1.7888751157754168 0.0014008419074200602
драматургия 0.811151510486569 0.0006352008696057706
аксёнов 1.4878451201114355 0.0011651097260073889
биаррица 1.7888751157754168 0.0014008419074200602
татария 2.089905111439398 0.0016365740888327316
границейправить 1.7888751157754168 0.0014008419074200602
два 0.20909151915860658 0.00016373650678042803
появляться 0.6427470800971787 0.0005033258262311501
горсовет 2.089905111439398 0.0016365740888327316
родственник 0.67493176346858 0.00052852918047657
сотрудник 0.47712125471966244 0.00037362666775228067
голубиный 1.7888751157754168 0.0014008419074200602
столичный 0.9138138523837167 0.0007155942461892848
библиография 0.2510560207021426 0.00019659829342376085
реабилитация 1.1868151244474543 0.0009293775445947175
белла 1.6127838567197355 0.0012629474210804506
получиться 1.089905111439398 0.0008534887325288943
команда 0.9759617591325612 0.0007642613618892414
расчёт 1.048512426281173 0.0008210747269233931
миндадзе 2.089905111439398 0.0016365740888327316
проза 0.17609125905568124 0.00013789448633960943
липкина 2.089905111439398 0.0016365740888327316
бочкотар 2.089905111439398 0.0016365740888327316
гайдар 1.3117538610557542 0.0010272152396677793
стоить 0.6585413472804106 0.0005156940855758893
соискание 1.048512426281173 0.0008210747269233931
твой 0.7676858167054786 0.000601163521304212
что-то 0.7676858167054786 0.000601163521304212
проверяться 0.6919651027673603 0.0005418677390503997
третий 0.28372513745551076 0.0002221810003567038
критика 0.2573961987331616 0.0002015631939962111
