русский 0.0035452807646496587 6.008950448558744e-06
автор 0.09867903574690305 0.00016725260296085264
поколение 0.5713911715615104 0.0009684596128161193
прозаик 0.21484384804769785 0.0003641421153350811
большой 0.21484384804769785 0.0003641421153350811
предмет 0.6427470800971787 0.0010894018306731844
отзыв 0.49884050441289873 0.0008454923803608452
местность 1.089905111439398 0.0018472967990498272
петроградский 0.9759617591325612 0.0016541724731060359
остров 0.5336026106721107 0.0009044112045290011
журнал 0.03682666795597817 6.241808128131894e-05
средний 0.5713911715615104 0.0009684596128161193
ясный 0.7096938697277919 0.0012028709656403253
аптекарский 2.089905111439398 0.003542212053287115
удачный 1.089905111439398 0.0018472967990498272
неопр. 0.1454224392892293 0.00024647871065971067
искандер 1.3117538610557542 0.002223311628908058
университет 0.15540666019583024 0.00026340111897598344
казак 0.6585413472804106 0.0011161717750515433
опубликовать 0.1214221628854628 0.0002058002760770556
государственный 0.1814200925607482 0.00030749168230635287
империя 0.2510560207021426 0.0004255186791561739
известный 0.2703611758975292 0.0004582392811822529
май 0.16562582537751624 0.0002807217379279936
царскосельский 1.3117538610557542 0.002223311628908058
лицензия 0.0 0.0
сценаристправить 1.6127838567197355 0.0027335319605419246
семь 0.6127838567197355 0.0010386167063046363
незаменимый 1.7888751157754168 0.003031991721653249
шар 1.6127838567197355 0.0027335319605419246
чувствовать 0.67493176346858 0.0011439521414721694
чурикова 2.089905111439398 0.003542212053287115
несогласие 1.0107238653917732 0.0017130912972741917
источник 0.0 0.0
доступно 0.0 0.0
письмо 0.22658225131894205 0.00038403771409990177
факультет 0.29751342194114405 0.0005042600371883797
краткий 0.42714727975782385 0.000723978440267498
радио 0.5101215148225878 0.000864612736987437
член 0.18681512444745438 0.0003166358041482278
мир 0.13086371911830436 0.0002218029137598379
медаль 0.5101215148225878 0.000864612736987437
беглец 1.6127838567197355 0.0027335319605419246
авт 0.9138138523837167 0.0015488370379385028
викисклад 0.18681512444745438 0.0003166358041482278
апрель 0.16562582537751624 0.0002807217379279936
фамилия 0.0605213337541883 0.00010257853178675983
этот 0.0 0.0
геологоразведочный 1.7888751157754168 0.003031991721653249
главное 0.0 0.0
крым 0.5713911715615104 0.0009684596128161193
аудио 1.7888751157754168 0.003031991721653249
абсурдистский 1.7888751157754168 0.003031991721653249
погода 1.390935107103379 0.0023575171306836934
андре́ть 2.089905111439398 0.003542212053287115
смотреть 0.17609125905568124 0.00029845976111132414
попов 0.811151510486569 0.0013748330686213033
педагог 0.9138138523837167 0.0015488370379385028
восстановиться 1.390935107103379 0.0023575171306836934
метрополь 1.2448070714251411 0.002109842493940917
поддержка 0.5584261943971428 0.0009464850752493946
википедия 0.0 0.0
фазиль 1.6127838567197355 0.0027335319605419246
поляна 0.94377707576116 0.0015996221623070508
неспособность 1.3117538610557542 0.002223311628908058
собрание 0.2703611758975292 0.0004582392811822529
гл 0.47712125471966244 0.0008086800927451905
самоизоляция 1.2448070714251411 0.002109842493940917
хотеть 0.3739017678045988 0.000633731809838303
инициативный 1.2448070714251411 0.002109842493940917
отмечать 0.4464524349532105 0.0007566990422935772
стих 0.31905309979725377 0.0005407679657580572
сергей 0.3575113516164294 0.0006059514434176769
др 0.39970903141088426 0.000677472934594719
поэт 0.2448070714251411 0.00041492723970362896
что 0.5713911715615104 0.0009684596128161193
василенко 2.089905111439398 0.003542212053287115
а.тепфер 2.089905111439398 0.003542212053287115
север 0.9138138523837167 0.0015488370379385028
свобода 0.38233493534146157 0.0006480253141380705
бауманский 2.089905111439398 0.003542212053287115
петрович 0.6127838567197355 0.0010386167063046363
править 0.0 0.0
исключение 0.6919651027673603 0.0011728222080802718
место 0.021719249693236305 3.6812287615654755e-05
немой 0.5985434176051253 0.0010144803688222463
шаргунов 1.6127838567197355 0.0027335319605419246
десять 0.5584261943971428 0.0009464850752493946
симметрия 1.7888751157754168 0.003031991721653249
джаз 1.6127838567197355 0.0027335319605419246
друг 0.27699175479654237 0.0004694775505026142
редко 1.135662602000073 0.001924851867796734
неизбежность 1.4878451201114355 0.002521771390019382
видный 0.7096938697277919 0.0012028709656403253
сост 0.4086638740638107 0.0006926506340064588
эссе 0.5985434176051253 0.0010144803688222463
ольга 0.43669259766405427 0.0007401569451933124
мать 0.18681512444745438 0.0003166358041482278
меню 0.0 0.0
абсолютный 1.089905111439398 0.0018472967990498272
указ 0.5584261943971428 0.0009464850752493946
крупный 0.43669259766405427 0.0007401569451933124
фото 0.7096938697277919 0.0012028709656403253
преподаватель 0.6585413472804106 0.0011161717750515433
состав 0.47712125471966244 0.0008086800927451905
поблизости 0.0 0.0
лестный 1.7888751157754168 0.003031991721653249
пальмира 1.4878451201114355 0.002521771390019382
название 0.28372513745551076 0.0004808900634839165
ненаписанный 1.4878451201114355 0.002521771390019382
наброситься 2.089905111439398 0.003542212053287115
литератураправить 0.21484384804769785 0.0003641421153350811
архивный 0.38233493534146157 0.0006480253141380705
шадрина 2.089905111439398 0.003542212053287115
георгиевич 1.2448070714251411 0.002109842493940917
библиотека 0.17609125905568124 0.00029845976111132414
жизнь 0.08990511143939793 0.00015238154481253885
проснуться 1.1868151244474543 0.0020115510583855155
страна 0.2638303087385715 0.0004471700148111381
газ 1.390935107103379 0.0023575171306836934
дата 0.014358150046867215 2.4335847537063077e-05
страница 0.0 0.0
михаил 0.2510560207021426 0.0004255186791561739
родиться 0.0 0.0
ссылка 0.08990511143939793 0.00015238154481253885
том 0.23864676272032262 0.0004044860385090214
писатель 0.05247861349877426 8.894680254029535e-05
переводчик 0.46665582104149744 0.0007909420695618601
гоголевский 0.9759617591325612 0.0016541724731060359
виктор 0.521703387372403 0.0008842430294447507
недостаточность 1.1868151244474543 0.0020115510583855155
умный 0.8857851287834732 0.0015013307267516495
захоронить 1.1868151244474543 0.0020115510583855155
пожертвовать 0.0 0.0
сердечный 0.811151510486569 0.0013748330686213033
политика 0.0 0.0
такой 0.2510560207021426 0.0004255186791561739
брат 0.2703611758975292 0.0004582392811822529
четыре 0.3575113516164294 0.0006059514434176769
река 0.5458370670891223 0.0009251475713374954
манна 1.1868151244474543 0.0020115510583855155
известие 0.5101215148225878 0.000864612736987437
приватизация 1.6127838567197355 0.0027335319605419246
господин 0.8346326063360918 0.0014146315361628675
отредактировать 0.0 0.0
книга 0.0445821326527405 7.556293669956017e-05
школа 0.1814200925607482 0.00030749168230635287
телеканал 0.6275071135404419 0.0010635713788821049
роман 0.10763387839982952 0.0001824303023725924
примечанияправить 0.31905309979725377 0.0005407679657580572
рах 1.6127838567197355 0.0027335319605419246
улетать 2.089905111439398 0.003542212053287115
премия 0.16562582537751624 0.0002807217379279936
короткий 0.6275071135404419 0.0010635713788821049
семёнов 1.089905111439398 0.0018472967990498272
лексикон 0.8346326063360918 0.0014146315361628675
сторона 0.3739017678045988 0.000633731809838303
биографияправить 0.06871581236945988 0.00011646747859230487
преподавать 0.728177275421805 0.0012341987719013644
а. 0.04851242628117289 8.222445132402185e-05
сретение 2.089905111439398 0.003542212053287115
преподавание 1.089905111439398 0.0018472967990498272
пер 0.6127838567197355 0.0010386167063046363
захаров 0.8594561900611241 0.001456705406883261
вишневский 1.4878451201114355 0.002521771390019382
проект 0.31905309979725377 0.0005407679657580572
пигаревый 1.7888751157754168 0.003031991721653249
вовсе 0.811151510486569 0.0013748330686213033
правозащитный 1.4878451201114355 0.002521771390019382
поступить 0.2510560207021426 0.0004255186791561739
награждение 0.8346326063360918 0.0014146315361628675
максим 0.39970903141088426 0.000677472934594719
переделкинский 1.7888751157754168 0.003031991721653249
академия 0.3575113516164294 0.0006059514434176769
восток 0.6919651027673603 0.0011728222080802718
горный 1.1868151244474543 0.0020115510583855155
рсфср 0.39093510710337914 0.0006626018764464053
алексеевич 0.67493176346858 0.0011439521414721694
сказать 0.3264771178764606 0.0005533510472482383
госдума 1.390935107103379 0.0023575171306836934
леонидович 1.135662602000073 0.001924851867796734
званияправить 1.4878451201114355 0.002521771390019382
актёрправить 1.6127838567197355 0.0027335319605419246
габрилович 2.089905111439398 0.003542212053287115
сын 0.18681512444745438 0.0003166358041482278
язык 0.0 0.0
президент 0.6275071135404419 0.0010635713788821049
творчество 0.08990511143939793 0.00015238154481253885
инна 1.2448070714251411 0.002109842493940917
юрий 0.39970903141088426 0.000677472934594719
георгий 0.5458370670891223 0.0009251475713374954
среди 0.30457527642863086 0.0005162292820824251
композиторнаград 2.089905111439398 0.003542212053287115
объединение 0.8346326063360918 0.0014146315361628675
один 0.1454224392892293 0.00024647871065971067
ю. 0.23864676272032262 0.0004044860385090214
указать 0.0 0.0
внебрачный 1.3117538610557542 0.002223311628908058
иван 0.3264771178764606 0.0005533510472482383
шуваловский 2.089905111439398 0.003542212053287115
ереванский 2.089905111439398 0.003542212053287115
мошково 0.6919651027673603 0.0011728222080802718
андрей 0.31905309979725377 0.0005407679657580572
ссср 0.08558373765675535 0.00014505718246907685
правда 0.2638303087385715 0.0004471700148111381
высокий 0.31905309979725377 0.0005407679657580572
долгий 0.6585413472804106 0.0011161717750515433
данные 0.584755133119492 0.000991110395117783
читать 0.31905309979725377 0.0005407679657580572
творец 1.390935107103379 0.0023575171306836934
народ 0.2448070714251411 0.00041492723970362896
мастерская 0.728177275421805 0.0012341987719013644
жванецкий 1.7888751157754168 0.003031991721653249
брокгауз 0.4464524349532105 0.0007566990422935772
возможность 0.48784512011143555 0.0008268561357820942
альманах 0.4178072535036805 0.0007081478872943736
непрофессиональный 2.089905111439398 0.003542212053287115
иной 0.0 0.0
разработчик 0.0 0.0
располагаться 0.9138138523837167 0.0015488370379385028
война 0.20341438626691605 0.00034477014621511195
драка 2.089905111439398 0.003542212053287115
ход 0.6427470800971787 0.0010894018306731844
ударить 1.390935107103379 0.0023575171306836934
исследование 0.47712125471966244 0.0008086800927451905
рябой 2.089905111439398 0.003542212053287115
ленинградский 0.48784512011143555 0.0008268561357820942
бульвар 0.8346326063360918 0.0014146315361628675
тёмный 0.8857851287834732 0.0015013307267516495
обложка 0.811151510486569 0.0013748330686213033
перенести 0.7888751157754168 0.0013370764674159607
иностранный 0.5713911715615104 0.0009684596128161193
ожидание 0.8857851287834732 0.0015013307267516495
участвовать 0.4178072535036805 0.0007081478872943736
версия 0.0 0.0
литобъединение 2.089905111439398 0.003542212053287115
ум 0.6127838567197355 0.0010386167063046363
марк 0.5584261943971428 0.0009464850752493946
интервью 0.3739017678045988 0.000633731809838303
культура 0.19227802014895654 0.00032589494940501106
вместе 0.2573961987331616 0.00043626474361552816
сша 0.5713911715615104 0.0009684596128161193
условие 0.0 0.0
присуждение 0.8857851287834732 0.0015013307267516495
дачный 1.4878451201114355 0.002521771390019382
использование 0.0 0.0
горький 0.3575113516164294 0.0006059514434176769
обстоятельство 0.6275071135404419 0.0010635713788821049
гулливер 1.4878451201114355 0.002521771390019382
нем. 0.8594561900611241 0.001456705406883261
газета 0.11677725783969929 0.00019792755566050728
черкесский 1.7888751157754168 0.003031991721653249
правительство 0.5584261943971428 0.0009464850752493946
комсомольский 0.6427470800971787 0.0010894018306731844
литератор 0.34171708443319754 0.0005791814990393178
евгений 0.3739017678045988 0.000633731809838303
смерть 0.06871581236945988 0.00011646747859230487
зал 0.46665582104149744 0.0007909420695618601
поиск 0.584755133119492 0.000991110395117783
цитата 0.2703611758975292 0.0004582392811822529
обоснованный 1.6127838567197355 0.0027335319605419246
бесцензурный 1.4878451201114355 0.002521771390019382
неформальный 1.6127838567197355 0.0027335319605419246
рядом 0.4464524349532105 0.0007566990422935772
риа 0.728177275421805 0.0012341987719013644
детство 0.30457527642863086 0.0005162292820824251
рбк 1.390935107103379 0.0023575171306836934
уровень 0.6919651027673603 0.0011728222080802718
спб. 0.42714727975782385 0.000723978440267498
ряд 0.2905645619858162 0.000492482308450536
кацов 2.089905111439398 0.003542212053287115
ереван 1.3117538610557542 0.002223311628908058
незнакомый 1.4878451201114355 0.002521771390019382
впервые 0.34954242194515406 0.0005924447829578882
украина 0.5336026106721107 0.0009044112045290011
кавалер 0.8346326063360918 0.0014146315361628675
скоростной 2.089905111439398 0.003542212053287115
ртутный 1.7888751157754168 0.003031991721653249
воевать 1.0107238653917732 0.0017130912972741917
тб. 2.089905111439398 0.003542212053287115
заграница 2.089905111439398 0.003542212053287115
ревность 1.2448070714251411 0.002109842493940917
москва 0.05247861349877426 8.894680254029535e-05
найти 0.0 0.0
открыть 0.0 0.0
бывать 0.5985434176051253 0.0010144803688222463
имя 0.08990511143939793 0.00015238154481253885
награда 0.23864676272032262 0.0004044860385090214
детский 0.39093510710337914 0.0006626018764464053
российский 0.025447122212479436 4.313071561437192e-05
больница 0.6919651027673603 0.0011728222080802718
советский 0.1454224392892293 0.00024647871065971067
деятельность 0.0035452807646496587 6.008950448558744e-06
принадлежать 0.5101215148225878 0.000864612736987437
закрытие 1.1868151244474543 0.0020115510583855155
последний 0.0 0.0
даром 1.3117538610557542 0.002223311628908058
мерань 1.6127838567197355 0.0027335319605419246
экземпляр 0.584755133119492 0.000991110395117783
симпозиум 1.1868151244474543 0.0020115510583855155
лауреат 0.30457527642863086 0.0005162292820824251
описание 0.0 0.0
вновь 0.6127838567197355 0.0010386167063046363
литература 0.05648135595244821 9.573111178381052e-05
молодой 0.17609125905568124 0.00029845976111132414
стройбат 2.089905111439398 0.003542212053287115
орден 0.4178072535036805 0.0007081478872943736
р. 0.42714727975782385 0.000723978440267498
печатать 0.67493176346858 0.0011439521414721694
медиафайл 0.1503858588207794 0.0002548912861369142
урна 1.390935107103379 0.0023575171306836934
ахмадулин 1.6127838567197355 0.0027335319605419246
служить 0.33403025576690654 0.0005661529758761128
черновик 1.089905111439398 0.0018472967990498272
общественный 0.27699175479654237 0.0004694775505026142
северный 0.49884050441289873 0.0008454923803608452
статья 0.025447122212479436 4.313071561437192e-05
умереть 0.21484384804769785 0.0003641421153350811
мовсес 2.089905111439398 0.003542212053287115
первый 0.05247861349877426 8.894680254029535e-05
дом 0.13566260200007307 0.00022993661355944587
сценарист 0.5101215148225878 0.000864612736987437
юбилей 0.6427470800971787 0.0010894018306731844
коллегия 0.8857851287834732 0.0015013307267516495
деятель 0.30457527642863086 0.0005162292820824251
биография 0.07287177214061759 0.00012351147820443658
анна 0.3739017678045988 0.000633731809838303
стать 0.08558373765675535 0.00014505718246907685
свой 0.0770678867342257 0.00013062353683767066
ответственность 0.0 0.0
сезон 0.8346326063360918 0.0014146315361628675
редактироваться 0.029207271085786267 4.950384929794282e-05
институт 0.2510560207021426 0.0004255186791561739
рассказ 0.10313337717315306 0.00017480233419178484
современник 0.3656292418386089 0.0006197105793874727
л. 0.1604861857251052 0.0002720104842798393
область 0.18681512444745438 0.0003166358041482278
портрет 0.34171708443319754 0.0005791814990393178
создатель 0.7676858167054786 0.0013011624011957264
режиссёр 0.34171708443319754 0.0005791814990393178
архитектор 0.8594561900611241 0.001456705406883261
дерево 0.8346326063360918 0.0014146315361628675
изд 0.33403025576690654 0.0005661529758761128
март 0.14051510479448517 0.000238161194566924
картина 0.4178072535036805 0.0007081478872943736
начать 0.27699175479654237 0.0004694775505026142
осень 0.39093510710337914 0.0006626018764464053
против 0.34954242194515406 0.0005924447829578882
е. 0.1604861857251052 0.0002720104842798393
дача 0.728177275421805 0.0012341987719013644
произведение 0.010723865391773066 1.8176043036903502e-05
день 0.1454224392892293 0.00024647871065971067
записка 0.4178072535036805 0.0007081478872943736
распоряжение 0.7676858167054786 0.0013011624011957264
сопутствовать 1.6127838567197355 0.0027335319605419246
предложение 0.5985434176051253 0.0010144803688222463
фильмографияправить 1.390935107103379 0.0023575171306836934
союз 0.2573961987331616 0.00043626474361552816
ветреный 1.4878451201114355 0.002521771390019382
шукшин 1.6127838567197355 0.0027335319605419246
знак 0.3739017678045988 0.000633731809838303
войти 0.0 0.0
журнальный 0.47712125471966244 0.0008086800927451905
половина 0.49884050441289873 0.0008454923803608452
проведение 0.6585413472804106 0.0011161717750515433
современный 0.23864676272032262 0.0004044860385090214
диспут 1.7888751157754168 0.003031991721653249
новость 0.42714727975782385 0.000723978440267498
гео́ргиевич 1.390935107103379 0.0023575171306836934
конгресс 0.811151510486569 0.0013748330686213033
связаться 0.0 0.0
многий 0.4464524349532105 0.0007566990422935772
астафьев 1.7888751157754168 0.003031991721653249
насколько 1.1868151244474543 0.0020115510583855155
маленький 0.4464524349532105 0.0007566990422935772
заплыв 2.089905111439398 0.003542212053287115
дружба 0.5336026106721107 0.0009044112045290011
копия 0.39970903141088426 0.000677472934594719
год 0.0 0.0
пейзаж 1.1868151244474543 0.0020115510583855155
дождь 0.8346326063360918 0.0014146315361628675
выразить 0.67493176346858 0.0011439521414721694
реставрация 1.089905111439398 0.0018472967990498272
пасха 1.6127838567197355 0.0027335319605419246
ред 0.2573961987331616 0.00043626474361552816
открытый 0.47712125471966244 0.0008086800927451905
тт 1.135662602000073 0.001924851867796734
россия 0.0770678867342257 0.00013062353683767066
шаповал 2.089905111439398 0.003542212053287115
почётный 0.5336026106721107 0.0009044112045290011
глуповатый 2.089905111439398 0.003542212053287115
кук 0.0 0.0
старцев 1.6127838567197355 0.0027335319605419246
геннадий 0.8594561900611241 0.001456705406883261
ноябрь 0.1978105087489175 0.0003352720487269788
фонд 0.43669259766405427 0.0007401569451933124
светлана 0.8346326063360918 0.0014146315361628675
прощание 0.7888751157754168 0.0013370764674159607
роднянский 1.4878451201114355 0.002521771390019382
алешковский 2.089905111439398 0.003542212053287115
манный 1.3117538610557542 0.002223311628908058
глеб 1.0107238653917732 0.0017130912972741917
грань-тв 1.7888751157754168 0.003031991721653249
писать 0.13566260200007307 0.00022993661355944587
василий 0.49884050441289873 0.0008454923803608452
художество 1.048512426281173 0.00177713970556131
конфиденциальность 0.0 0.0
правило 0.6275071135404419 0.0010635713788821049
работа 0.1814200925607482 0.00030749168230635287
февраль 0.1214221628854628 0.0002058002760770556
письмо-обращение 2.089905111439398 0.003542212053287115
быть 0.34954242194515406 0.0005924447829578882
курс 0.3739017678045988 0.000633731809838303
четверг 1.4878451201114355 0.002521771390019382
писательство 1.4878451201114355 0.002521771390019382
главный 0.0 0.0
вполне 0.6919651027673603 0.0011728222080802718
содержание 0.0 0.0
кладбище 0.2448070714251411 0.00041492723970362896
запрещать 1.1868151244474543 0.0020115510583855155
рик 0.8594561900611241 0.001456705406883261
другой 0.018023104133272592 3.054763412419083e-05
федерация 0.5336026106721107 0.0009044112045290011
отказ 0.0 0.0
достаться 0.9759617591325612 0.0016541724731060359
ребёнок 0.21484384804769785 0.0003641421153350811
называть 0.3575113516164294 0.0006059514434176769
стихотворение 0.3739017678045988 0.000633731809838303
урок 0.6127838567197355 0.0010386167063046363
группа 0.42714727975782385 0.000723978440267498
лекция 0.584755133119492 0.000991110395117783
искусство 0.2448070714251411 0.00041492723970362896
нтв 1.135662602000073 0.001924851867796734
гражданство 0.021719249693236305 3.6812287615654755e-05
талантливый 0.8594561900611241 0.001456705406883261
англ 0.3739017678045988 0.000633731809838303
огонёк 0.584755133119492 0.000991110395117783
примечание 0.07287177214061759 0.00012351147820443658
экз 0.21484384804769785 0.0003641421153350811
и. 0.14051510479448517 0.000238161194566924
случайный 0.0 0.0
юрист 1.0107238653917732 0.0017130912972741917
звание 0.521703387372403 0.0008842430294447507
викицитатник 0.2905645619858162 0.000492482308450536
слово 0.19227802014895654 0.00032589494940501106
повесть 0.11218150615055017 0.00019013814601788164
б. 0.2510560207021426 0.0004255186791561739
второй 0.15540666019583024 0.00026340111897598344
отец 0.17082701906332404 0.00028953732044631193
прах 0.9138138523837167 0.0015488370379385028
белый 0.39093510710337914 0.0006626018764464053
библиографияправить 0.4464524349532105 0.0007566990422935772
звезда 0.3656292418386089 0.0006197105793874727
окончить 0.17082701906332404 0.00028953732044631193
настольный 0.0 0.0
кулак 1.7888751157754168 0.003031991721653249
интеллигенция 0.6919651027673603 0.0011728222080802718
набережная 0.811151510486569 0.0013748330686213033
вплоть 0.7676858167054786 0.0013011624011957264
постмодернизм 1.2448070714251411 0.002109842493940917
вып 0.43669259766405427 0.0007401569451933124
следить 0.0 0.0
германия 0.43669259766405427 0.0007401569451933124
человек 0.029207271085786267 4.950384929794282e-05
июнь 0.1814200925607482 0.00030749168230635287
художественный 0.2206733917084217 0.0003740226978108842
единственный 0.48784512011143555 0.0008268561357820942
воскресный 1.3117538610557542 0.002223311628908058
подданство 0.20909151915860658 0.00035439240535357046
журналист-международник 1.7888751157754168 0.003031991721653249
москва-пенна 2.089905111439398 0.003542212053287115
альбом 0.9759617591325612 0.0016541724731060359
около 0.46665582104149744 0.0007909420695618601
сценарный 1.0107238653917732 0.0017130912972741917
кедровый 1.390935107103379 0.0023575171306836934
уральский 1.135662602000073 0.001924851867796734
подписать 0.5101215148225878 0.000864612736987437
новь 1.0107238653917732 0.0017130912972741917
шедевр 1.089905111439398 0.0018472967990498272
предок 0.67493176346858 0.0011439521414721694
измерение 1.4878451201114355 0.002521771390019382
архив 0.34954242194515406 0.0005924447829578882
родственный 0.67493176346858 0.0011439521414721694
санкт-петербург 0.34171708443319754 0.0005791814990393178
ленинград 0.5584261943971428 0.0009464850752493946
стипендия 1.2448070714251411 0.002109842493940917
армения 1.390935107103379 0.0023575171306836934
владимир 0.2206733917084217 0.0003740226978108842
отзывыправить 1.390935107103379 0.0023575171306836934
защита 0.47712125471966244 0.0008086800927451905
карабчиевский 2.089905111439398 0.003542212053287115
замечательный 0.4564366558598114 0.0007736214506098498
статистика 0.0 0.0
берлинский 1.089905111439398 0.0018472967990498272
хронос 1.4878451201114355 0.002521771390019382
выйти 0.10763387839982952 0.0001824303023725924
би́т 2.089905111439398 0.003542212053287115
декабрь 0.14051510479448517 0.000238161194566924
руководство 0.5458370670891223 0.0009251475713374954
м. 0.06459924617462771 0.0001094902477536063
общаться 0.811151510486569 0.0013748330686213033
век 0.1814200925607482 0.00030749168230635287
монах 1.1868151244474543 0.0020115510583855155
пушкинский 0.584755133119492 0.000991110395117783
позицияправить 1.1868151244474543 0.0020115510583855155
н. 0.11218150615055017 0.00019013814601788164
н.в 1.6127838567197355 0.0027335319605419246
читатель 0.43669259766405427 0.0007401569451933124
фонтанка 1.3117538610557542 0.002223311628908058
печать 0.43669259766405427 0.0007401569451933124
мк-периодика 2.089905111439398 0.003542212053287115
обезьяна 1.7888751157754168 0.003031991721653249
путешествие 0.5584261943971428 0.0009464850752493946
часто 0.39093510710337914 0.0006626018764464053
обида 1.135662602000073 0.001924851867796734
январь 0.08558373765675535 0.00014505718246907685
грузинский 1.048512426281173 0.00177713970556131
похороны 0.67493176346858 0.0011439521414721694
пен-клуб 1.3117538610557542 0.002223311628908058
вычитание 2.089905111439398 0.003542212053287115
мы 0.0 0.0
памятник 0.31175386105575426 0.0005283963746707699
обнаружить 0.7096938697277919 0.0012028709656403253
уметь 0.7096938697277919 0.0012028709656403253
сам 0.22658225131894205 0.00038403771409990177
поверяться 2.089905111439398 0.003542212053287115
энциклопедия 0.1978105087489175 0.0003352720487269788
разговор 0.728177275421805 0.0012341987719013644
присоединение 1.4878451201114355 0.002521771390019382
заявление 0.0 0.0
литературный 0.03682666795597817 6.241808128131894e-05
казаться 0.584755133119492 0.000991110395117783
число 0.2638303087385715 0.0004471700148111381
английский 0.4464524349532105 0.0007566990422935772
рождение 0.010723865391773066 1.8176043036903502e-05
очень 0.29751342194114405 0.0005042600371883797
депутат 0.7474824306171917 0.0012669193739274435
доктор 0.5101215148225878 0.000864612736987437
образ 0.28372513745551076 0.0004808900634839165
лимбах 1.6127838567197355 0.0027335319605419246
новый 0.0770678867342257 0.00013062353683767066
гоголь 0.6127838567197355 0.0010386167063046363
перестройка 1.1868151244474543 0.0020115510583855155
пётр 0.5336026106721107 0.0009044112045290011
несколько 0.19227802014895654 0.00032589494940501106
обращение 0.14051510479448517 0.000238161194566924
просто 0.5101215148225878 0.000864612736987437
неизвестный 0.48784512011143555 0.0008268561357820942
прозаический 0.7676858167054786 0.0013011624011957264
битов 1.7888751157754168 0.003031991721653249
с. 0.11218150615055017 0.00019013814601788164
фильмография 0.8346326063360918 0.0014146315361628675
аксёнов 1.4878451201114355 0.002521771390019382
приноравливаться 1.7888751157754168 0.003031991721653249
франция 0.5101215148225878 0.000864612736987437
гораздо 0.8346326063360918 0.0014146315361628675
изложить 0.9138138523837167 0.0015488370379385028
бог 0.6127838567197355 0.0010386167063046363
гвардия 0.3264771178764606 0.0005533510472482383
подражать 1.2448070714251411 0.002109842493940917
путин 0.94377707576116 0.0015996221623070508
позиция 0.49884050441289873 0.0008454923803608452
голявкинуть 2.089905111439398 0.003542212053287115
гражданин 0.6275071135404419 0.0010635713788821049
заяц 0.94377707576116 0.0015996221623070508
основатель 0.94377707576116 0.0015996221623070508
сайт 0.1214221628854628 0.0002058002760770556
оглашенный 2.089905111439398 0.003542212053287115
чужой 0.6585413472804106 0.0011161717750515433
сочинение 0.2448070714251411 0.00041492723970362896
харьков 0.9138138523837167 0.0015488370379385028
битовый 1.7888751157754168 0.003031991721653249
библиография 0.2510560207021426 0.0004255186791561739
актёр 0.6127838567197355 0.0010386167063046363
огласить 2.089905111439398 0.003542212053287115
научный 0.3656292418386089 0.0006197105793874727
создание 0.43669259766405427 0.0007401569451933124
в. 0.11677725783969929 0.00019792755566050728
олег 0.5458370670891223 0.0009251475713374954
наука 0.1978105087489175 0.0003352720487269788
хоренаци 2.089905111439398 0.003542212053287115
платоновский 1.4878451201114355 0.002521771390019382
проза 0.17609125905568124 0.00029845976111132414
хороший 0.20909151915860658 0.00035439240535357046
рефлексия 2.089905111439398 0.003542212053287115
новичок 2.089905111439398 0.003542212053287115
предоставить 0.8594561900611241 0.001456705406883261
багажъ 2.089905111439398 0.003542212053287115
тоталитаризм 1.048512426281173 0.00177713970556131
почёт 0.8594561900611241 0.001456705406883261
