русский 0.0035452807646496587 2.5877961785763932e-05
автор 0.09867903574690305 0.0007202849324591463
последний 0.0 0.0
игнатиевич 1.390935107103379 0.010152811000754592
затем 0.2206733917084217 0.0016107546840030782
пожертвовать 0.0 0.0
описание 0.0 0.0
политика 0.0 0.0
настольный 0.0 0.0
гг. 0.7474824306171917 0.0054560761358919095
иванино 2.089905111439398 0.015254781835324072
литература 0.05648135595244821 0.00041227267118575334
деятельница 1.7888751157754168 0.013057482596900852
беллетристика 1.135662602000073 0.008289508043796153
следить 0.0 0.0
отредактировать 0.0 0.0
школа 0.1814200925607482 0.001324234252268235
примечанияправить 0.31905309979725377 0.002328854743045648
человек 0.029207271085786267 0.0002131917597502647
столица 0.6275071135404419 0.00458034389445578
общественный 0.27699175479654237 0.002021837626252134
империя 0.2510560207021426 0.0018325256985557855
т. 0.20909151915860658 0.0015262154683109968
художественный 0.2206733917084217 0.0016107546840030782
переводчица 1.048512426281173 0.0076533753743151306
воскресный 1.3117538610557542 0.009574845701136892
статья 0.025447122212479436 0.00018574541760933895
подданство 0.20909151915860658 0.0015262154683109968
лицензия 0.0 0.0
биографияправить 0.06871581236945988 0.0005015752727697802
ефрон 0.6127838567197355 0.0044728748665674115
первый 0.05247861349877426 0.0003830555729837537
деятель 0.30457527642863086 0.002223177200208984
доступно 0.0 0.0
источник 0.0 0.0
ответственность 0.0 0.0
санкт-петербург 0.34171708443319754 0.002494285287833559
п. 0.17609125905568124 0.0012853376573407388
редактироваться 0.029207271085786267 0.0002131917597502647
статистика 0.0 0.0
публика 0.6919651027673603 0.005050840166185112
вдова 0.7474824306171917 0.0054560761358919095
перевод 0.34171708443319754 0.002494285287833559
язык 0.0 0.0
швеция 1.1868151244474543 0.00866288412005441
декабрь 0.14051510479448517 0.0010256576992298187
среди 0.30457527642863086 0.002223177200208984
фамилия 0.0605213337541883 0.0004417615602495496
пьяница 1.390935107103379 0.010152811000754592
этот 0.0 0.0
главное 0.0 0.0
указать 0.0 0.0
энциклопедический 0.5101215148225878 0.0037235147067342174
н. 0.11218150615055017 0.0008188431105879574
генерал-лейтенант 1.135662602000073 0.008289508043796153
город 0.1604861857251052 0.0011714320125920086
произведение 0.010723865391773066 7.827638972097128e-05
прочий 0.67493176346858 0.004926509222398394
выдающийся 0.47712125471966244 0.0034826368957639594
труд 0.29751342194114405 0.0021716308170886428
википедия 0.0 0.0
финляндия 1.089905111439398 0.007955511762331372
войти 0.0 0.0
императорский 0.521703387372403 0.003808053922426299
очерк 0.27699175479654237 0.002021837626252134
брокгауз 0.4464524349532105 0.0032587768974686898
мы 0.0 0.0
гейер 2.089905111439398 0.015254781835324072
иной 0.0 0.0
разработчик 0.0 0.0
заявление 0.0 0.0
война 0.20341438626691605 0.0014847765420942776
связаться 0.0 0.0
рождение 0.010723865391773066 7.827638972097128e-05
доп. 0.6427470800971787 0.004691584526256779
черниговский 1.2448070714251411 0.00908618300310322
править 0.0 0.0
неизвестно 1.0107238653917732 0.0073775464627136725
место 0.021719249693236305 0.00015853466929369566
словарь 0.30457527642863086 0.002223177200208984
версия 0.0 0.0
иванина 2.089905111439398 0.015254781835324072
год 0.0 0.0
тифлис 1.135662602000073 0.008289508043796153
познакомить 1.1868151244474543 0.00866288412005441
шпилевский 2.089905111439398 0.015254781835324072
несколько 0.19227802014895654 0.0014034891981675659
условие 0.0 0.0
сергеевич 0.7676858167054786 0.00560354610733926
россия 0.0770678867342257 0.0005625393192279247
следующий 0.48784512011143555 0.003560913285484931
с. 0.11218150615055017 0.0008188431105879574
густав 1.1868151244474543 0.00866288412005441
быков 0.584755133119492 0.0042682856432079705
использование 0.0 0.0
девичество 1.0107238653917732 0.0073775464627136725
кук 0.0 0.0
сельский 0.6919651027673603 0.005050840166185112
меню 0.0 0.0
наталья 0.5336026106721107 0.0038949095669497127
смерть 0.06871581236945988 0.0005015752727697802
историк 0.67493176346858 0.004926509222398394
шведский 1.135662602000073 0.008289508043796153
изд. 0.6275071135404419 0.00458034389445578
поблизости 0.0 0.0
шпилевский-иванина 2.089905111439398 0.015254781835324072
конфиденциальность 0.0 0.0
писательница 0.521703387372403 0.003808053922426299
спб. 0.42714727975782385 0.0031178633558965243
спб 0.2510560207021426 0.0018325256985557855
впервые 0.34954242194515406 0.00255140453974565
главный 0.0 0.0
содержание 0.0 0.0
губерния 0.33403025576690654 0.002438177049393478
иванинаимя 2.089905111439398 0.015254781835324072
другой 0.018023104133272592 0.0001315555046224277
в. 0.11677725783969929 0.0008523887433554692
отказ 0.0 0.0
училище 0.521703387372403 0.003808053922426299
женский 0.728177275421805 0.0053151625943197445
жизнь 0.08990511143939793 0.000656241689338671
найти 0.0 0.0
издать 0.27699175479654237 0.002021837626252134
армия 0.3656292418386089 0.0026688265827635683
отдельно 0.9138138523837167 0.006670174104990633
открыть 0.0 0.0
дата 0.014358150046867215 0.0001048040149406366
гражданство 0.021719249693236305 0.00015853466929369566
страница 0.0 0.0
михаил 0.2510560207021426 0.0018325256985557855
учительница 0.8857851287834732 0.006465584881631191
родиться 0.0 0.0
изучить 1.048512426281173 0.0076533753743151306
екатеринодар 1.6127838567197355 0.011772144939560112
российский 0.025447122212479436 0.00018574541760933895
случайный 0.0 0.0
деятельность 0.0035452807646496587 2.5877961785763932e-05
