ерофеев 1.135662602000073 0.021095899727555538
виктор 0.6275071135404419 0.008256672546584761
владимирович 1.048512426281173 0.003246168502418492
википедия 0.0 0.0
открыть 0.0 0.0
главное 0.0 0.0
меню 0.0 0.0
главная 0.0 0.0
случайная 0.0 0.0
поблизости 0.0 0.0
войти 0.0 0.0
пожертвовать 0.0 0.0
описание 0.0 0.0
википедии 0.0 0.0
отказ 0.0 0.0
ответственности 0.0 0.0
найти 0.0 0.0
язык 0.0 0.0
следить 0.0 0.0
править 0.0 0.0
статьи 0.04851242628117289 7.509663511017475e-05
других 0.04068708876921636 9.447466432480578e-05
людях 0.10313337717315306 7.982459533525779e-05
фамилией 0.18681512444745438 0.00014459374957233312
ви́ктор 1.6127838567197355 0.0012482847188233248
влади́мирович 1.6127838567197355 0.0012482847188233248
ерофе́ев 2.089905111439398 0.0016175736156651688
род 0.007119741122947827 1.1021271088154532e-05
сентября 0.15540666019583024 0.0004811351708849234
москва 0.1604861857251052 0.0002484306280574384
русский 0.007119741122947827 2.2042542176309064e-05
писатель 0.08990511143939793 0.0004175159973965848
литературовед 0.7474824306171917 0.0017356403187705689
радио- 1.7888751157754168 0.0013845782629840688
телеведущий 1.3117538610557542 0.0020305787322844496
читает 0.728177275421805 0.0005636047023388584
книгу 0.29751342194114405 0.0004605470927881487
октября 0.1814200925607482 0.00014041802829779275
года 0.018023104133272592 0.00019529679401378972
дата 0.014358150046867215 6.667871538792825e-05
рождения 0.014358150046867215 2.222623846264275e-05
место 0.021719249693236305 1.6810564778046677e-05
ссср 0.08558373765675535 0.00019872384904819353
гражданство 0.025447122212479436 1.9695915025138884e-05
подданство 0.20909151915860658 0.00016183554114443234
россия 0.16562582537751624 0.00025638672659058245
деятельности 0.010723865391773066 8.300205411589061e-06
прозаик 0.2510560207021426 0.0001943158054970144
радиоведущий 1.6127838567197355 0.0012482847188233248
годы 0.11218150615055017 8.682779113819673e-05
творчества 0.1604861857251052 0.0001242153140287192
наст 1.0107238653917732 0.0007822940134611248
время 0.09867903574690305 7.637696265240175e-05
произведений 0.021719249693236305 3.3621129556093354e-05
награды 0.2448070714251411 0.00018947915744979964
произведения 0.09867903574690305 0.0001527539253048035
автора 0.28372513745551076 0.0004392029991571374
несвободны 1.6127838567197355 0.0012482847188233248
медиафайлы 0.1503858588207794 0.0001163977235454949
викискладе 0.18681512444745438 0.00014459374957233312
содержание 0.0 0.0
биография 0.0770678867342257 5.965006713175364e-05
общественная 0.8346326063360918 0.0012920009386007613
позиция 0.7474824306171917 0.000578546772923523
семья 0.2510560207021426 0.0001943158054970144
критика 0.34171708443319754 0.00026448690745603526
отношение 0.6127838567197355 0.0009485818215475781
авторскому 1.6127838567197355 0.0024965694376466495
праву 1.390935107103379 0.001076575160296733
библиография 0.2573961987331616 0.00019922306403495483
фильмы 0.7096938697277919 0.0005492986607800247
мотивам 0.4178072535036805 0.0006467604543400627
примечания 0.07287177214061759 5.640230041843467e-05
ссылки 0.09426991684184802 7.2964331920935e-05
биографияправить 0.06871581236945988 5.318561328905564e-05
родился 0.1503858588207794 0.0001163977235454949
семье 0.19227802014895654 0.00014882199701931622
дипломата 1.6127838567197355 0.0012482847188233248
владимира 0.39093510710337914 0.000605162704494395
ивановича 0.7474824306171917 0.000578546772923523
ерофеева 1.7888751157754168 0.017999517418792892
утверждению 1.089905111439398 0.0008435798076156332
самого 0.42714727975782385 0.0003306093496577584
писателя 0.15540666019583024 0.0003608513781636925
александр 0.2206733917084217 0.0006831993551344326
попов 0.9759617591325612 0.0007553883584617348
приходится 1.048512426281173 0.000811542125604623
прадедом 2.089905111439398 0.0016175736156651688
однако 0.28372513745551076 0.0002196014995785687
оно 0.584755133119492 0.00045259685225966875
находит 1.1868151244474543 0.0018371751152437374
подтверждения 1.7888751157754168 0.0027691565259681376
числе 0.31905309979725377 0.00024694512368208496
своих 0.29751342194114405 0.00023027354639407435
родственников 1.0107238653917732 0.0007822940134611248
также 0.14051510479448517 0.0002175156420967263
однажды 0.8594561900611241 0.0006652137693971549
назвал 0.6275071135404419 0.0004856866203873389
дмитрия 0.67493176346858 0.0005223930057806347
менделеева 1.6127838567197355 0.003744854156469974
которого 0.2905645619858162 0.00022489517181564723
якобы 0.9759617591325612 0.0007553883584617348
вышла 0.28372513745551076 0.0002196014995785687
замуж 0.6585413472804106 0.0005097069251396367
дочь 0.28372513745551076 0.0006588044987357061
александра 0.31175386105575426 0.00048259111618537815
степановича 1.390935107103379 0.002153150320593466
самом 0.5713911715615104 0.000442253228762779
деле 0.6919651027673603 0.0005355767049282975
жену 0.8594561900611241 0.0006652137693971549
звали 1.089905111439398 0.0008435798076156332
анна 0.49884050441289873 0.0015443978464795627
ивановна 0.7096938697277919 0.001647895982340074
попова 1.2448070714251411 0.0028904188964980057
дочерью 0.728177275421805 0.0011272094046777168
донского 1.2448070714251411 0.0009634729654993353
казака 1.2448070714251411 0.0009634729654993353
станицы 1.7888751157754168 0.0013845782629840688
урюпинской 2.089905111439398 0.0016175736156651688
младше 1.4878451201114355 0.0011515829103029688
лишь 0.38233493534146157 0.0002959248725553108
год 0.09867903574690305 0.0002291308879572052
никак 1.089905111439398 0.0008435798076156332
могла 0.8857851287834732 0.0006855922049407687
годах 0.20909151915860658 0.00016183554114443234
жил 0.2206733917084217 0.00017079983878360815
родителями 1.089905111439398 0.0008435798076156332
париже 0.7096938697277919 0.0005492986607800247
отец 0.2206733917084217 0.0003415996775672163
работал 0.21484384804769785 0.00016628780808645345
советником 1.4878451201114355 0.0011515829103029688
посольства 1.4878451201114355 0.0011515829103029688
году 0.018023104133272592 0.00011159816800787984
окончил 0.31905309979725377 0.00024694512368208496
филологический 0.9759617591325612 0.0007553883584617348
факультет 0.34171708443319754 0.00026448690745603526
мгу 0.8346326063360918 0.0006460004693003807
аспирантуру 1.089905111439398 0.0008435798076156332
института 0.5584261943971428 0.00043221841671605484
мировой 0.5101215148225878 0.0003948308938255324
литературы 0.11677725783969929 0.0003615394979557254
защитил 1.1868151244474543 0.0009185875576218687
диссертацию 1.089905111439398 0.0008435798076156332
соискание 1.048512426281173 0.000811542125604623
учёной 1.3117538610557542 0.0010152893661422248
степени 0.4086638740638107 0.0003163033080989247
кандидата 0.9759617591325612 0.0007553883584617348
филологических 1.135662602000073 0.0008789958219814807
наук 0.39970903141088426 0.00030937231533350175
тему 0.6585413472804106 0.0005097069251396367
достоевский 0.8346326063360918 0.0006460004693003807
французский 0.728177275421805 0.0005636047023388584
экзистенциализм 1.7888751157754168 0.0013845782629840688
будучи 0.5985434176051253 0.0004632688990751744
сотрудником 0.67493176346858 0.0005223930057806347
имли 1.0107238653917732 0.0007822940134611248
участвовал 0.49884050441289873 0.0003860994616198907
создании 0.8594561900611241 0.0006652137693971549
глав 0.9759617591325612 0.0007553883584617348
канадской 2.089905111439398 0.0016175736156651688
литературе 0.2905645619858162 0.00022489517181564723
академической 1.390935107103379 0.001076575160296733
многотомной 2.089905111439398 0.0016175736156651688
истории 0.2206733917084217 0.00017079983878360815
всемирной 1.135662602000073 0.0008789958219814807
утверждал 0.7676858167054786 0.0005941840686574912
выдумал 1.7888751157754168 0.0013845782629840688
свой 0.30457527642863086 0.00047147875608147195
текст 0.42714727975782385 0.001653046748288792
написав 0.811151510486569 0.0006278262465066323
слова 0.4564366558598114 0.0003532791454023308
правды 0.8594561900611241 0.0006652137693971549
известность 0.5713911715615104 0.000442253228762779
получил 0.2206733917084217 0.0003415996775672163
публикации 0.4086638740638107 0.0003163033080989247
эссе 0.5985434176051253 0.0004632688990751744
творчестве 0.3575113516164294 0.0002767115724585367
маркиза 1.7888751157754168 0.0013845782629840688
де 0.728177275421805 0.0005636047023388584
сада 1.089905111439398 0.0008435798076156332
журнале 0.17082701906332404 0.0002644381100051456
вопросы 0.4178072535036805 0.00032338022717003133
организацию 1.135662602000073 0.0008789958219814807
самиздате 1.2448070714251411 0.0009634729654993353
неподцензурного 1.7888751157754168 0.0013845782629840688
альманаха 1.1868151244474543 0.0018371751152437374
метрополь 1.2448070714251411 0.0019269459309986705
исключён 0.9759617591325612 0.0007553883584617348
союза 0.34171708443319754 0.00026448690745603526
писателей 0.1503858588207794 0.0002327954470909898
рассказу 0.7888751157754168 0.0012211689098690663
виктора 0.9138138523837167 0.004951003844184224
жизнь 0.17082701906332404 0.0007933143300154367
идиотом 2.089905111439398 0.008087868078325844
композитор 0.728177275421805 0.0005636047023388584
альфред 1.6127838567197355 0.0012482847188233248
шнитке 2.089905111439398 0.0016175736156651688
написал 0.29751342194114405 0.00023027354639407435
оперу 1.390935107103379 0.001076575160296733
премьера 0.7474824306171917 0.000578546772923523
которой 0.20909151915860658 0.00016183554114443234
состоялась 0.5336026106721107 0.00041300511661928073
амстердаме 1.7888751157754168 0.0013845782629840688
этому 0.43669259766405427 0.00033799736661304513
рогожкин 2.089905111439398 0.0016175736156651688
снял 0.9138138523837167 0.0007072862634548891
одноимённый 1.0107238653917732 0.0007822940134611248
фильм 0.2905645619858162 0.00022489517181564723
член 0.4178072535036805 0.00032338022717003133
русского 0.30457527642863086 0.0007072181341222078
пен-центра 1.4878451201114355 0.0011515829103029688
лауреат 0.46665582104149744 0.0003611887159763912
премии 0.2206733917084217 0.00017079983878360815
имени 0.20909151915860658 0.00016183554114443234
в. 0.11677725783969929 0.0001807697489778627
набокова 1.135662602000073 0.0008789958219814807
кавалер 1.0107238653917732 0.0007822940134611248
французских 0.9759617591325612 0.0007553883584617348
ордена 0.7474824306171917 0.001157093545847046
искусств 0.6127838567197355 0.00047429091077378906
почётного 1.0107238653917732 0.0007822940134611248
легиона 1.7888751157754168 0.0013845782629840688
февраля 0.13566260200007307 0.00021000402786389022
август 0.811151510486569 0.0006278262465066323
автор 0.20341438626691605 0.00015744147543878952
ведущий 1.089905111439398 0.0008435798076156332
телепрограммы 1.7888751157754168 0.0013845782629840688
апокриф 2.089905111439398 0.0032351472313303375
телеканале 1.089905111439398 0.0016871596152312665
культура 0.38233493534146157 0.0005918497451106216
программе 1.089905111439398 0.0025307394228468996
занимаемся 2.089905111439398 0.0016175736156651688
душевной 1.2448070714251411 0.0009634729654993353
стоматологией 2.089905111439398 0.0016175736156651688
разбираем 2.089905111439398 0.0016175736156651688
нашу 1.1868151244474543 0.0009185875576218687
душу 1.0107238653917732 0.0007822940134611248
лечим 2.089905111439398 0.0016175736156651688
дырки 2.089905111439398 0.0016175736156651688
возможно 0.5713911715615104 0.000442253228762779
некоторые 0.42714727975782385 0.0006612186993155168
зубы 1.6127838567197355 0.0012482847188233248
вырываем 2.089905111439398 0.0016175736156651688
боли 1.1868151244474543 0.0009185875576218687
никому 1.1868151244474543 0.0009185875576218687
причиняем 2.089905111439398 0.0016175736156651688
программа 1.0107238653917732 0.0015645880269222496
довольно 0.6585413472804106 0.0005097069251396367
редкая 1.7888751157754168 0.0013845782629840688
телевидения 1.390935107103379 0.001076575160296733
конфликтная 2.089905111439398 0.0016175736156651688
сталкивает 2.089905111439398 0.0016175736156651688
мнения 1.135662602000073 0.0008789958219814807
платоновские 2.089905111439398 0.0016175736156651688
беседы 0.8857851287834732 0.0006855922049407687
поводу 0.7474824306171917 0.000578546772923523
жизни 0.12611728409384265 0.0003904559879066336
собой 0.39970903141088426 0.00030937231533350175
представляем 2.089905111439398 0.0016175736156651688
наша 0.811151510486569 0.0006278262465066323
литературная 0.17082701906332404 0.00039665716500771834
ищем 2.089905111439398 0.0016175736156651688
ценности 1.048512426281173 0.000811542125604623
опираясь 1.4878451201114355 0.0011515829103029688
книги 0.1214221628854628 0.0007518400178666428
странно 1.135662602000073 0.0008789958219814807
несмотря 0.4086638740638107 0.0003163033080989247
сложность 1.6127838567197355 0.0012482847188233248
порой 0.94377707576116 0.0007304776128182353
нескрываемую 2.089905111439398 0.0016175736156651688
глупость 1.7888751157754168 0.0013845782629840688
передачи 1.1868151244474543 0.0018371751152437374
неё 0.5713911715615104 0.000442253228762779
возникла 1.089905111439398 0.0008435798076156332
большая 0.20909151915860658 0.00016183554114443234
аудитория 1.6127838567197355 0.0012482847188233248
нам 0.584755133119492 0.00045259685225966875
удалось 0.6127838567197355 0.00047429091077378906
сделать 0.7676858167054786 0.0005941840686574912
сложные 1.135662602000073 0.0008789958219814807
темы 0.6275071135404419 0.0009713732407746778
доходили 1.6127838567197355 0.0012482847188233248
самых 0.49884050441289873 0.0003860994616198907
неискушённых 2.089905111439398 0.0016175736156651688
людей 0.3264771178764606 0.0002526912677062389
оставались 1.3117538610557542 0.0010152893661422248
весьма 0.6427470800971787 0.0004974822601371353
искушёнными 2.089905111439398 0.0016175736156651688
журнал 0.20341438626691605 0.00031488295087757904
огонёк 0.6275071135404419 0.0014570598611620166
января 0.09426991684184802 0.00014592866384187
май 0.6919651027673603 0.0005355767049282975
вёл 0.584755133119492 0.00045259685225966875
передачу 1.7888751157754168 0.0013845782629840688
энциклопедия 0.20909151915860658 0.0011328487880110263
русской 0.16562582537751624 0.0008973535430670385
души 0.67493176346858 0.002611965028903173
радио 0.5101215148225878 0.001184492681476597
свобода 0.5713911715615104 0.000884506457525558
принял 0.4564366558598114 0.0007065582908046616
участие 0.34171708443319754 0.0005289738149120705
реалити-шоу 2.089905111439398 0.0016175736156651688
последний 0.0 0.0
герой 0.5101215148225878 0.001184492681476597
отказавшись 1.3117538610557542 0.0010152893661422248
прыгать 2.089905111439398 0.0016175736156651688
море 0.8346326063360918 0.0006460004693003807
борта 1.7888751157754168 0.0013845782629840688
судна 1.7888751157754168 0.0013845782629840688
первый 0.1814200925607482 0.00014041802829779275
день 0.28372513745551076 0.0004392029991571374
выбыл 1.7888751157754168 0.0013845782629840688
вместе 0.2573961987331616 0.0007968922561398193
никитой 1.390935107103379 0.001076575160296733
джигурдой 2.089905111439398 0.0016175736156651688
скандалом 2.089905111439398 0.0016175736156651688
январе 0.48784512011143555 0.0003775891022534331
дилетанты 2.089905111439398 0.0016175736156651688
дождь 1.048512426281173 0.001623084251209246
посвящённой 1.048512426281173 0.000811542125604623
блокаде 1.4878451201114355 0.0011515829103029688
ленинграда 1.0107238653917732 0.0007822940134611248
ведущие 1.4878451201114355 0.0011515829103029688
обсуждали 1.4878451201114355 0.0011515829103029688
вопрос 0.5584261943971428 0.0008644368334321097
уменьшить 2.089905111439398 0.0016175736156651688
количество 0.8346326063360918 0.0006460004693003807
жертв 1.390935107103379 0.001076575160296733
спасти 1.089905111439398 0.0008435798076156332
сотни 1.1868151244474543 0.0009185875576218687
тысяч 0.7888751157754168 0.0006105844549345331
человек 0.2703611758975292 0.00020925787608167898
сдав 1.2448070714251411 0.0009634729654993353
город 0.39970903141088426 0.00030937231533350175
наседавшему 2.089905111439398 0.0016175736156651688
врагу 1.7888751157754168 0.0013845782629840688
неаккуратно 2.089905111439398 0.0016175736156651688
сформулированный 2.089905111439398 0.0016175736156651688
вырванный 2.089905111439398 0.0016175736156651688
контекста 1.7888751157754168 0.0013845782629840688
сразу 0.5101215148225878 0.0007896617876510648
сделало 1.4878451201114355 0.0011515829103029688
провокационным 2.089905111439398 0.0016175736156651688
разговор 0.9138138523837167 0.0007072862634548891
ведущих 1.089905111439398 0.0008435798076156332
многим 1.135662602000073 0.0008789958219814807
показался 1.7888751157754168 0.0013845782629840688
оскорбительным 1.7888751157754168 0.0013845782629840688
кощунственным 2.089905111439398 0.0016175736156651688
позицияправить 1.1868151244474543 0.0009185875576218687
среди 0.30457527642863086 0.00023573937804073598
деятелей 0.584755133119492 0.0013577905567790061
культуры 0.31905309979725377 0.0007408353710462548
науки 0.521703387372403 0.0008075903829294164
призвавших 1.7888751157754168 0.0013845782629840688
российские 0.9138138523837167 0.0007072862634548891
власти 0.46665582104149744 0.0007223774319527824
остановить 1.2448070714251411 0.0019269459309986705
войну 0.6919651027673603 0.00214230681971319
чечне 1.390935107103379 0.002153150320593466
перейти 1.2448070714251411 0.0009634729654993353
переговорному 1.7888751157754168 0.0013845782629840688
процессу 1.4878451201114355 0.0011515829103029688
марте 0.4564366558598114 0.0007065582908046616
рядом 0.4464524349532105 0.0006911028404848461
выразил 0.8594561900611241 0.0006652137693971549
своё 0.3739017678045988 0.0002893976530995347
несогласие 1.1868151244474543 0.0009185875576218687
политикой 1.089905111439398 0.0016871596152312665
российской 0.23257261500812945 0.0001800097639381807
крыму 0.8346326063360918 0.0012920009386007613
семьяправить 0.5985434176051253 0.0004632688990751744
владимир 0.3264771178764606 0.0010107650708249555
иванович 0.6585413472804106 0.0005097069251396367
советский 0.29751342194114405 0.0004605470927881487
дипломат 1.4878451201114355 0.0011515829103029688
чечурина 2.089905111439398 0.0016175736156651688
галина 1.048512426281173 0.000811542125604623
николаевна 0.7676858167054786 0.0005941840686574912
мать 0.23864676272032262 0.00018471111665659647
переводчица 1.089905111439398 0.0008435798076156332
андрей 0.43669259766405427 0.00033799736661304513
брат 0.46665582104149744 0.0003611887159763912
российский 0.584755133119492 0.00045259685225966875
искусствовед 1.6127838567197355 0.0012482847188233248
куратор 2.089905111439398 0.0016175736156651688
выставок 1.6127838567197355 0.0012482847188233248
первая 0.21484384804769785 0.00016628780808645345
супруга 0.94377707576116 0.0014609552256364706
веслава 2.089905111439398 0.0016175736156651688
скура 2.089905111439398 0.0016175736156651688
польский 1.0107238653917732 0.0007822940134611248
дизайнер 1.7888751157754168 0.0013845782629840688
художник 0.5584261943971428 0.00043221841671605484
книжной 0.94377707576116 0.0007304776128182353
графики 1.7888751157754168 0.0013845782629840688
олег 0.6919651027673603 0.0005355767049282975
викторович 1.390935107103379 0.001076575160296733
сын 0.27699175479654237 0.00021438990309329906
майя 1.135662602000073 0.0008789958219814807
викторовна 1.6127838567197355 0.0012482847188233248
гражданской 0.6585413472804106 0.0005097069251396367
супруги 0.9138138523837167 0.0007072862634548891
евгении 1.2448070714251411 0.0009634729654993353
вадимовны 2.089905111439398 0.0016175736156651688
прокопюк 2.089905111439398 0.0016175736156651688
вторая 0.4178072535036805 0.00032338022717003133
екатерина 0.5985434176051253 0.0004632688990751744
владиславовна 1.7888751157754168 0.0013845782629840688
ноября 0.2206733917084217 0.0010247990327016487
марианнакритикаправить 2.089905111439398 0.0016175736156651688
проверить 1.390935107103379 0.002153150320593466
нейтральность.на 1.7888751157754168 0.0013845782629840688
странице 1.0107238653917732 0.0007822940134611248
обсуждения 0.9759617591325612 0.0007553883584617348
должны 0.8857851287834732 0.0006855922049407687
подробности.в 2.089905111439398 0.0016175736156651688
группа 1.089905111439398 0.0008435798076156332
граждан 1.3117538610557542 0.0010152893661422248
поддержанных 2.089905111439398 0.0016175736156651688
затем 0.2206733917084217 0.00017079983878360815
движением 1.6127838567197355 0.0012482847188233248
против 0.34954242194515406 0.0013527183511809367
нелегальной 1.7888751157754168 0.0013845782629840688
иммиграции 2.089905111439398 0.0016175736156651688
обратилась 1.4878451201114355 0.0011515829103029688
прокуратуру 2.089905111439398 0.0016175736156651688
просьбой 0.811151510486569 0.0006278262465066323
наличие 1.048512426281173 0.000811542125604623
нём 0.4178072535036805 0.00032338022717003133
элементов 1.390935107103379 0.001076575160296733
экстремизма 2.089905111439398 0.0016175736156651688
разжигания 2.089905111439398 0.0016175736156651688
национальной 0.8857851287834732 0.0006855922049407687
розни 2.089905111439398 0.0016175736156651688
заявлении 1.6127838567197355 0.0012482847188233248
процитированы 2.089905111439398 0.0016175736156651688
фрагменты 0.9138138523837167 0.0007072862634548891
являющиеся 1.7888751157754168 0.0013845782629840688
мнению 0.48784512011143555 0.0003775891022534331
подавших 2.089905111439398 0.0016175736156651688
заявление 0.0 0.0
русофобскими 2.089905111439398 0.0016175736156651688
частности 0.49884050441289873 0.0003860994616198907
русских 0.3739017678045988 0.0008681929592986039
бить 1.6127838567197355 0.0012482847188233248
палкой 1.7888751157754168 0.0013845782629840688
расстреливать 2.089905111439398 0.0016175736156651688
размазывать 2.089905111439398 0.0016175736156651688
стене 1.135662602000073 0.0008789958219814807
иначе 0.7888751157754168 0.0006105844549345331
перестанут 2.089905111439398 0.0016175736156651688
русскими.русские 2.089905111439398 0.0016175736156651688
позорная 2.089905111439398 0.0016175736156651688
нация 2.089905111439398 0.0016175736156651688
лидер 1.390935107103379 0.001076575160296733
дпни 2.089905111439398 0.0032351472313303375
белов 1.7888751157754168 0.0027691565259681376
одобрив 2.089905111439398 0.0016175736156651688
инициативу 1.7888751157754168 0.0013845782629840688
соратников 1.3117538610557542 0.0010152893661422248
отметил 0.8857851287834732 0.0006855922049407687
нужно 0.5985434176051253 0.0004632688990751744
учиться 1.048512426281173 0.000811542125604623
евреев 1.2448070714251411 0.0019269459309986705
малых 1.3117538610557542 0.0010152893661422248
народов 0.5336026106721107 0.00041300511661928073
защищать 1.6127838567197355 0.0012482847188233248
свои 0.29751342194114405 0.0004605470927881487
права 0.5985434176051253 0.0013898066972255231
заявил 0.8346326063360918 0.0012920009386007613
следует 0.6427470800971787 0.0004974822601371353
трактовать 2.089905111439398 0.0032351472313303375
позицию 1.048512426281173 0.001623084251209246
обыкновенное 1.7888751157754168 0.0013845782629840688
недоразумение 1.390935107103379 0.001076575160296733
филологическая 1.6127838567197355 0.0012482847188233248
ошибка 1.048512426281173 0.000811542125604623
перепутаны 2.089905111439398 0.0016175736156651688
позиции 0.7888751157754168 0.0012211689098690663
персонажа 1.135662602000073 0.0008789958219814807
моей 0.5584261943971428 0.00043221841671605484
книге 0.39970903141088426 0.00030937231533350175
описаны 1.4878451201114355 0.0011515829103029688
похождения 1.135662602000073 0.0008789958219814807
интеллигента 1.6127838567197355 0.0012482847188233248
который 0.2206733917084217 0.00017079983878360815
сходит 1.6127838567197355 0.0012482847188233248
ума 0.8346326063360918 0.0006460004693003807
начинает 0.8594561900611241 0.0006652137693971549
поносить 2.089905111439398 0.0016175736156651688
власть 0.7096938697277919 0.0005492986607800247
наш 0.5584261943971428 0.00043221841671605484
народ 0.7096938697277919 0.0005492986607800247
запад 1.048512426281173 0.000811542125604623
восток 1.0107238653917732 0.0007822940134611248
сорокин 1.4878451201114355 0.003454748730908906
горячо 1.2448070714251411 0.0009634729654993353
выступил 0.6275071135404419 0.0004856866203873389
защиту 0.7474824306171917 0.000578546772923523
кроме 0.43669259766405427 0.00033799736661304513
говорил 0.48784512011143555 0.0003775891022534331
плохо 0.7888751157754168 0.0012211689098690663
представляет 0.6585413472804106 0.0005097069251396367
такое 0.6275071135404419 0.0009713732407746778
русофобия 2.089905111439398 0.0016175736156651688
правуправить 2.089905111439398 0.0016175736156651688
декабре 0.5458370670891223 0.0004224745101308996
подписал 0.7676858167054786 0.0005941840686574912
открытое 1.089905111439398 0.0008435798076156332
письмо 0.38233493534146157 0.0005918497451106216
президенту 1.3117538610557542 0.0020305787322844496
россии 0.11677725783969929 0.0006326941214225194
дмитрию 1.390935107103379 0.001076575160296733
медведеву 2.089905111439398 0.0016175736156651688
призывом 1.7888751157754168 0.0013845782629840688
допустить 1.3117538610557542 0.0010152893661422248
принятия 1.390935107103379 0.001076575160296733
поправок 1.7888751157754168 0.0027691565259681376
часть 0.31905309979725377 0.00024694512368208496
гражданского 1.3117538610557542 0.0010152893661422248
кодекса 1.4878451201114355 0.0011515829103029688
предусматривающих 2.089905111439398 0.0016175736156651688
библиотек 0.9759617591325612 0.0007553883584617348
образовательных 1.6127838567197355 0.0012482847188233248
учреждений 1.6127838567197355 0.0012482847188233248
возможность 0.6275071135404419 0.0009713732407746778
оцифровки 2.089905111439398 0.0016175736156651688
книг 0.31905309979725377 0.00024694512368208496
согласования 1.7888751157754168 0.0013845782629840688
правообладателями 2.089905111439398 0.0016175736156651688
бесплатного 2.089905111439398 0.0016175736156651688
межбиблиотечного 2.089905111439398 0.0016175736156651688
обмена 1.7888751157754168 0.0013845782629840688
полученными 2.089905111439398 0.0016175736156651688
цифровыми 2.089905111439398 0.0016175736156651688
копиями 2.089905111439398 0.0016175736156651688
авторы 0.8857851287834732 0.0006855922049407687
письма 0.42714727975782385 0.0003306093496577584
считают 1.048512426281173 0.000811542125604623
целом 0.6585413472804106 0.0005097069251396367
прогрессивных 1.7888751157754168 0.0013845782629840688
развития 0.6919651027673603 0.0005355767049282975
авторского 1.3117538610557542 0.0010152893661422248
своей 0.2510560207021426 0.0001943158054970144
неточностью 2.089905111439398 0.0016175736156651688
размытостью 2.089905111439398 0.0016175736156651688
формулировок 2.089905111439398 0.0016175736156651688
дают 1.390935107103379 0.001076575160296733
лазейки 2.089905111439398 0.0016175736156651688
пиратам 2.089905111439398 0.0016175736156651688
перечёркивают 2.089905111439398 0.0016175736156651688
само 0.9138138523837167 0.0007072862634548891
понятие 1.089905111439398 0.0008435798076156332
рынка 1.6127838567197355 0.0012482847188233248
электронной 1.089905111439398 0.0008435798076156332
открывают 1.7888751157754168 0.0013845782629840688
практически 0.5985434176051253 0.0004632688990751744
неограниченный 1.7888751157754168 0.0013845782629840688
простор 1.6127838567197355 0.0012482847188233248
пиратства 2.089905111439398 0.0016175736156651688
произведенияправить 0.67493176346858 0.0005223930057806347
ядрёна 2.089905111439398 0.0016175736156651688
феня 2.089905111439398 0.0016175736156651688
составе 0.7096938697277919 0.0005492986607800247
русская 0.17609125905568124 0.000954054809125208
красавица 1.2448070714251411 0.007707783723994682
мужчины 1.2448070714251411 0.0019269459309986705
русские 0.39093510710337914 0.0003025813522471975
цветы 1.089905111439398 0.0008435798076156332
зла 1.135662602000073 0.0008789958219814807
составитель 0.8857851287834732 0.0006855922049407687
антологии 1.0107238653917732 0.0007822940134611248
пять 0.5713911715615104 0.000442253228762779
рек 1.7888751157754168 0.0013845782629840688
бог 0.7888751157754168 0.0012211689098690663
рассказы 0.18681512444745438 0.00014459374957233312
любви 0.5101215148225878 0.0007896617876510648
лабиринт 1.7888751157754168 0.0013845782629840688
пупок 2.089905111439398 0.0032351472313303375
роскошь 1.6127838567197355 0.0012482847188233248
человеке 0.7676858167054786 0.0005941840686574912
человека 0.31905309979725377 0.00024694512368208496
хороший 0.94377707576116 0.0007304776128182353
сталин 0.8857851287834732 0.0006855922049407687
шаровая 1.7888751157754168 0.0013845782629840688
молния 1.7888751157754168 0.0013845782629840688
апокалипсис 2.089905111439398 0.004852720846995506
опыт 0.6919651027673603 0.0005355767049282975
художественной 0.5713911715615104 0.000442253228762779
эсхатологии 2.089905111439398 0.0016175736156651688
свет 0.39093510710337914 0.000605162704494395
дьявола 1.6127838567197355 0.0024965694376466495
география 1.390935107103379 0.001076575160296733
смысла 1.089905111439398 0.0008435798076156332
акимуды 2.089905111439398 0.0032351472313303375
розовая 2.089905111439398 0.0016175736156651688
мышь 1.6127838567197355 0.0012482847188233248
тело 0.8346326063360918 0.0012920009386007613
анны 0.7676858167054786 0.0005941840686574912
конец 0.521703387372403 0.0004037951914647082
авангарда 1.6127838567197355 0.0012482847188233248
м. 0.06459924617462771 0.0006499924150697835
московский 0.39970903141088426 0.00030937231533350175
рабочий 0.7096938697277919 0.0005492986607800247
с. 0.11218150615055017 0.0005209667468291803
экз 0.21484384804769785 0.0018291658889509877
лабиринте 2.089905111439398 0.0032351472313303375
проклятых 1.7888751157754168 0.0027691565259681376
вопросов 0.94377707576116 0.0014609552256364706
сп 0.9759617591325612 0.0015107767169234695
интербук 2.089905111439398 0.0032351472313303375
попугайчик 2.089905111439398 0.0016175736156651688
роман 0.1814200925607482 0.0002808360565955855
а/о 2.089905111439398 0.0032351472313303375
политекст 2.089905111439398 0.0016175736156651688
серебряная 1.2448070714251411 0.0009634729654993353
подкова 1.6127838567197355 0.004993138875293299
ставрополь 1.7888751157754168 0.0013845782629840688
избранное 0.94377707576116 0.0007304776128182353
карманный 2.089905111439398 0.0016175736156651688
третья 0.5336026106721107 0.00041300511661928073
волна 1.1868151244474543 0.0009185875576218687
м.-тверь,1994 2.089905111439398 0.0016175736156651688
тверь 0.9759617591325612 0.0015107767169234695
страшный 1.4878451201114355 0.0011515829103029688
суд 0.7676858167054786 0.0005941840686574912
души.- 2.089905111439398 0.0016175736156651688
зебра 1.6127838567197355 0.007489708312939948
избранные 0.5985434176051253 0.0004632688990751744
рипол 1.4878451201114355 0.0011515829103029688
арт 1.6127838567197355 0.0012482847188233248
ком 1.1868151244474543 0.0009185875576218687
медиа 1.390935107103379 0.001076575160296733
война 0.6427470800971787 0.0014924467804114058
имидж 1.7888751157754168 0.0027691565259681376
проиграла 1.7888751157754168 0.0013845782629840688
вторую 0.8594561900611241 0.0006652137693971549
мировую 0.811151510486569 0.0006278262465066323
длинная 2.089905111439398 0.0016175736156651688
немецкая 1.089905111439398 0.0008435798076156332
версия 0.0 0.0
последняя 0.6919651027673603 0.0005355767049282975
надежда 1.048512426281173 0.000811542125604623
английском 0.94377707576116 0.0007304776128182353
языке 0.5336026106721107 0.00041300511661928073
похвала 2.089905111439398 0.0016175736156651688
сталину 0.9759617591325612 0.0007553883584617348
июля 0.20341438626691605 0.00047232442631636853
года.фильмы 2.089905111439398 0.0016175736156651688
произведенийправить 0.9759617591325612 0.0007553883584617348
примечанияправить 0.31905309979725377 0.00024694512368208496
англ 0.3739017678045988 0.0002893976530995347
брокгауз 0.5458370670891223 0.0004224745101308996
нем 0.6585413472804106 0.0005097069251396367
архив 0.48784512011143555 0.0003775891022534331
изобразительного 1.048512426281173 0.000811542125604623
искусства 0.4086638740638107 0.0003163033080989247
игорь 0.7096938697277919 0.0005492986607800247
панин 1.390935107103379 0.001076575160296733
русофоб 2.089905111439398 0.0032351472313303375
газета 0.23257261500812945 0.0010800585836290841
балуева 1.7888751157754168 0.0013845782629840688
министр 1.048512426281173 0.000811542125604623
лавров 1.1868151244474543 0.0009185875576218687
прочтя 2.089905111439398 0.0016175736156651688
мамину 2.089905111439398 0.0016175736156651688
миде 2.089905111439398 0.0016175736156651688
сказал 0.49884050441289873 0.0003860994616198907
министру 1.4878451201114355 0.0011515829103029688
авдееву 2.089905111439398 0.0016175736156651688
давай 1.4878451201114355 0.0011515829103029688
жить 0.5584261943971428 0.00043221841671605484
такого 0.8346326063360918 0.0006460004693003807
написали 1.4878451201114355 0.0011515829103029688
комсомольская 0.7676858167054786 0.0005941840686574912
правда 0.31175386105575426 0.00024129555809268907
июня 0.20341438626691605 0.00015744147543878952
потомок 1.390935107103379 0.001076575160296733
лейтенанта 1.4878451201114355 0.0011515829103029688
шмидта 1.4878451201114355 0.0011515829103029688
неопр. 0.1454224392892293 0.0007878924729292609
живой 0.8346326063360918 0.0006460004693003807
фамильное 2.089905111439398 0.0016175736156651688
дерево 1.089905111439398 0.0008435798076156332
поповых 2.089905111439398 0.0016175736156651688
сайт 0.34171708443319754 0.0005289738149120705
надежды 0.94377707576116 0.0007304776128182353
андреевой 1.6127838567197355 0.0012482847188233248
прямой 1.3117538610557542 0.0010152893661422248
правнучки 1.7888751157754168 0.0013845782629840688
а. 0.04851242628117289 3.7548317555087376e-05
менделеев 2.089905111439398 0.0016175736156651688
орехов 2.089905111439398 0.0016175736156651688
б. 0.2510560207021426 0.0001943158054970144
башк 1.7888751157754168 0.0013845782629840688
рус 0.3656292418386089 0.00028299476922492953
недостоверность 1.7888751157754168 0.0013845782629840688
мистификации 2.089905111439398 0.0016175736156651688
придумал 1.048512426281173 0.000811542125604623
канадскую 2.089905111439398 0.0016175736156651688
литературу 0.6127838567197355 0.00047429091077378906
могут 0.6427470800971787 0.0004974822601371353
тексты 0.3575113516164294 0.0002767115724585367
лгать 1.7888751157754168 0.0013845782629840688
проблеме 1.390935107103379 0.001076575160296733
работы 0.34171708443319754 0.00026448690745603526
недостоверными 2.089905111439398 0.0016175736156651688
источниками 1.1868151244474543 0.0009185875576218687
материалы 0.39970903141088426 0.00030937231533350175
четвертых 2.089905111439398 0.0016175736156651688
лотмановских 2.089905111439398 0.0016175736156651688
дней 0.3656292418386089 0.00028299476922492953
таллиннском 2.089905111439398 0.0016175736156651688
университете 0.47712125471966244 0.000369288896841844
таллинн 1.7888751157754168 0.0013845782629840688
главную 1.048512426281173 0.000811542125604623
французскую 1.390935107103379 0.001076575160296733
награду 1.390935107103379 0.001076575160296733
удался 2.089905111439398 0.0016175736156651688
независимая 0.7888751157754168 0.0012211689098690663
джигурда 2.089905111439398 0.0016175736156651688
демонстративно 1.6127838567197355 0.0012482847188233248
покинули 1.3117538610557542 0.0010152893661422248
шоу 1.4878451201114355 0.0011515829103029688
известия 0.5584261943971428 0.0008644368334321097
обращения 0.1503858588207794 0.0005819886177274745
декабря 0.17082701906332404 0.00039665716500771834
теленеделя 2.089905111439398 0.0016175736156651688
будем 1.390935107103379 0.001076575160296733
кошмарить 2.089905111439398 0.0016175736156651688
запугивать 2.089905111439398 0.0016175736156651688
минувшей 2.089905111439398 0.0016175736156651688
неделе 1.6127838567197355 0.0012482847188233248
сошлись 1.390935107103379 0.001076575160296733
несколько 0.22658225131894205 0.00017537325953478487
событий 0.6919651027673603 0.0005355767049282975
мирового 1.135662602000073 0.0008789958219814807
значения 0.49884050441289873 0.0003860994616198907
праздников 1.6127838567197355 0.0012482847188233248
памятных 1.390935107103379 0.001076575160296733
дат 1.3117538610557542 0.0010152893661422248
мастера 1.135662602000073 0.0008789958219814807
российского 0.5584261943971428 0.00043221841671605484
тв 1.089905111439398 0.0016871596152312665
встретили 1.390935107103379 0.001076575160296733
привычной 1.7888751157754168 0.0013845782629840688
избирательностью 2.089905111439398 0.0016175736156651688
широтой 1.7888751157754168 0.0013845782629840688
размаха 2.089905111439398 0.0016175736156651688
свободная 1.1868151244474543 0.0009185875576218687
пресса 1.3117538610557542 0.0010152893661422248
объяснил 1.3117538610557542 0.0010152893661422248
конфликт 0.9759617591325612 0.0007553883584617348
кабельщиками 2.089905111439398 0.0016175736156651688
интернет 1.7888751157754168 0.0013845782629840688
сми 0.9138138523837167 0.0014145725269097782
публикуют 1.7888751157754168 0.0013845782629840688
призыв 1.089905111439398 0.0008435798076156332
интеллигенции 0.8346326063360918 0.0012920009386007613
расцвет 1.0107238653917732 0.0007822940134611248
российских 0.8857851287834732 0.0006855922049407687
остановим 1.7888751157754168 0.0013845782629840688
чеченскую 1.7888751157754168 0.0013845782629840688
неопр 0.29751342194114405 0.00023027354639407435
недоступная 0.27699175479654237 0.00021438990309329906
ссылка 0.2703611758975292 0.00020925787608167898
новая 0.4086638740638107 0.0006326066161978494
марта 0.1814200925607482 0.0008425081697867563
апреля 0.18681512444745438 0.00014459374957233312
архивировано 0.2448070714251411 0.0007579166297991985
обращение 0.67493176346858 0.0005223930057806347
инициативной 1.2448070714251411 0.0009634729654993353
группы 0.6275071135404419 0.0004856866203873389
проведению 1.089905111439398 0.0008435798076156332
конгресса 1.089905111439398 0.0008435798076156332
войны 0.23257261500812945 0.0001800097639381807
самоизоляции 1.2448070714251411 0.0009634729654993353
реставрации 1.089905111439398 0.0008435798076156332
тоталитаризма 1.089905111439398 0.0008435798076156332
поддержку 0.7676858167054786 0.0005941840686574912
путина 1.048512426281173 0.000811542125604623
украине 0.7676858167054786 0.0005941840686574912
заявления 1.6127838567197355 0.0012482847188233248
хочет 1.0107238653917732 0.0007822940134611248
научиться 2.089905111439398 0.0016175736156651688
бороться 1.4878451201114355 0.0011515829103029688
архивная 0.4564366558598114 0.0007065582908046616
копия 0.4178072535036805 0.0006467604543400627
будут 0.6919651027673603 0.0005355767049282975
судить 1.089905111439398 0.0008435798076156332
русофобию 2.089905111439398 0.0032351472313303375
демарш 1.6127838567197355 0.0012482847188233248
священнослужители 1.7888751157754168 0.0013845782629840688
запретах 2.089905111439398 0.0016175736156651688
портал-credo.ru 1.7888751157754168 0.0013845782629840688
обвинили 1.390935107103379 0.001076575160296733
русофобии 2.089905111439398 0.0016175736156651688
мое 1.1868151244474543 0.0009185875576218687
мою 1.089905111439398 0.0008435798076156332
опричника 1.7888751157754168 0.0013845782629840688
чехии 1.7888751157754168 0.0013845782629840688
словакии 1.7888751157754168 0.0013845782629840688
гости 1.0107238653917732 0.0007822940134611248
томаш 1.7888751157754168 0.0013845782629840688
гланц 2.089905111439398 0.0016175736156651688
нелицеприятное 2.089905111439398 0.0016175736156651688
объяснение 1.4878451201114355 0.0011515829103029688
душе 0.8594561900611241 0.0006652137693971549
разглядеть 2.089905111439398 0.0016175736156651688
вообще 0.6585413472804106 0.0005097069251396367
представляю 1.4878451201114355 0.0011515829103029688
значит 0.9138138523837167 0.0007072862634548891
русофобом 2.089905111439398 0.0016175736156651688
живёшь 2.089905111439398 0.0016175736156651688
работаешь 2.089905111439398 0.0016175736156651688
имеешь 2.089905111439398 0.0016175736156651688
уехать 1.0107238653917732 0.0007822940134611248
отсюда 0.8857851287834732 0.0006855922049407687
проклясть 2.089905111439398 0.0016175736156651688
страну 0.8594561900611241 0.0006652137693971549
понаписать 2.089905111439398 0.0016175736156651688
всякого 0.9759617591325612 0.0007553883584617348
забыть 1.135662602000073 0.0008789958219814807
видите 1.4878451201114355 0.0011515829103029688
сижу 1.6127838567197355 0.0012482847188233248
вами 1.2448070714251411 0.0009634729654993353
разговариваю 2.089905111439398 0.0016175736156651688
такие 0.5713911715615104 0.000442253228762779
никуда 1.3117538610557542 0.0010152893661422248
собираюсь 1.7888751157754168 0.0013845782629840688
писатели 0.3264771178764606 0.0002526912677062389
литераторы 1.135662602000073 0.0008789958219814807
обратились 1.7888751157754168 0.0013845782629840688
рф 0.728177275421805 0.0005636047023388584
англ. 0.9138138523837167 0.0014145725269097782
августа 0.17609125905568124 0.000272587088321488
ссылкиправить 0.4086638740638107 0.0003163033080989247
официальный 0.5584261943971428 0.00043221841671605484
библиотеке 0.3656292418386089 0.00028299476922492953
максима 0.584755133119492 0.00045259685225966875
мошкова 0.6919651027673603 0.0005355767049282975
колонка 1.6127838567197355 0.0012482847188233248
интервью 0.3739017678045988 0.0008681929592986039
журнала 0.20909151915860658 0.00016183554114443234
видео 1.0107238653917732 0.0007822940134611248
сайте 0.1978105087489175 0.0003062082178775813
канала 1.2448070714251411 0.0009634729654993353
люди 0.38233493534146157 0.0002959248725553108
ценностей 1.2448070714251411 0.0009634729654993353
г. 0.1214221628854628 9.398000223333035e-05
ерофееве 2.089905111439398 0.0016175736156651688
личности 0.584755133119492 0.00045259685225966875
пишу 0.9759617591325612 0.0007553883584617348
невнятного 2.089905111439398 0.0016175736156651688
жанра 0.94377707576116 0.0007304776128182353
итар-тасс 1.4878451201114355 0.0011515829103029688
согласился 0.9759617591325612 0.0007553883584617348
ходорковским 1.7888751157754168 0.0013845782629840688
вопросу 1.089905111439398 0.0008435798076156332
крыма 0.9759617591325612 0.0007553883584617348
радиоинтервью 2.089905111439398 0.0016175736156651688
новой 0.4464524349532105 0.00034555142024242304
газете 0.31905309979725377 0.00024694512368208496
источник 0.0 0.0
редактировалась 0.029207271085786267 2.2606246970422808e-05
эта 0.0 0.0
страница 0.0 0.0
отредактирована 0.0 0.0
доступно 0.0 0.0
лицензии 0.0 0.0
указано 0.0 0.0
иное 0.0 0.0
политика 0.0 0.0
конфиденциальности 0.0 0.0
свяжитесь 0.0 0.0
нами 0.0 0.0
условия 0.0 0.0
использования 0.0 0.0
настольная 0.0 0.0
разработчики 0.0 0.0
статистика 0.0 0.0
куки 0.0 0.0
