гончаров 1.048512426281173 0.027016884603563964
иван 0.49884050441289873 0.0022952783945378776
александрович 0.8346326063360918 0.0033282895344690783
википедия 0.0 0.0
открыть 0.0 0.0
главное 0.0 0.0
меню 0.0 0.0
главная 0.0 0.0
случайная 0.0 0.0
поблизости 0.0 0.0
войти 0.0 0.0
пожертвовать 0.0 0.0
описание 0.0 0.0
википедии 0.0 0.0
отказ 0.0 0.0
ответственности 0.0 0.0
найти 0.0 0.0
язык 0.0 0.0
следить 0.0 0.0
править 0.0 0.0
статьи 0.04851242628117289 1.4881112356188003e-05
других 0.04068708876921636 2.4961404152893474e-05
людях 0.10313337717315306 6.327201053567673e-05
фамилией 0.18681512444745438 0.0001146105057959843
см 0.18681512444745438 5.730525289799215e-05
ива́н 1.4878451201114355 0.00045639420862313975
алекса́ндрович 1.3117538610557542 0.0004023784849864277
гончаро́в 2.089905111439398 0.0006410751875580976
июня 0.20341438626691605 0.00018719115300636446
симбирск 2.089905111439398 0.003205375937790488
российская 0.12611728409384265 0.00023211770078621348
империя 0.2703611758975292 0.00041466438021093443
сентября 0.15540666019583024 0.0002383537733064881
санкт-петербург 0.39093510710337914 0.0008394312115716731
русский 0.007119741122947827 6.551909008847693e-06
писатель 0.08990511143939793 0.00013789127521380052
литературный 0.29751342194114405 0.00027378535761454976
критик 0.521703387372403 0.00032006342783583007
член-корреспондент 1.4878451201114355 0.00045639420862313975
петербургской 0.811151510486569 0.00024881948174434635
академии 0.42714727975782385 0.00013102677293184783
наук 0.39970903141088426 0.00012261013233462708
разряду 1.089905111439398 0.00033432672130042886
русского 0.30457527642863086 0.000373711995617952
языка 0.4564366558598114 0.00014001124412877652
словесности 0.6127838567197355 0.0003759410163924758
действительный 1.1868151244474543 0.00036405371915566084
статский 1.1868151244474543 0.00036405371915566084
советник 0.9759617591325612 0.00029937477274004945
портрет 0.521703387372403 0.00048009514175374507
и. 0.14051510479448517 0.0028016815373133547
а. 0.04851242628117289 0.001026796752576972
гончарова 1.4878451201114355 0.021906922013910708
работы 0.34171708443319754 0.00041928476617570255
н. 0.11218150615055017 0.00034411504954156495
крамского 1.390935107103379 0.0004266672107679077
дата 0.014358150046867215 2.202170252586996e-05
рождения 0.014358150046867215 3.083038353621795e-05
место 0.021719249693236305 1.9987039595002736e-05
смерти 0.0770678867342257 4.7280912106886935e-05
гражданство 0.025447122212479436 7.80586570934952e-06
подданство 0.20909151915860658 6.413850280938853e-05
род 0.007119741122947827 2.183969669615898e-06
деятельности 0.010723865391773066 6.5790585225601636e-06
прозаик 0.2510560207021426 7.701104929513578e-05
публицист 0.5713911715615104 0.0001752733655096658
годы 0.11218150615055017 0.00024088053467909547
творчества 0.1604861857251052 0.0002953733479603163
направление 0.3575113516164294 0.00010966605877804583
реализм 0.6127838567197355 0.0001879705081962379
натуральная 1.4878451201114355 0.00045639420862313975
школа 0.521703387372403 0.00016003171391791503
жанр 0.2448070714251411 7.509419368869359e-05
роман 0.1814200925607482 0.0007791046919786733
очерк 0.4564366558598114 0.0005600449765151061
статья 0.33403025576690654 0.00010246326864015538
произведений 0.021719249693236305 2.6649386126670316e-05
награды 0.2448070714251411 7.509419368869359e-05
автограф 0.47712125471966244 0.00014635621310419094
произведения 0.09867903574690305 0.00012107857146859271
сайте 0.1978105087489175 0.00012135614033675922
викитеке 0.3656292418386089 0.00022431241830589505
медиафайлы 0.1503858588207794 9.226126308023277e-05
викискладе 0.18681512444745438 0.0001146105057959843
цитаты 0.27699175479654237 0.00016993359189971925
викицитатнике 0.2905645619858162 0.00017826046747596087
содержание 0.0 0.0
биография 0.0770678867342257 4.7280912106886935e-05
образование 0.584755133119492 0.0005381182206621092
жизнь 0.17082701906332404 0.0005764101870234861
университета 0.23864676272032262 0.0004392271706509005
начало 0.48784512011143555 0.0004489372270964131
путешествие 0.6919651027673603 0.0006367777019331537
фрегате 2.089905111439398 0.0012821503751161952
паллада 2.089905111439398 0.003205375937790488
служба 0.9759617591325612 0.0011974990909601978
качестве 0.42714727975782385 0.0006551338646592391
цензора 1.6127838567197355 0.0014841569233617197
расцвет 1.0107238653917732 0.0006200759910378977
последние 0.30457527642863086 0.000186855997808976
жизни 0.12611728409384265 0.0005416079685011648
ивана 0.5584261943971428 0.0010277782718965819
память 0.27699175479654237 8.496679594985962e-05
адреса 0.5985434176051253 0.000367204550677991
санкт-петербурге 0.48784512011143555 0.00014964574236547102
первые 0.3575113516164294 0.00010966605877804583
публикации 0.4086638740638107 0.00025071403316798206
важнейших 1.1868151244474543 0.0007281074383113217
издания 0.43669259766405427 0.00013395478455952587
примечания 0.07287177214061759 2.235330433761276e-05
литература 0.1214221628854628 0.0001862303111740227
ссылки 0.09426991684184802 5.783430481094971e-05
биографияправить 0.06871581236945988 2.107847005198156e-05
дом 0.22658225131894205 0.0004865263065130658
гончаровых 2.089905111439398 0.0012821503751161952
отец 0.2206733917084217 0.00020307367335130832
александр 0.2206733917084217 0.00013538244890087223
иванович 0.6585413472804106 0.00020200654824552473
мать 0.23864676272032262 0.00021961358532545026
авдотья 1.6127838567197355 0.0004947189744539066
матвеевна 2.089905111439398 0.0006410751875580976
девичестве 1.0107238653917732 0.00031003799551894884
шахторина 2.089905111439398 0.0006410751875580976
гончаровы 2.089905111439398 0.0006410751875580976
принадлежали 1.390935107103379 0.0004266672107679077
купеческому 1.7888751157754168 0.0005487346980906187
сословию 1.4878451201114355 0.00045639420862313975
большом 1.048512426281173 0.00032162957861385673
каменном 1.390935107103379 0.0004266672107679077
доме 0.27699175479654237 0.00025490038784957886
расположенном 1.7888751157754168 0.0005487346980906187
самом 0.5713911715615104 0.0001752733655096658
центре 0.7096938697277919 0.00021769750605146992
города 0.4178072535036805 0.0005126469368143319
обширным 1.7888751157754168 0.0005487346980906187
двором 1.6127838567197355 0.0009894379489078131
садом 1.3117538610557542 0.0004023784849864277
проходило 1.7888751157754168 0.0005487346980906187
детство 0.5101215148225878 0.00031295798455373486
будущего 0.584755133119492 0.00017937274022070308
писателя 0.15540666019583024 0.0007627320745807619
вспоминая 1.048512426281173 0.00032162957861385673
преклонные 2.089905111439398 0.0006410751875580976
своё 0.3739017678045988 0.0004587751752203666
отчий 1.7888751157754168 0.0005487346980906187
писал 0.28372513745551076 0.0005221935045193449
автобиографическом 1.4878451201114355 0.0009127884172462795
очерке 1.2448070714251411 0.0007636853198927247
родине 0.6585413472804106 0.00040401309649104947
амбары 2.089905111439398 0.0006410751875580976
погреба 2.089905111439398 0.0006410751875580976
ледники 2.089905111439398 0.0006410751875580976
переполнены 2.089905111439398 0.0006410751875580976
запасами 2.089905111439398 0.0006410751875580976
муки 1.390935107103379 0.0004266672107679077
разного 1.390935107103379 0.0004266672107679077
пшена 2.089905111439398 0.0006410751875580976
всяческой 2.089905111439398 0.0006410751875580976
провизии 2.089905111439398 0.0006410751875580976
продовольствия 1.4878451201114355 0.00045639420862313975
нашего 0.7096938697277919 0.00021769750605146992
обширной 1.6127838567197355 0.0004947189744539066
дворни 2.089905111439398 0.0006410751875580976
словом 0.9138138523837167 0.0002803109976637168
целое 1.1868151244474543 0.00036405371915566084
имение 0.8857851287834732 0.00027171322968818197
деревня 1.048512426281173 0.00032162957861385673
многое 1.0107238653917732 0.00031003799551894884
узнал 1.0107238653917732 0.00031003799551894884
увидел 0.8857851287834732 0.00027171322968818197
деревне 0.6585413472804106 0.00020200654824552473
явилось 1.4878451201114355 0.00045639420862313975
изначальным 2.089905111439398 0.0006410751875580976
импульсом 2.089905111439398 0.0006410751875580976
познании 1.7888751157754168 0.0005487346980906187
поместного 1.7888751157754168 0.0005487346980906187
барского 1.6127838567197355 0.0004947189744539066
быта 0.7096938697277919 0.00021769750605146992
дореформенной 2.089905111439398 0.0012821503751161952
россии 0.11677725783969929 0.000465676181569353
ярко 1.135662602000073 0.0003483627613497157
правдиво 1.4878451201114355 0.00045639420862313975
отразившегося 2.089905111439398 0.0006410751875580976
обыкновенной 1.7888751157754168 0.0005487346980906187
истории 0.2206733917084217 0.00027076489780174446
обломове 2.089905111439398 0.0006410751875580976
обрыве 2.089905111439398 0.0012821503751161952
гончарову 2.089905111439398 0.0038464511253485855
семь 0.728177275421805 0.0002233672623993267
лет 0.06459924617462771 0.00011889431811281174
умер 0.31905309979725377 0.00019573809803512504
последующей 1.4878451201114355 0.00045639420862313975
судьбе 0.7096938697277919 0.00021769750605146992
мальчика 0.8857851287834732 0.00027171322968818197
духовном 1.4878451201114355 0.00045639420862313975
развитии 0.7888751157754168 0.0007259586954988498
важную 1.390935107103379 0.0004266672107679077
роль 0.5584261943971428 0.0003425927572988606
сыграл 0.94377707576116 0.0005790043409577669
крёстный 1.4878451201114355 0.00045639420862313975
николай 0.4464524349532105 0.0002738971993577979
николаевич 0.6275071135404419 0.00019248684464430734
трегубов 2.089905111439398 0.0012821503751161952
отставной 1.390935107103379 0.0004266672107679077
моряк 1.390935107103379 0.0008533344215358154
отличался 0.9138138523837167 0.0002803109976637168
широтой 1.7888751157754168 0.0005487346980906187
взглядов 0.9759617591325612 0.00029937477274004945
критически 1.135662602000073 0.0003483627613497157
относился 0.9138138523837167 0.0002803109976637168
некоторым 1.048512426281173 0.00032162957861385673
явлениям 1.6127838567197355 0.0004947189744539066
современной 0.48784512011143555 0.0004489372270964131
добрый 1.1868151244474543 0.00036405371915566084
благодарно 1.7888751157754168 0.0005487346980906187
называл 0.5584261943971428 0.0001712963786494303
своего 0.31905309979725377 0.00019573809803512504
воспитателя 2.089905111439398 0.0006410751875580976
фактически 0.7096938697277919 0.00021769750605146992
заменившего 2.089905111439398 0.0006410751875580976
родного 1.135662602000073 0.0003483627613497157
отца 0.39093510710337914 0.00011991874451023901
вспоминал 0.6427470800971787 0.00039432336202280905
наша 0.811151510486569 0.00024881948174434635
благодарная 1.7888751157754168 0.0005487346980906187
трудную 1.7888751157754168 0.0005487346980906187
часть 0.31905309979725377 0.0002936071470526875
взятых 1.6127838567197355 0.0004947189744539066
забот 1.6127838567197355 0.0004947189744539066
нашем 1.089905111439398 0.00033432672130042886
воспитании 1.089905111439398 0.00033432672130042886
взяла 1.2448070714251411 0.00038184265994636234
заботы 1.390935107103379 0.0008533344215358154
житье-бытье 2.089905111439398 0.0006410751875580976
хозяйстве 1.7888751157754168 0.0005487346980906187
дворня 2.089905111439398 0.0006410751875580976
повара 1.7888751157754168 0.0005487346980906187
кучера 2.089905111439398 0.0006410751875580976
слились 1.7888751157754168 0.0005487346980906187
нашей 0.67493176346858 0.0004140685665451411
дворней 2.089905111439398 0.0006410751875580976
её 0.13086371911830436 8.028449025662844e-05
управлением 1.2448070714251411 0.00038184265994636234
жили 0.6275071135404419 0.00019248684464430734
одним 0.3575113516164294 0.00010966605877804583
общим 0.94377707576116 0.00028950217047888347
вся 0.6427470800971787 0.00019716168101140453
материальная 1.6127838567197355 0.0004947189744539066
пала 2.089905111439398 0.0006410751875580976
долю 1.390935107103379 0.0004266672107679077
матери 0.4564366558598114 0.00028002248825755304
отличной 1.7888751157754168 0.0005487346980906187
опытной 1.7888751157754168 0.0005487346980906187
строгой 1.4878451201114355 0.00045639420862313975
хозяйки 1.6127838567197355 0.0004947189744539066
интеллектуальные 1.4878451201114355 0.00045639420862313975
достались 1.6127838567197355 0.0004947189744539066
образованиеправить 1.7888751157754168 0.0005487346980906187
кисти 1.089905111439398 0.00033432672130042886
к. 0.21484384804769785 0.00032951510436763477
горбунова 1.7888751157754168 0.0005487346980906187
первоначальное 1.135662602000073 0.0003483627613497157
получил 0.2206733917084217 6.769122445043611e-05
дома 0.38233493534146157 0.00011728065501271827
началом 0.6919651027673603 0.0002122592339777179
трегубова 2.089905111439398 0.0006410751875580976
затем 0.2206733917084217 0.00020307367335130832
частном 1.3117538610557542 0.0004023784849864277
пансионе 1.3117538610557542 0.0004023784849864277
десять 0.7096938697277919 0.00021769750605146992
отправлен 0.9138138523837167 0.0002803109976637168
москву 0.3264771178764606 0.00010014635517682842
обучения 0.9759617591325612 0.00029937477274004945
коммерческом 1.6127838567197355 0.0009894379489078131
училище 0.6127838567197355 0.0007518820327849516
учился 0.3656292418386089 0.00011215620915294753
старший 0.6585413472804106 0.00020200654824552473
брат 0.46665582104149744 0.00014314595737469248
восемь 1.089905111439398 0.00033432672130042886
провёл 0.5458370670891223 0.0001674346831561725
хотя 0.46665582104149744 0.00014314595737469248
обучение 0.9759617591325612 0.00029937477274004945
малоинтересно 2.089905111439398 0.0006410751875580976
имя 0.20341438626691605 0.00018719115300636446
регулярно 1.2448070714251411 0.00038184265994636234
помещалось 2.089905111439398 0.0006410751875580976
красной 0.5713911715615104 0.0001752733655096658
доске 1.7888751157754168 0.0005487346980906187
училища 0.94377707576116 0.00028950217047888347
духовное 1.135662602000073 0.0003483627613497157
нравственное 1.390935107103379 0.0004266672107679077
развитие 0.5713911715615104 0.0001752733655096658
шло 1.1868151244474543 0.00036405371915566084
однако 0.28372513745551076 0.0004351612537661208
своим 0.4464524349532105 0.00013694859967889895
чередом 2.089905111439398 0.0006410751875580976
читал 0.6127838567197355 0.0001879705081962379
истинным 1.6127838567197355 0.0004947189744539066
наставником 1.2448070714251411 0.00038184265994636234
явилась 1.390935107103379 0.0008533344215358154
отечественная 1.1868151244474543 0.00036405371915566084
первым 0.39970903141088426 0.00024522026466925416
прямым 1.6127838567197355 0.0004947189744539066
учителем 0.7676858167054786 0.00023548644684217137
гуманитета 2.089905111439398 0.0006410751875580976
вообще 0.6585413472804106 0.00040401309649104947
нравственной 1.3117538610557542 0.0004023784849864277
сфере 1.2448070714251411 0.00038184265994636234
карамзин 1.4878451201114355 0.00045639420862313975
деле 0.6919651027673603 0.0002122592339777179
поэзии 0.5458370670891223 0.0005023040494685175
моим 1.089905111439398 0.00033432672130042886
сверстникам 2.089905111439398 0.0006410751875580976
юношам 2.089905111439398 0.0006410751875580976
приходилось 0.94377707576116 0.00028950217047888347
питаться 2.089905111439398 0.0006410751875580976
державиным 1.4878451201114355 0.00045639420862313975
дмитриевым 1.6127838567197355 0.0004947189744539066
озеровым 2.089905111439398 0.0006410751875580976
херасковым 1.7888751157754168 0.0005487346980906187
которого 0.2905645619858162 0.00017826046747596087
школе 0.5584261943971428 0.0001712963786494303
выдавали 2.089905111439398 0.0006410751875580976
поэта 0.5713911715615104 0.0001752733655096658
великим 0.9759617591325612 0.0005987495454800989
откровением 1.7888751157754168 0.0005487346980906187
товарищей 1.3117538610557542 0.0004023784849864277
явился 0.94377707576116 0.00028950217047888347
пушкин 0.7888751157754168 0.00024198623183294994
евгением 1.089905111439398 0.00033432672130042886
онегиным 1.7888751157754168 0.0005487346980906187
выходившим 1.7888751157754168 0.0005487346980906187
свет 0.39093510710337914 0.000359756233530717
отдельными 1.3117538610557542 0.0004023784849864277
главами 1.4878451201114355 0.00045639420862313975
рассказывает 0.8346326063360918 0.0002560222718822368
боже 2.089905111439398 0.0006410751875580976
волшебная 1.6127838567197355 0.0004947189744539066
даль 1.2448070714251411 0.00038184265994636234
открылись 1.7888751157754168 0.0005487346980906187
какие 1.0107238653917732 0.00031003799551894884
правды 0.8594561900611241 0.0005272737362338185
притом 1.7888751157754168 0.0005487346980906187
понятной 2.089905111439398 0.0006410751875580976
хлынули 2.089905111439398 0.0006410751875580976
источника 1.7888751157754168 0.0005487346980906187
каким 1.0107238653917732 0.00031003799551894884
блеском 1.4878451201114355 0.00045639420862313975
каких 1.089905111439398 0.00033432672130042886
звуках 1.7888751157754168 0.0005487346980906187
молитвенное 2.089905111439398 0.0006410751875580976
благоговение 2.089905111439398 0.0006410751875580976
именем 0.42714727975782385 0.00039308031879554343
пушкина 0.5713911715615104 0.0001752733655096658
сохранил 1.2448070714251411 0.00038184265994636234
времени 0.23257261500812945 0.00021402387884183693
проведённого 2.089905111439398 0.0006410751875580976
остались 0.7888751157754168 0.00024198623183294994
тяжёлые 1.3117538610557542 0.0004023784849864277
воспоминания 0.3656292418386089 0.00033646862745884257
году 0.018023104133272592 9.39855123514215e-05
просьбе 0.9759617591325612 0.00029937477274004945
исключён 0.9759617591325612 0.00029937477274004945
списка 1.1868151244474543 0.00036405371915566084
пансионеров 1.7888751157754168 0.0005487346980906187
окончания 0.7888751157754168 0.0007259586954988498
полного 0.8594561900611241 0.00026363686811690923
курса 0.94377707576116 0.00028950217047888347
ещё 0.22658225131894205 0.0004865263065130658
детстве 0.6127838567197355 0.0003759410163924758
возникшая 1.7888751157754168 0.0005487346980906187
страсть 1.0107238653917732 0.00031003799551894884
сочинительству 2.089905111439398 0.0006410751875580976
интерес 0.67493176346858 0.0004140685665451411
гуманитарным 2.089905111439398 0.0006410751875580976
наукам 1.390935107103379 0.0004266672107679077
особенно 0.5458370670891223 0.000334869366312345
художественной 0.5713911715615104 0.0005258200965289973
всё 0.28372513745551076 0.0006962580060257933
укрепило 2.089905111439398 0.0006410751875580976
нём 0.4178072535036805 0.00025632346840716595
мысль 0.6275071135404419 0.00019248684464430734
завершить 1.4878451201114355 0.0009127884172462795
словесном 1.7888751157754168 0.0005487346980906187
факультете 1.089905111439398 0.00033432672130042886
московского 0.34954242194515406 0.00042888640729466757
сентябре 0.6275071135404419 0.00019248684464430734
года 0.018023104133272592 0.00012162831010183959
уволен 1.048512426281173 0.00032162957861385673
купеческого 1.6127838567197355 0.0009894379489078131
звания 0.8594561900611241 0.00026363686811690923
требовалось 1.6127838567197355 0.0004947189744539066
зачисления 2.089905111439398 0.0006410751875580976
студенты 1.1868151244474543 0.00036405371915566084
августе 0.6275071135404419 0.00019248684464430734
сдал 1.089905111439398 0.00033432672130042886
вступительные 2.089905111439398 0.0006410751875580976
экзамены 1.0107238653917732 0.00031003799551894884
поступил 0.31175386105575426 9.563001872875899e-05
словесный 1.7888751157754168 0.0005487346980906187
факультет 0.34171708443319754 0.00010482119154392564
проведённые 1.4878451201114355 0.00045639420862313975
московском 0.5336026106721107 0.0001636817824147579
университете 0.47712125471966244 0.0002927124262083819
явились 1.4878451201114355 0.0009127884172462795
важной 1.2448070714251411 0.00038184265994636234
вехой 2.089905111439398 0.0006410751875580976
биографии 0.48784512011143555 0.00014964574236547102
пора 1.1868151244474543 0.0007281074383113217
напряжённых 2.089905111439398 0.0006410751875580976
раздумий 1.6127838567197355 0.0009894379489078131
одновременно 0.5101215148225878 0.0006259159691074697
гончаровым 1.4878451201114355 0.0009127884172462795
обучались 1.7888751157754168 0.0005487346980906187
е. 0.1604861857251052 0.00024614445663359694
барышев 1.7888751157754168 0.0005487346980906187
в. 0.11677725783969929 0.0006089611605137694
г. 0.1214221628854628 0.00044695274681765446
белинский 1.135662602000073 0.001045088284049147
герцен 1.135662602000073 0.0003483627613497157
п. 0.17609125905568124 0.0004321257890936963
огарёв 1.4878451201114355 0.00045639420862313975
станкевич 1.6127838567197355 0.0004947189744539066
м. 0.06459924617462771 0.0007728130677332764
ю. 0.23864676272032262 0.000292818113767267
лермонтов 1.089905111439398 0.00033432672130042886
с. 0.11218150615055017 0.0009635221387163819
тургенев 1.0107238653917732 0.00031003799551894884
аксаков 1.3117538610557542 0.0004023784849864277
многие 0.39970903141088426 0.00024522026466925416
другие 0.2448070714251411 7.509419368869359e-05
талантливые 1.7888751157754168 0.0005487346980906187
молодые 0.9759617591325612 0.00029937477274004945
люди 0.38233493534146157 0.00011728065501271827
впоследствии 0.2703611758975292 0.00033173150416874753
оставившие 1.7888751157754168 0.0005487346980906187
след 0.811151510486569 0.00024881948174434635
русской 0.16562582537751624 0.00045724921116492215
литературы 0.11677725783969929 0.00025074871315272857
слушал 1.1868151244474543 0.00036405371915566084
лекции 0.67493176346858 0.00020703428327257056
университетских 1.6127838567197355 0.0004947189744539066
профессоров 1.4878451201114355 0.00045639420862313975
давыдова 1.3117538610557542 0.0004023784849864277
погодина 1.2448070714251411 0.00038184265994636234
ивашковского 2.089905111439398 0.0006410751875580976
снегирёва 1.7888751157754168 0.0005487346980906187
особо 0.9759617591325612 0.00029937477274004945
выделял 1.2448070714251411 0.00038184265994636234
среди 0.30457527642863086 9.3427998904488e-05
учёных 0.7676858167054786 0.00023548644684217137
повлиявших 2.089905111439398 0.0006410751875580976
формирование 1.1868151244474543 0.00036405371915566084
собственного 0.9759617591325612 0.00029937477274004945
мировоззрения 1.2448070714251411 0.00038184265994636234
т. 0.20909151915860658 0.00012827700561877706
каченовского 2.089905111439398 0.0006410751875580976
курс 0.7096938697277919 0.0006530925181544098
шевырёва 1.7888751157754168 0.0005487346980906187
всеобщей 1.2448070714251411 0.00038184265994636234
надеждина 2.089905111439398 0.0006410751875580976
теории 1.0107238653917732 0.00031003799551894884
изящных 1.7888751157754168 0.0005487346980906187
искусств 0.6127838567197355 0.0001879705081962379
чертами 1.4878451201114355 0.00045639420862313975
последнего 0.94377707576116 0.00028950217047888347
наделил 1.6127838567197355 0.0004947189744539066
профессора 0.6919651027673603 0.0002122592339777179
эстетики 1.3117538610557542 0.0004023784849864277
своём 0.4464524349532105 0.00013694859967889895
первом 0.5985434176051253 0.0001836022753389955
романе 0.5101215148225878 0.00031295798455373486
обыкновенная 1.6127838567197355 0.0029683138467234394
история 0.27699175479654237 0.0007647011635487366
университетаправить 2.089905111439398 0.0006410751875580976
молодости 0.67493176346858 0.00020703428327257056
окончив 0.94377707576116 0.00028950217047888347
летом 0.46665582104149744 0.00014314595737469248
университет 0.43669259766405427 0.0005358191382381035
почувствовал 1.1868151244474543 0.00036405371915566084
собственному 0.9759617591325612 0.0005987495454800989
признанию 1.0107238653917732 0.00031003799551894884
свободным 1.3117538610557542 0.0004023784849864277
гражданином 2.089905111439398 0.0006410751875580976
которым 0.4464524349532105 0.0002738971993577979
открыты 1.3117538610557542 0.0004023784849864277
пути 0.6127838567197355 0.0003759410163924758
делом 1.135662602000073 0.0003483627613497157
решил 0.8346326063360918 0.0010240890875289471
навестить 2.089905111439398 0.0006410751875580976
свои 0.29751342194114405 0.00018252357174303318
родные 1.089905111439398 0.00033432672130042886
края 0.67493176346858 0.00020703428327257056
дожидались 2.089905111439398 0.0006410751875580976
сестры 0.7888751157754168 0.00024198623183294994
котором 0.31905309979725377 9.786904901756252e-05
детства 0.6127838567197355 0.0001879705081962379
знакомо 1.7888751157754168 0.0005487346980906187
поразил 1.6127838567197355 0.0004947189744539066
повзрослевшего 2.089905111439398 0.0006410751875580976
возмужавшего 2.089905111439398 0.0006410751875580976
прежде 0.5584261943971428 0.0001712963786494303
изменилось 1.3117538610557542 0.0004023784849864277
напоминало 1.7888751157754168 0.0005487346980906187
громадную 1.7888751157754168 0.0005487346980906187
сонную 2.089905111439398 0.0006410751875580976
деревню 1.0107238653917732 0.00031003799551894884
именно 0.39093510710337914 0.00011991874451023901
таким 0.6275071135404419 0.000577460533932922
знавал 2.089905111439398 0.0006410751875580976
свой 0.30457527642863086 0.000373711995617952
родной 0.728177275421805 0.0002233672623993267
город 0.39970903141088426 0.00036783039700388125
юношеские 1.1868151244474543 0.00036405371915566084
возвращаться 1.3117538610557542 0.0004023784849864277
постоянное 1.4878451201114355 0.00045639420862313975
житьё 1.7888751157754168 0.0005487346980906187
влекла 1.6127838567197355 0.0004947189744539066
перспектива 1.6127838567197355 0.0004947189744539066
напряжённой 1.6127838567197355 0.0004947189744539066
духовной 0.8857851287834732 0.00027171322968818197
столицах 1.7888751157754168 0.0005487346980906187
москва 0.1604861857251052 0.0003446022392870357
общение 1.0107238653917732 0.0006200759910378977
интересными 1.6127838567197355 0.0004947189744539066
людьми 0.8594561900611241 0.0005272737362338185
одна 0.43669259766405427 0.00013395478455952587
тайная 1.7888751157754168 0.0005487346980906187
мечта 1.089905111439398 0.00033432672130042886
связанная 1.6127838567197355 0.0004947189744539066
давним 2.089905111439398 0.0006410751875580976
увлечением 1.390935107103379 0.0004266672107679077
сочинительством 1.7888751157754168 0.0005487346980906187
обязательно 1.3117538610557542 0.0004023784849864277
уехать 1.0107238653917732 0.00031003799551894884
дремотного 2.089905111439398 0.0006410751875580976
скучного 1.7888751157754168 0.0005487346980906187
симбирска 1.7888751157754168 0.0005487346980906187
уехал 0.6127838567197355 0.0001879705081962379
симбирский 1.7888751157754168 0.0005487346980906187
губернатор 1.135662602000073 0.0006967255226994314
загряжский 2.089905111439398 0.0006410751875580976
настойчиво 1.3117538610557542 0.0004023784849864277
просил 0.9138138523837167 0.0002803109976637168
занять 1.135662602000073 0.0003483627613497157
должность 0.67493176346858 0.0010351714163628527
секретаря 0.811151510486569 0.00024881948174434635
колебаний 1.6127838567197355 0.0004947189744539066
принимает 1.1868151244474543 0.00036405371915566084
предложение 0.9759617591325612 0.00029937477274004945
дело 0.38233493534146157 0.00011728065501271827
оказалось 0.7474824306171917 0.0002292890891463778
скучным 1.7888751157754168 0.0005487346980906187
неблагодарным 2.089905111439398 0.0006410751875580976
живые 1.0107238653917732 0.00031003799551894884
впечатления 0.7474824306171917 0.0002292890891463778
механизма 1.7888751157754168 0.0005487346980906187
бюрократической 1.7888751157754168 0.0005487346980906187
системы 0.8857851287834732 0.00027171322968818197
сгодились 2.089905111439398 0.0006410751875580976
гончарову-писателю 2.089905111439398 0.0006410751875580976
одиннадцати 1.2448070714251411 0.00038184265994636234
месяцев 0.584755133119492 0.00017937274022070308
пребывания 0.7888751157754168 0.00024198623183294994
симбирске 1.6127838567197355 0.0009894379489078131
уезжает 1.390935107103379 0.0004266672107679077
петербург 0.6275071135404419 0.000577460533932922
собственными 1.2448070714251411 0.00038184265994636234
руками 1.089905111439398 0.00033432672130042886
чьей-либо 2.089905111439398 0.0006410751875580976
помощи 0.728177275421805 0.0002233672623993267
строить 1.4878451201114355 0.00045639420862313975
будущее 0.8857851287834732 0.00027171322968818197
приезде 1.7888751157754168 0.0005487346980906187
столицу 1.0107238653917732 0.0006200759910378977
подался 2.089905111439398 0.0006410751875580976
департамент 1.4878451201114355 0.0009127884172462795
внешней 1.135662602000073 0.0006967255226994314
торговли 1.1868151244474543 0.0010921611574669825
министерства 0.811151510486569 0.0009952779269773854
финансов 1.4878451201114355 0.0013691826258694193
предложили 1.4878451201114355 0.00045639420862313975
переводчика 1.048512426281173 0.00032162957861385673
иностранной 1.3117538610557542 0.0004023784849864277
переписки 1.089905111439398 0.00033432672130042886
оказалась 0.9759617591325612 0.00029937477274004945
очень 0.29751342194114405 0.00027378535761454976
обременительной 2.089905111439398 0.0006410751875580976
какой-то 0.8594561900611241 0.00026363686811690923
мере 0.7474824306171917 0.0004585781782927556
материально 1.390935107103379 0.0004266672107679077
обеспечивала 2.089905111439398 0.0006410751875580976
оставляла 2.089905111439398 0.0006410751875580976
время 0.09867903574690305 6.0539285734296356e-05
самостоятельных 1.6127838567197355 0.0004947189744539066
литературных 0.43669259766405427 0.0006697739227976292
занятий 1.1868151244474543 0.00036405371915566084
чтения 0.5101215148225878 0.00015647899227686743
петербурге 0.5458370670891223 0.0005023040494685175
сблизился 0.811151510486569 0.00024881948174434635
семьёй 0.6275071135404419 0.00019248684464430734
майковых 2.089905111439398 0.0012821503751161952
семью 0.7676858167054786 0.00023548644684217137
введён 1.6127838567197355 0.0004947189744539066
учителя 0.9138138523837167 0.0002803109976637168
двух 0.34954242194515406 0.00021444320364733378
старших 1.089905111439398 0.00033432672130042886
сыновей 0.9759617591325612 0.00029937477274004945
главы 0.67493176346858 0.00020703428327257056
семьи 0.48784512011143555 0.00014964574236547102
николая 0.521703387372403 0.00016003171391791503
аполлоновича 2.089905111439398 0.0006410751875580976
майкова 1.390935107103379 0.0008533344215358154
аполлона 1.2448070714251411 0.00038184265994636234
валериана 2.089905111439398 0.0006410751875580976
преподавал 0.8594561900611241 0.00026363686811690923
латинский 1.6127838567197355 0.0004947189744539066
русскую 0.7096938697277919 0.00021769750605146992
словесность 1.3117538610557542 0.0004023784849864277
интересным 1.390935107103379 0.0004266672107679077
культурным 1.4878451201114355 0.00045639420862313975
очагом 1.7888751157754168 0.0005487346980906187
петербурга 0.811151510486569 0.0004976389634886927
ежедневно 1.1868151244474543 0.00036405371915566084
собирались 1.3117538610557542 0.0004023784849864277
известные 0.8594561900611241 0.00026363686811690923
писатели 0.3264771178764606 0.00030043906553048523
музыканты 1.390935107103379 0.0004266672107679077
живописцы 1.6127838567197355 0.0004947189744539066
позже 0.39970903141088426 0.00012261013233462708
скажет 1.4878451201114355 0.00045639420862313975
кипел 2.089905111439398 0.0006410751875580976
жизнью 0.67493176346858 0.00020703428327257056
приносившими 2.089905111439398 0.0006410751875580976
сюда 0.6275071135404419 0.00019248684464430734
неистощимое 2.089905111439398 0.0006410751875580976
сферы 1.3117538610557542 0.0004023784849864277
мысли 0.6127838567197355 0.0003759410163924758
науки 0.521703387372403 0.00016003171391791503
искусства 0.4086638740638107 0.00025071403316798206
творчестваправить 0.9759617591325612 0.0005987495454800989
постепенно 0.8346326063360918 0.0002560222718822368
начинается 0.94377707576116 0.0005790043409577669
серьёзное 1.4878451201114355 0.00045639420862313975
творчество 0.20909151915860658 0.00019241550842816557
оно 0.584755133119492 0.00017937274022070308
формировалось 1.390935107103379 0.0004266672107679077
влиянием 0.728177275421805 0.0002233672623993267
тех 0.43669259766405427 0.00013395478455952587
настроений 1.135662602000073 0.0003483627613497157
которые 0.2905645619858162 0.00044565116868990214
побуждали 1.7888751157754168 0.0005487346980906187
молодого 0.6919651027673603 0.0004245184679554358
автора 0.28372513745551076 8.703225075322416e-05
иронически 1.2448070714251411 0.00038184265994636234
относиться 1.390935107103379 0.0004266672107679077
царившему 2.089905111439398 0.0006410751875580976
романтическому 2.089905111439398 0.0006410751875580976
культу 1.7888751157754168 0.0005487346980906187
рассвета 1.7888751157754168 0.0005487346980906187
важная 1.6127838567197355 0.0004947189744539066
общества 0.5336026106721107 0.0003273635648295158
целом 0.6585413472804106 0.00020200654824552473
знакомится 1.135662602000073 0.0003483627613497157
белинским 1.4878451201114355 0.00045639420862313975
часто 0.39093510710337914 0.000359756233530717
бывает 1.048512426281173 0.00032162957861385673
невском 1.7888751157754168 0.0005487346980906187
проспекте 1.048512426281173 0.00032162957861385673
литераторов 0.6427470800971787 0.00019716168101140453
читает 0.728177275421805 0.0002233672623993267
критику 0.8857851287834732 0.00027171322968818197
критиком 0.9759617591325612 0.0005987495454800989
имело 1.089905111439398 0.00033432672130042886
важное 1.2448070714251411 0.00038184265994636234
значение 0.7888751157754168 0.00024198623183294994
духовного 0.9138138523837167 0.0002803109976637168
становления 1.390935107103379 0.0004266672107679077
засвидетельствовал 2.089905111439398 0.0006410751875580976
одном 0.4086638740638107 0.00012535701658399103
писем 0.6275071135404419 0.000577460533932922
какую 1.6127838567197355 0.0004947189744539066
регулировал 2.089905111439398 0.0006410751875580976
весь 0.584755133119492 0.00017937274022070308
вчерашний 1.7888751157754168 0.0005487346980906187
хаос 1.6127838567197355 0.0004947189744539066
вкусов 2.089905111439398 0.0006410751875580976
эстетических 1.7888751157754168 0.0005487346980906187
понятий 1.390935107103379 0.0004266672107679077
проч. 1.7888751157754168 0.0005487346980906187
взгляд 0.7474824306171917 0.0002292890891463778
этих 0.5584261943971428 0.0001712963786494303
героев 0.5458370670891223 0.0001674346831561725
пера 1.135662602000073 0.0003483627613497157
лермонтова 0.9138138523837167 0.0002803109976637168
гоголя 0.7676858167054786 0.00023548644684217137
стал 0.18681512444745438 0.00017191575869397643
определённее 1.7888751157754168 0.0005487346980906187
строже 2.089905111439398 0.0006410751875580976
сознательная 2.089905111439398 0.0006410751875580976
критика… 2.089905111439398 0.0006410751875580976
своих 0.29751342194114405 0.00036504714348606636
заметках 1.390935107103379 0.0004266672107679077
личности 0.584755133119492 0.0005381182206621092
белинского 1.048512426281173 0.0006432591572277135
симпатией 1.6127838567197355 0.0004947189744539066
благодарностью 2.089905111439398 0.0006410751875580976
рассказал 1.089905111439398 0.00033432672130042886
встречах 1.4878451201114355 0.00045639420862313975
роли 0.6919651027673603 0.0002122592339777179
публициста 1.089905111439398 0.00033432672130042886
эстетического 1.6127838567197355 0.0004947189744539066
критика 0.34171708443319754 0.00010482119154392564
трибуна 1.7888751157754168 0.0005487346980906187
провозвестника 2.089905111439398 0.0006410751875580976
новых 0.6427470800971787 0.00039432336202280905
грядущих 1.7888751157754168 0.0005487346980906187
начал 0.31175386105575426 0.0002868900561862769
общественной 0.811151510486569 0.00024881948174434635
весной 0.5584261943971428 0.0001712963786494303
страницах 0.8346326063360918 0.0005120445437644736
современника 1.0107238653917732 0.00031003799551894884
публикуется 1.2448070714251411 0.00038184265994636234
конфликт 0.9759617591325612 0.00029937477274004945
реализмом 2.089905111439398 0.0006410751875580976
романтизмом 1.6127838567197355 0.0004947189744539066
предстаёт 1.6127838567197355 0.0004947189744539066
существенная 2.089905111439398 0.0006410751875580976
коллизия 1.6127838567197355 0.0004947189744539066
назвал 0.6275071135404419 0.00019248684464430734
самым 0.584755133119492 0.00017937274022070308
подчеркнул 1.6127838567197355 0.0004947189744539066
типичность 2.089905111439398 0.0006410751875580976
процессов 1.390935107103379 0.0004266672107679077
отразились 1.135662602000073 0.0003483627613497157
произведении 0.8346326063360918 0.0002560222718822368
середине 0.6919651027673603 0.0004245184679554358
века 0.20341438626691605 0.00018719115300636446
соперничество 1.4878451201114355 0.00045639420862313975
влияние 0.5458370670891223 0.0001674346831561725
азиатско-тихоокеанском 2.089905111439398 0.0006410751875580976
регионе 1.6127838567197355 0.0004947189744539066
российской 0.23257261500812945 7.134129294727898e-05
империи 0.7096938697277919 0.00021769750605146992
соединённых 1.4878451201114355 0.00045639420862313975
штатов 1.7888751157754168 0.0005487346980906187
америки 1.048512426281173 0.00032162957861385673
ту 0.7888751157754168 0.00024198623183294994
пору 1.048512426281173 0.00032162957861385673
принято 0.8346326063360918 0.0002560222718822368
называть 1.3117538610557542 0.0004023784849864277
северо-американскими 1.7888751157754168 0.0005487346980906187
соединёнными 2.089905111439398 0.0012821503751161952
штатами 1.7888751157754168 0.0010974693961812373
сокращённо 1.7888751157754168 0.0005487346980906187
сасш 2.089905111439398 0.0006410751875580976
главным 0.67493176346858 0.00020703428327257056
объектом 1.1868151244474543 0.00036405371915566084
русско-американского 1.7888751157754168 0.0005487346980906187
соперничества 1.6127838567197355 0.0004947189744539066
стала 0.31905309979725377 0.00019573809803512504
япония 1.6127838567197355 0.0004947189744539066
которая 0.31905309979725377 0.00019573809803512504
закрыта 1.7888751157754168 0.0005487346980906187
иностранцев 1.7888751157754168 0.0005487346980906187
прибытие 1.6127838567197355 0.0004947189744539066
иностранца 2.089905111439398 0.0006410751875580976
японскую 2.089905111439398 0.0006410751875580976
землю 1.0107238653917732 0.00031003799551894884
каралось 2.089905111439398 0.0006410751875580976
смертной 1.390935107103379 0.0004266672107679077
казнью 1.7888751157754168 0.0005487346980906187
лишь 0.38233493534146157 0.00011728065501271827
китайских 1.7888751157754168 0.0005487346980906187
голландских 1.6127838567197355 0.0004947189744539066
кораблей 1.7888751157754168 0.0010974693961812373
сделано 1.2448070714251411 0.00038184265994636234
небольшое 1.390935107103379 0.0004266672107679077
исключение 1.390935107103379 0.0004266672107679077
разрешалось 1.7888751157754168 0.0005487346980906187
заходить 2.089905111439398 0.0006410751875580976
порт 1.4878451201114355 0.0009127884172462795
нагасаки 2.089905111439398 0.0012821503751161952
америке 1.1868151244474543 0.0007281074383113217
хотелось 1.089905111439398 0.00033432672130042886
заполучить 2.089905111439398 0.0006410751875580976
японию 1.6127838567197355 0.0014841569233617197
рынка 1.6127838567197355 0.0004947189744539066
сбыта 2.089905111439398 0.0006410751875580976
товаров 2.089905111439398 0.0006410751875580976
направили 1.4878451201114355 0.00045639420862313975
военно-морские 2.089905111439398 0.0006410751875580976
эскадры 1.7888751157754168 0.0005487346980906187
заставить 1.7888751157754168 0.0005487346980906187
японцев 2.089905111439398 0.0012821503751161952
страну 0.8594561900611241 0.00026363686811690923
захода 2.089905111439398 0.0006410751875580976
соответственно 1.089905111439398 0.0006686534426008577
российских 0.8857851287834732 0.00027171322968818197
американских 1.4878451201114355 0.00045639420862313975
торговых 2.089905111439398 0.0012821503751161952
эскадрой 1.7888751157754168 0.0010974693961812373
командовал 1.6127838567197355 0.0004947189744539066
вице-адмирал 2.089905111439398 0.0006410751875580976
евфимий 2.089905111439398 0.0006410751875580976
васильевич 0.8346326063360918 0.0002560222718822368
путятин 2.089905111439398 0.0012821503751161952
американской 0.94377707576116 0.00028950217047888347
коммодор 2.089905111439398 0.0012821503751161952
мэтью 2.089905111439398 0.0006410751875580976
перри 2.089905111439398 0.0012821503751161952
русская 0.17609125905568124 0.0002700786181835602
экспедиция 1.6127838567197355 0.0009894379489078131
снаряжена 2.089905111439398 0.0006410751875580976
установления 1.4878451201114355 0.00045639420862313975
политических 0.94377707576116 0.0005790043409577669
отношений 0.811151510486569 0.00024881948174434635
японией 1.6127838567197355 0.0004947189744539066
инспекции 2.089905111439398 0.0006410751875580976
русских 0.3739017678045988 0.0002293875876101833
владений 2.089905111439398 0.0006410751875580976
северной 0.9759617591325612 0.00029937477274004945
аляске 2.089905111439398 0.0006410751875580976
обе 1.135662602000073 0.0003483627613497157
экспедиции 1.135662602000073 0.0003483627613497157
увенчались 1.7888751157754168 0.0005487346980906187
успехом 0.8857851287834732 0.00027171322968818197
японцы 2.089905111439398 0.0006410751875580976
подписали 1.6127838567197355 0.0004947189744539066
год 0.09867903574690305 0.00018161785720288904
россией 0.94377707576116 0.00028950217047888347
торговые 1.7888751157754168 0.0005487346980906187
договоры 2.089905111439398 0.0006410751875580976
достигнуто 1.7888751157754168 0.0005487346980906187
разными 1.1868151244474543 0.00036405371915566084
средствами 1.135662602000073 0.0003483627613497157
прибывший 1.6127838567197355 0.0004947189744539066
своей 0.2510560207021426 7.701104929513578e-05
запугал 2.089905111439398 0.0006410751875580976
угрожая 2.089905111439398 0.0006410751875580976
расстрелять 2.089905111439398 0.0006410751875580976
пушек 1.7888751157754168 0.0005487346980906187
эдо 2.089905111439398 0.0006410751875580976
токио 2.089905111439398 0.0006410751875580976
адмирал 1.4878451201114355 0.00045639420862313975
августа 0.17609125905568124 5.401572363671204e-05
прибыл 0.811151510486569 0.00024881948174434635
проведения 1.135662602000073 0.0003483627613497157
мирных 2.089905111439398 0.0006410751875580976
переговоров 1.7888751157754168 0.0005487346980906187
закрепил 2.089905111439398 0.0006410751875580976
налаженные 2.089905111439398 0.0006410751875580976
отношения 0.521703387372403 0.00016003171391791503
договоре 2.089905111439398 0.0006410751875580976
октябре 0.6427470800971787 0.00039432336202280905
служивший 1.390935107103379 0.0004266672107679077
переводчиком 1.1868151244474543 0.00036405371915566084
департаменте 1.6127838567197355 0.0004947189744539066
назначен 0.7676858167054786 0.00047097289368434273
секретарём 0.94377707576116 0.00028950217047888347
адмирала 1.4878451201114355 0.00045639420862313975
путятина 2.089905111439398 0.0006410751875580976
отправкой 1.7888751157754168 0.0005487346980906187
петербургу 1.7888751157754168 0.0005487346980906187
прошёл 0.7676858167054786 0.00023548644684217137
слух 1.4878451201114355 0.00045639420862313975
принц 1.4878451201114355 0.00045639420862313975
де 0.728177275421805 0.0002233672623993267
лень 1.7888751157754168 0.0005487346980906187
отправляется 1.7888751157754168 0.0005487346980906187
плавание 1.4878451201114355 0.00045639420862313975
называли 0.7676858167054786 0.00023548644684217137
первых 0.39093510710337914 0.00011991874451023901
дней 0.3656292418386089 0.00022431241830589505
путешествия 0.9759617591325612 0.0005987495454800989
вести 0.7888751157754168 0.00024198623183294994
подробный 1.4878451201114355 0.00045639420862313975
путевой 1.4878451201114355 0.00045639420862313975
журнал 0.20341438626691605 0.00018719115300636446
материалы 0.39970903141088426 0.00024522026466925416
легли 1.048512426281173 0.00032162957861385673
основу 0.7474824306171917 0.0002292890891463778
будущей 0.8857851287834732 0.00027171322968818197
книги 0.1214221628854628 0.00011173818670441361
фрегат 2.089905111439398 0.0019232255626742928
продолжалась 1.048512426281173 0.00032162957861385673
половиной 1.048512426281173 0.00032162957861385673
побывал 0.7474824306171917 0.0002292890891463778
англии 0.94377707576116 0.00028950217047888347
южной 1.1868151244474543 0.00036405371915566084
африке 1.390935107103379 0.0004266672107679077
индонезии 2.089905111439398 0.0006410751875580976
японии 1.1868151244474543 0.00036405371915566084
китае 1.390935107103379 0.0004266672107679077
филиппинах 2.089905111439398 0.0006410751875580976
множестве 1.3117538610557542 0.0004023784849864277
небольших 1.0107238653917732 0.00031003799551894884
островов 1.4878451201114355 0.00045639420862313975
архипелагов 2.089905111439398 0.0006410751875580976
атлантического 2.089905111439398 0.0006410751875580976
индийского 2.089905111439398 0.0006410751875580976
тихого 1.4878451201114355 0.00045639420862313975
океанов 2.089905111439398 0.0006410751875580976
высадившись 2.089905111439398 0.0006410751875580976
берегу 0.8346326063360918 0.0002560222718822368
охотского 2.089905111439398 0.0006410751875580976
моря 0.9138138523837167 0.0002803109976637168
аяне 2.089905111439398 0.0006410751875580976
проехал 1.6127838567197355 0.0004947189744539066
сухим 2.089905111439398 0.0006410751875580976
путём 0.8857851287834732 0.00027171322968818197
россию 0.5101215148225878 0.00015647899227686743
вернулся 0.43669259766405427 0.00026790956911905173
февраля 0.13566260200007307 0.00016645718036818784
апрельской 2.089905111439398 0.0006410751875580976
книжке 1.4878451201114355 0.00045639420862313975
отечественных 0.9759617591325612 0.00029937477274004945
записок 0.8857851287834732 0.0005434264593763639
появился 0.6427470800971787 0.00019716168101140453
первый 0.1814200925607482 5.565033514133381e-05
путешествии 1.135662602000073 0.0003483627613497157
последующие 0.8594561900611241 0.0005272737362338185
фрагменты 0.9138138523837167 0.0002803109976637168
публиковались 0.7888751157754168 0.00024198623183294994
морском 1.2448070714251411 0.00038184265994636234
сборнике 0.728177275421805 0.0002233672623993267
различных 0.7888751157754168 0.00024198623183294994
журналах 0.42714727975782385 0.00013102677293184783
протяжении 0.6919651027673603 0.0002122592339777179
трёх 0.49884050441289873 0.0001530185596358585
сочинение 0.8594561900611241 0.00026363686811690923
вышло 0.6127838567197355 0.0003759410163924758
отдельным 1.135662602000073 0.0003483627613497157
изданием 0.8346326063360918 0.0002560222718822368
цикл 0.67493176346858 0.00020703428327257056
путевых 1.390935107103379 0.0004266672107679077
очерков 0.5985434176051253 0.000367204550677991
своеобразный 1.3117538610557542 0.0004023784849864277
дневник 0.5584261943971428 0.0001712963786494303
книга 0.12611728409384265 0.00015474513385747566
сразу 0.5101215148225878 0.00015647899227686743
крупным 1.2448070714251411 0.0007636853198927247
литературным 0.5336026106721107 0.0003273635648295158
событием 1.089905111439398 0.00033432672130042886
поразив 2.089905111439398 0.0006410751875580976
читателей 0.7096938697277919 0.00043539501210293984
богатством 1.4878451201114355 0.00045639420862313975
разнообразием 2.089905111439398 0.0006410751875580976
фактического 2.089905111439398 0.0006410751875580976
материала 0.8346326063360918 0.0002560222718822368
своими 0.49884050441289873 0.0001530185596358585
литературными 1.089905111439398 0.00033432672130042886
достоинствами 1.6127838567197355 0.0004947189744539066
воспринята 1.7888751157754168 0.0005487346980906187
выход 0.811151510486569 0.00024881948174434635
большой 0.2638303087385715 0.00016185908511568805
плохо 0.7888751157754168 0.00024198623183294994
знакомый 1.1868151244474543 0.00036405371915566084
русскому 0.9138138523837167 0.0005606219953274336
читателю 1.0107238653917732 0.00031003799551894884
мир 0.20341438626691605 0.00018719115300636446
увиденный 2.089905111439398 0.0006410751875580976
пытливым 2.089905111439398 0.0006410751875580976
наблюдателем 2.089905111439398 0.0006410751875580976
описанный 1.390935107103379 0.0004266672107679077
острым 1.3117538610557542 0.0004023784849864277
талантливым 1.4878451201114355 0.00045639420862313975
пером 1.1868151244474543 0.00036405371915566084
такая 0.811151510486569 0.00024881948174434635
беспрецедентной 2.089905111439398 0.0006410751875580976
лотман 1.390935107103379 0.0008533344215358154
одной 0.29751342194114405 0.00018252357174303318
последних 0.584755133119492 0.00017937274022070308
статей 0.4086638740638107 0.00012535701658399103
обращаясь 1.4878451201114355 0.00045639420862313975
этому 0.43669259766405427 0.00013395478455952587
произведению 1.048512426281173 0.00032162957861385673
просто 0.5101215148225878 0.00015647899227686743
объективно 1.390935107103379 0.0004266672107679077
изображает 1.1868151244474543 0.00036405371915566084
пространство 1.2448070714251411 0.0007636853198927247
пересекаемое 2.089905111439398 0.0006410751875580976
фрегатом 2.089905111439398 0.0006410751875580976
совершающим 2.089905111439398 0.0006410751875580976
кругосветное 1.7888751157754168 0.0005487346980906187
владивосток 1.3117538610557542 0.0004023784849864277
декларирует 2.089905111439398 0.0006410751875580976
разнообразию 1.7888751157754168 0.0005487346980906187
культур 1.390935107103379 0.0004266672107679077
открытость 1.7888751157754168 0.0005487346980906187
чужому 2.089905111439398 0.0006410751875580976
реальная 1.7888751157754168 0.0005487346980906187
специфика 1.7888751157754168 0.0010974693961812373
сознания 0.9138138523837167 0.0002803109976637168
текста 0.521703387372403 0.00016003171391791503
заключается 1.135662602000073 0.0003483627613497157
сквозь 0.8594561900611241 0.00026363686811690923
подвижность 1.7888751157754168 0.0005487346980906187
географических 1.6127838567197355 0.0004947189744539066
точек 1.135662602000073 0.0003483627613497157
зрения 0.6585413472804106 0.00020200654824552473
просвечивает 2.089905111439398 0.0006410751875580976
постоянство 2.089905111439398 0.0006410751875580976
авторской 0.811151510486569 0.00024881948174434635
позиции 0.7888751157754168 0.00024198623183294994
моряк-путешественник 2.089905111439398 0.0006410751875580976
находится 0.7096938697277919 0.00021769750605146992
своем 1.135662602000073 0.0003483627613497157
мире 0.48784512011143555 0.00029929148473094205
корабля 1.6127838567197355 0.0009894379489078131
чужом 1.2448070714251411 0.00038184265994636234
географического 1.4878451201114355 0.00045639420862313975
пространства 1.1868151244474543 0.00036405371915566084
постоянно 0.7474824306171917 0.0002292890891463778
меняет 1.7888751157754168 0.0005487346980906187
положение 0.67493176346858 0.00020703428327257056
отношению 0.8594561900611241 0.00026363686811690923
внутреннему 1.6127838567197355 0.0004947189744539066
пространству 2.089905111439398 0.0006410751875580976
образом 0.5985434176051253 0.000367204550677991
задано 2.089905111439398 0.0006410751875580976
противоположных 1.4878451201114355 0.00045639420862313975
аспектах 2.089905111439398 0.0006410751875580976
основной 0.728177275421805 0.0002233672623993267
смысл 0.8857851287834732 0.00027171322968818197
пространственной 2.089905111439398 0.0006410751875580976
модели 1.390935107103379 0.0004266672107679077
фрегата 2.089905111439398 0.0006410751875580976
паллады 2.089905111439398 0.0006410751875580976
низвержении 2.089905111439398 0.0006410751875580976
романтической 1.4878451201114355 0.00045639420862313975
экзотики 2.089905111439398 0.0006410751875580976
разрушение 1.2448070714251411 0.00038184265994636234
штампов 1.7888751157754168 0.0005487346980906187
антитезе 2.089905111439398 0.0006410751875580976
далекое/близкое 2.089905111439398 0.0006410751875580976
чужое/своё 2.089905111439398 0.0006410751875580976
экзотическое/бытовое 2.089905111439398 0.0006410751875580976
создает 1.7888751157754168 0.0005487346980906187
образ 0.42714727975782385 0.00013102677293184783
общего 0.9138138523837167 0.0002803109976637168
совместного 1.4878451201114355 0.00045639420862313975
движения 0.7676858167054786 0.00023548644684217137
культурных 1.048512426281173 0.00032162957861385673
пространств 2.089905111439398 0.0006410751875580976
земли 0.6919651027673603 0.0002122592339777179
невежества 1.2448070714251411 0.00038184265994636234
цивилизации 1.048512426281173 0.0006432591572277135
отсюда 0.8857851287834732 0.00027171322968818197
экзотика 2.089905111439398 0.0006410751875580976
оборачивается 1.7888751157754168 0.0005487346980906187
некультурностью 2.089905111439398 0.0006410751875580976
цивилизация 1.3117538610557542 0.0004023784849864277
жестоким 1.6127838567197355 0.0004947189744539066
бессердечием 2.089905111439398 0.0006410751875580976
противопоставления 1.7888751157754168 0.0005487346980906187
мнению 0.48784512011143555 0.00014964574236547102
должны 0.8857851287834732 0.0005434264593763639
сняты 1.3117538610557542 0.0004023784849864277
единой 1.1868151244474543 0.00036405371915566084
моделью 1.7888751157754168 0.0005487346980906187
которой 0.20909151915860658 6.413850280938853e-05
динамика 1.6127838567197355 0.0004947189744539066
прогресс 1.048512426281173 0.00032162957861385673
положительно 1.048512426281173 0.00032162957861385673
противостоят 2.089905111439398 0.0006410751875580976
статике 2.089905111439398 0.0006410751875580976
антитеза 1.6127838567197355 0.0004947189744539066
романтического 1.4878451201114355 0.00045639420862313975
востока 1.089905111439398 0.00033432672130042886
лишенной 2.089905111439398 0.0006410751875580976
многократно 1.089905111439398 0.00033432672130042886
повторяемая 2.089905111439398 0.0006410751875580976
литературе 0.2905645619858162 0.00017826046747596087
заменяется 1.7888751157754168 0.0005487346980906187
противопоставлением 2.089905111439398 0.0006410751875580976
застоя 1.2448070714251411 0.00038184265994636234
развития 0.6919651027673603 0.0004245184679554358
цензораправить 2.089905111439398 0.0006410751875580976
оставался 0.811151510486569 0.0004976389634886927
недолго 1.089905111439398 0.00033432672130042886
вскоре 0.4178072535036805 0.00012816173420358298
удалось 0.6127838567197355 0.0001879705081962379
получить 0.8857851287834732 0.00027171322968818197
эта 0.0 0.0
хлопотливая 2.089905111439398 0.0012821503751161952
трудная 1.7888751157754168 0.0010974693961812373
преимущество 1.7888751157754168 0.0005487346980906187
прежней 1.1868151244474543 0.00036405371915566084
службой 1.4878451201114355 0.00045639420862313975
состояло 1.6127838567197355 0.0004947189744539066
крайней 1.048512426281173 0.00032162957861385673
непосредственно 1.089905111439398 0.00033432672130042886
связана 1.048512426281173 0.00032162957861385673
литературой 0.7676858167054786 0.00023548644684217137
членом 0.43669259766405427 0.00013395478455952587
совета 0.48784512011143555 0.00029929148473094205
делам 1.0107238653917732 0.0006200759910378977
печати 0.5336026106721107 0.0003273635648295158
вышел 0.33403025576690654 0.00020492653728031076
пенсию 1.6127838567197355 0.0009894379489078131
чине 1.0107238653917732 0.00031003799551894884
генерала 1.0107238653917732 0.00031003799551894884
подал 1.0107238653917732 0.00031003799551894884
отставку 0.811151510486569 0.0004976389634886927
ибо 1.089905111439398 0.00033432672130042886
мешала 1.6127838567197355 0.0004947189744539066
собственным 0.8346326063360918 0.0005120445437644736
занятиям 1.3117538610557542 0.0004023784849864277
опубликовал 0.46665582104149744 0.00014314595737469248
обломов 1.7888751157754168 0.003292408188543712
впервые 0.34954242194515406 0.00010722160182366689
прозвучало 1.3117538610557542 0.0004023784849864277
слово 0.42714727975782385 0.00013102677293184783
обломовщина 1.7888751157754168 0.0005487346980906187
судьбу 0.94377707576116 0.00028950217047888347
главного 0.6427470800971787 0.00019716168101140453
героя 0.5336026106721107 0.0001636817824147579
нового 0.521703387372403 0.00016003171391791503
романа 0.2638303087385715 0.00024278862767353204
показал 0.9759617591325612 0.00029937477274004945
социальное 1.135662602000073 0.0003483627613497157
явление 0.811151510486569 0.00024881948174434635
увидели 1.6127838567197355 0.0004947189744539066
образе 0.9759617591325612 0.00029937477274004945
обломова 1.7888751157754168 0.0010974693961812373
философское 1.2448070714251411 0.00038184265994636234
осмысление 1.7888751157754168 0.0005487346980906187
национального 1.089905111439398 0.00033432672130042886
характера 0.7676858167054786 0.00023548644684217137
также 0.14051510479448517 4.310279288174392e-05
указание 1.4878451201114355 0.00045639420862313975
возможность 0.6275071135404419 0.00019248684464430734
особого 1.135662602000073 0.0003483627613497157
нравственного 1.1868151244474543 0.00036405371915566084
противостоящего 2.089905111439398 0.0006410751875580976
суете 2.089905111439398 0.0006410751875580976
всепоглощающего 2.089905111439398 0.0006410751875580976
прогресса 1.4878451201114355 0.00045639420862313975
совершил 0.9759617591325612 0.00029937477274004945
художественное 1.0107238653917732 0.00031003799551894884
открытие 0.8346326063360918 0.0002560222718822368
источник 0.0 0.0
указан 0.6127838567197355 0.0001879705081962379
создал 0.5985434176051253 0.0001836022753389955
произведение 0.46665582104149744 0.0004294378721240774
огромной 1.2448070714251411 0.00038184265994636234
обобщающей 2.089905111439398 0.0006410751875580976
силы 0.6127838567197355 0.0001879705081962379
разделе 1.048512426281173 0.00032162957861385673
хватает 1.048512426281173 0.00032162957861385673
ссылок 0.94377707576116 0.00028950217047888347
источники.информация 1.2448070714251411 0.00038184265994636234
должна 0.7888751157754168 0.00024198623183294994
проверяема 1.2448070714251411 0.00038184265994636234
иначе 0.7888751157754168 0.00024198623183294994
удалена 1.2448070714251411 0.00038184265994636234
можете 0.9759617591325612 0.00029937477274004945
отредактировать 1.2448070714251411 0.00038184265994636234
статью 0.584755133119492 0.00017937274022070308
добавив 1.135662602000073 0.0003483627613497157
авторитетные 1.1868151244474543 0.00036405371915566084
источники 0.6127838567197355 0.0001879705081962379
отметка 1.135662602000073 0.0003483627613497157
установлена 0.5985434176051253 0.0001836022753389955
года.выход 2.089905111439398 0.0006410751875580976
громадный 2.089905111439398 0.0006410751875580976
успех 0.67493176346858 0.00020703428327257056
принесли 1.2448070714251411 0.00038184265994636234
славу 0.9759617591325612 0.00029937477274004945
одного 0.4464524349532105 0.00013694859967889895
самых 0.49884050441289873 0.000306037119271717
выдающихся 0.9759617591325612 0.00029937477274004945
писателей 0.1503858588207794 4.6130631540116386e-05
работу 0.3656292418386089 0.00011215620915294753
новым 0.811151510486569 0.00024881948174434635
произведением 0.8346326063360918 0.0007680668156467103
романом 0.6127838567197355 0.0001879705081962379
обрыв 1.7888751157754168 0.003292408188543712
как-то 1.0107238653917732 0.00031003799551894884
зарабатывать 1.4878451201114355 0.00045639420862313975
деньги 0.67493176346858 0.00020703428327257056
покинув 1.4878451201114355 0.00045639420862313975
пост 0.94377707576116 0.00028950217047888347
жил 0.2206733917084217 6.769122445043611e-05
вольных 1.7888751157754168 0.0005487346980906187
хлебах 1.7888751157754168 0.0005487346980906187
пригласили 1.2448070714251411 0.00038184265994636234
редактора 0.7676858167054786 0.00023548644684217137
недавно 1.1868151244474543 0.00036405371915566084
учреждённой 1.6127838567197355 0.0004947189744539066
газеты 0.39093510710337914 0.00011991874451023901
северная 1.1868151244474543 0.00036405371915566084
почта 1.048512426281173 0.00032162957861385673
являвшейся 2.089905111439398 0.0006410751875580976
органом 1.7888751157754168 0.0005487346980906187
внутренних 0.8594561900611241 0.00026363686811690923
дел 0.7676858167054786 0.00023548644684217137
работал 0.21484384804769785 6.590302087352696e-05
около 0.48784512011143555 0.00014964574236547102
члена 1.048512426281173 0.00032162957861385673
снова 0.67493176346858 0.0004140685665451411
началась 0.8857851287834732 0.00027171322968818197
цензорская 2.089905111439398 0.0006410751875580976
деятельность 0.39093510710337914 0.00023983748902047802
причём 0.7676858167054786 0.00023548644684217137
условиях 0.8857851287834732 0.00027171322968818197
приобрела 1.1868151244474543 0.00036405371915566084
явно 1.1868151244474543 0.00036405371915566084
консервативный 1.4878451201114355 0.00045639420862313975
характер 0.6919651027673603 0.0002122592339777179
причинил 2.089905111439398 0.0006410751875580976
неприятностей 2.089905111439398 0.0006410751875580976
современнику 1.7888751157754168 0.0005487346980906187
некрасова 1.0107238653917732 0.00031003799551894884
писаревскому 2.089905111439398 0.0006410751875580976
слову 1.1868151244474543 0.00036405371915566084
вёл 0.584755133119492 0.00017937274022070308
открытую 1.7888751157754168 0.0005487346980906187
войну 0.6919651027673603 0.0002122592339777179
против 0.34954242194515406 0.00010722160182366689
нигилизма 1.6127838567197355 0.0004947189744539066
жалких 2.089905111439398 0.0006410751875580976
несамостоятельных 2.089905111439398 0.0006410751875580976
доктринах 2.089905111439398 0.0006410751875580976
материализма 1.390935107103379 0.0004266672107679077
социализма 1.089905111439398 0.00033432672130042886
коммунизма 1.089905111439398 0.00033432672130042886
активно 0.6919651027673603 0.0002122592339777179
защищал 1.1868151244474543 0.00036405371915566084
правительственные 1.7888751157754168 0.0005487346980906187
устои 1.7888751157754168 0.0005487346980906187
продолжалось 1.390935107103379 0.0004266672107679077
конца 0.39093510710337914 0.000359756233530717
прошению 1.3117538610557542 0.0004023784849864277
энергично 1.6127838567197355 0.0004947189744539066
взяться 1.6127838567197355 0.0009894379489078131
тому 0.43669259766405427 0.00013395478455952587
исписал 2.089905111439398 0.0006410751875580976
бумаги 0.9138138523837167 0.0002803109976637168
видел 0.67493176346858 0.00020703428327257056
надвигавшаяся 2.089905111439398 0.0006410751875580976
старость 1.6127838567197355 0.0009894379489078131
пугала 1.4878451201114355 0.00045639420862313975
отвращала 2.089905111439398 0.0006410751875580976
однажды 0.8594561900611241 0.00026363686811690923
сказал 0.49884050441289873 0.0001530185596358585
дитя 1.7888751157754168 0.0005487346980906187
моего 0.811151510486569 0.00024881948174434635
сердца 0.811151510486569 0.00024881948174434635
автор 0.20341438626691605 6.239705100212149e-05
трудился 1.2448070714251411 0.00038184265994636234
целых 1.6127838567197355 0.0004947189744539066
двадцать 0.8346326063360918 0.0002560222718822368
временами 1.4878451201114355 0.00045639420862313975
концу 0.8594561900611241 0.00026363686811690923
впадал 2.089905111439398 0.0006410751875580976
апатию 1.7888751157754168 0.0005487346980906187
казалось 0.9759617591325612 0.00029937477274004945
хватит 1.4878451201114355 0.00045639420862313975
сил 0.8346326063360918 0.0005120445437644736
монументальное 2.089905111439398 0.0006410751875580976
тургеневу 1.4878451201114355 0.0009127884172462795
спрашиваете 2.089905111439398 0.0006410751875580976
пишу 0.9759617591325612 0.00029937477274004945
попробовал 1.4878451201114355 0.00045639420862313975
задался 2.089905111439398 0.0006410751875580976
давно 0.811151510486569 0.0004976389634886927
известной 0.8594561900611241 0.00026363686811690923
неудобоисполнимой 2.089905111439398 0.0006410751875580976
задачей 1.1868151244474543 0.00036405371915566084
жернов 2.089905111439398 0.0006410751875580976
висит 1.6127838567197355 0.0004947189744539066
шее 2.089905111439398 0.0006410751875580976
мешает 1.6127838567197355 0.0004947189744539066
поворотиться 2.089905111439398 0.0006410751875580976
какое 0.9138138523837167 0.0002803109976637168
писанье 1.6127838567197355 0.0004947189744539066
мои 0.6275071135404419 0.00019248684464430734
лета 1.089905111439398 0.00033432672130042886
другом 0.7096938697277919 0.00021769750605146992
месте 0.67493176346858 0.00020703428327257056
заметил 1.089905111439398 0.00033432672130042886
закончив 1.2448070714251411 0.00038184265994636234
третью 1.1868151244474543 0.00036405371915566084
обрыва 2.089905111439398 0.0006410751875580976
хотел 0.5985434176051253 0.0001836022753389955
оставить 1.089905111439398 0.00033432672130042886
вовсе 0.811151510486569 0.00024881948174434635
дописывая 2.089905111439398 0.0006410751875580976
дописал 2.089905111439398 0.0006410751875580976
отдавал 1.2448070714251411 0.00038184265994636234
отчёт 1.135662602000073 0.0003483627613497157
какого 1.135662602000073 0.0003483627613497157
масштаба 1.2448070714251411 0.00038184265994636234
художественного 0.7474824306171917 0.0002292890891463778
значения 0.49884050441289873 0.0001530185596358585
создаёт 1.1868151244474543 0.00036405371915566084
ценой 1.3117538610557542 0.0004023784849864277
огромных 1.7888751157754168 0.0005487346980906187
усилий 1.135662602000073 0.0003483627613497157
превозмогая 2.089905111439398 0.0006410751875580976
физические 1.4878451201114355 0.00045639420862313975
нравственные 1.2448070714251411 0.00038184265994636234
недуги 2.089905111439398 0.0006410751875580976
довёл 1.390935107103379 0.0004266672107679077
завершил 0.94377707576116 0.0005790043409577669
трилогию 1.1868151244474543 0.00036405371915566084
каждый 0.67493176346858 0.00020703428327257056
романов 0.48784512011143555 0.00029929148473094205
отразил 1.7888751157754168 0.0005487346980906187
определённый 1.2448070714251411 0.00038184265994636234
этап 1.1868151244474543 0.00036405371915566084
исторического 0.8857851287834732 0.00027171322968818197
первого 0.43669259766405427 0.00013395478455952587
типичен 2.089905111439398 0.0006410751875580976
адуев 2.089905111439398 0.0006410751875580976
второго 0.728177275421805 0.0002233672623993267
третьего 0.8346326063360918 0.0002560222718822368
райский 2.089905111439398 0.0006410751875580976
образы 0.7676858167054786 0.00023548644684217137
составными 2.089905111439398 0.0006410751875580976
элементами 1.390935107103379 0.0004266672107679077
общей 0.728177275421805 0.0002233672623993267
целостной 2.089905111439398 0.0006410751875580976
картины 0.6919651027673603 0.0002122592339777179
угасающей 2.089905111439398 0.0006410751875580976
эпохи 0.5713911715615104 0.0001752733655096658
крепостничества 1.6127838567197355 0.0004947189744539066
большие 0.8346326063360918 0.0002560222718822368
романы 0.46665582104149744 0.00028629191474938495
русском 0.5458370670891223 0.000334869366312345
идеалисте 2.089905111439398 0.0006410751875580976
главный 0.4564366558598114 0.00014001124412877652
сущности 0.9759617591325612 0.00029937477274004945
единственный 0.7888751157754168 0.00024198623183294994
настоящий 0.9138138523837167 0.0002803109976637168
герой 0.5101215148225878 0.00015647899227686743
гончароваправить 2.089905111439398 0.0006410751875580976
смертном 1.1868151244474543 0.00036405371915566084
одре 1.135662602000073 0.0003483627613497157
последним 0.94377707576116 0.00028950217047888347
художественным 1.0107238653917732 0.00031003799551894884
сложилась 1.2448070714251411 0.00038184265994636234
трудно 0.8594561900611241 0.00026363686811690923
больной 1.135662602000073 0.0003483627613497157
одинокий 1.1868151244474543 0.00036405371915566084
поддавался 2.089905111439398 0.0006410751875580976
душевной 1.2448070714251411 0.00038184265994636234
депрессии 1.4878451201114355 0.00045639420862313975
одно 0.5713911715615104 0.0003505467310193316
мечталось 2.089905111439398 0.0006410751875580976
новый 0.2448070714251411 7.509419368869359e-05
помешает 2.089905111439398 0.0006410751875580976
анненкову 1.6127838567197355 0.0004947189744539066
приступил 1.089905111439398 0.00033432672130042886
нему 0.6585413472804106 0.00020200654824552473
медленно 1.6127838567197355 0.0004947189744539066
натужно 2.089905111439398 0.0006410751875580976
жаловался 1.6127838567197355 0.0004947189744539066
быстро 0.7676858167054786 0.00023548644684217137
откликаться 1.7888751157754168 0.0005487346980906187
события 0.521703387372403 0.00016003171391791503
основательно 1.6127838567197355 0.0004947189744539066
отстояться 2.089905111439398 0.0006410751875580976
сознании 1.135662602000073 0.0003483627613497157
посвящены 1.089905111439398 0.00033432672130042886
изображению 1.4878451201114355 0.00045639420862313975
которую 0.4086638740638107 0.00012535701658399103
знал 0.5985434176051253 0.0001836022753389955
понимал 1.0107238653917732 0.0006200759910378977
те 0.6427470800971787 0.00019716168101140453
процессы 1.4878451201114355 0.00045639420862313975
происходили 1.1868151244474543 0.00036405371915566084
признаниям 1.6127838567197355 0.0004947189744539066
хуже 0.9759617591325612 0.00029937477274004945
хватало 1.3117538610557542 0.0004023784849864277
физических 1.6127838567197355 0.0004947189744539066
нравственных 1.089905111439398 0.00033432672130042886
погрузиться 1.7888751157754168 0.0005487346980906187
изучение 1.1868151244474543 0.00036405371915566084
продолжал 0.6919651027673603 0.0002122592339777179
жить 0.5584261943971428 0.0001712963786494303
атмосфере 1.4878451201114355 0.00045639420862313975
интересов 1.089905111439398 0.00033432672130042886
интенсивно 1.7888751157754168 0.0005487346980906187
переписываясь 2.089905111439398 0.0006410751875580976
одними 1.6127838567197355 0.0004947189744539066
писателями 0.94377707576116 0.00028950217047888347
лично 0.6275071135404419 0.00019248684464430734
общаясь 2.089905111439398 0.0006410751875580976
другими 0.6427470800971787 0.00019716168101140453
оставляя 1.4878451201114355 0.00045639420862313975
творческой 0.8346326063360918 0.0002560222718822368
пишет 0.46665582104149744 0.00014314595737469248
несколько 0.22658225131894205 6.950375807329511e-05
вечер 0.811151510486569 0.00024881948174434635
слуги 1.6127838567197355 0.0004947189744539066
старого 0.7888751157754168 0.00024198623183294994
поездка 1.0107238653917732 0.00031003799551894884
волге 1.1868151244474543 0.00036405371915566084
восточной 1.1868151244474543 0.00036405371915566084
сибири 0.9759617591325612 0.00029937477274004945
май 0.6919651027673603 0.0002122592339777179
месяц 0.67493176346858 0.00020703428327257056
некоторые 0.42714727975782385 0.00013102677293184783
опубликованы 0.49884050441289873 0.0001530185596358585
посмертно 0.7096938697277919 0.00043539501210293984
следует 0.6427470800971787 0.00019716168101140453
отметить 1.7888751157754168 0.0005487346980906187
ряд 0.42714727975782385 0.00013102677293184783
замечательных 0.5458370670891223 0.000334869366312345
выступлений 1.3117538610557542 0.0004023784849864277
области 0.23864676272032262 0.0004392271706509005
критики 0.521703387372403 0.00032006342783583007
такие 0.5713911715615104 0.0001752733655096658
например 0.5101215148225878 0.00015647899227686743
этюды 1.2448070714251411 0.00038184265994636234
мильон 2.089905111439398 0.0012821503751161952
терзаний 2.089905111439398 0.0012821503751161952
заметки 0.49884050441289873 0.0001530185596358585
поздно 1.0107238653917732 0.00031003799551894884
прочно 1.3117538610557542 0.0004023784849864277
вошли 0.67493176346858 0.00020703428327257056
историю 0.6585413472804106 0.00020200654824552473
классических 1.7888751157754168 0.0005487346980906187
образцов 1.6127838567197355 0.0004947189744539066
литературно-эстетической 2.089905111439398 0.0006410751875580976
полном 0.8857851287834732 0.00027171322968818197
одиночестве 1.135662602000073 0.0003483627613497157
простудился 1.4878451201114355 0.00045639420862313975
болезнь 0.67493176346858 0.00020703428327257056
развивалась 1.3117538610557542 0.0004023784849864277
стремительно 1.7888751157754168 0.0005487346980906187
дня 0.2638303087385715 0.0004855772553470641
ночь 0.5713911715615104 0.0001752733655096658
воспаления 1.3117538610557542 0.0004023784849864277
легких 1.4878451201114355 0.00045639420862313975
восьмидесятом 2.089905111439398 0.0006410751875580976
похоронен 0.33403025576690654 0.00010246326864015538
новом 0.67493176346858 0.00020703428327257056
никольском 2.089905111439398 0.0006410751875580976
кладбище 0.2573961987331616 7.895588918195142e-05
александро-невской 1.4878451201114355 0.00045639420862313975
лавры 1.390935107103379 0.0004266672107679077
прах 1.048512426281173 0.00032162957861385673
перезахоронен 1.3117538610557542 0.0004023784849864277
литераторских 1.2448070714251411 0.00038184265994636234
мостках 1.2448070714251411 0.00038184265994636234
волковского 1.4878451201114355 0.00045639420862313975
кладбища 0.8857851287834732 0.00027171322968818197
некрологе 1.7888751157754168 0.0005487346980906187
опубликованном 1.048512426281173 0.00032162957861385673
вестника 1.089905111439398 0.00033432672130042886
европы 0.7096938697277919 0.0006530925181544098
отмечалось 1.089905111439398 0.00033432672130042886
подобно 1.089905111439398 0.00033432672130042886
герцену 1.6127838567197355 0.0004947189744539066
островскому 1.6127838567197355 0.0004947189744539066
салтыкову 1.7888751157754168 0.0005487346980906187
занимать 1.4878451201114355 0.00045639420862313975
видных 1.1868151244474543 0.00036405371915566084
мест 0.94377707576116 0.00028950217047888347
памятьправить 0.6919651027673603 0.0002122592339777179
памятная 0.7474824306171917 0.0002292890891463778
монета 1.0107238653917732 0.0006200759910378977
банка 1.089905111439398 0.00033432672130042886
посвящённая 0.8346326063360918 0.0002560222718822368
рубля 0.94377707576116 0.0005790043409577669
серебро 1.390935107103379 0.0004266672107679077
крамской 1.6127838567197355 0.0004947189744539066
александровича 0.94377707576116 0.0008685065114366503
марка 0.6275071135404419 0.00038497368928861467
памятник 0.38233493534146157 0.0005864032750635914
ульяновске 1.6127838567197355 0.0029683138467234394
памятники 0.7474824306171917 0.0002292890891463778
димитровграде 2.089905111439398 0.0012821503751161952
мелекесс 2.089905111439398 0.0006410751875580976
скульптор 0.5713911715615104 0.0001752733655096658
л. 0.1604861857251052 0.0004430600219404745
замедянский 2.089905111439398 0.0006410751875580976
находился 0.6919651027673603 0.0002122592339777179
музее 0.8346326063360918 0.0002560222718822368
установлен 0.5458370670891223 0.0001674346831561725
мемориальная 0.48784512011143555 0.00029929148473094205
доска 0.46665582104149744 0.00014314595737469248
городе 0.3656292418386089 0.00022431241830589505
марианске-лазне 2.089905111439398 0.0006410751875580976
чехия 1.7888751157754168 0.0010974693961812373
информирующая 2.089905111439398 0.0006410751875580976
улицы 0.5713911715615104 0.0007010934620386632
носящие 1.7888751157754168 0.0005487346980906187
городах 0.6275071135404419 0.00038497368928861467
ульяновск 1.390935107103379 0.002986670475375354
димитровград 2.089905111439398 0.0012821503751161952
брянск 1.7888751157754168 0.0005487346980906187
иркутск 1.0107238653917732 0.00031003799551894884
калининград 1.390935107103379 0.0004266672107679077
магнитогорск 1.7888751157754168 0.0005487346980906187
майкоп 1.7888751157754168 0.0005487346980906187
новороссийск 1.4878451201114355 0.00045639420862313975
пенза 1.1868151244474543 0.00036405371915566084
саранск 1.7888751157754168 0.0005487346980906187
уфа 1.3117538610557542 0.0004023784849864277
тула 1.1868151244474543 0.00036405371915566084
чебоксары 1.6127838567197355 0.0004947189744539066
симферополь 1.135662602000073 0.0003483627613497157
советская 0.2573961987331616 0.0003158235567278057
гавань 1.4878451201114355 0.00045639420862313975
йошкар-ола 2.089905111439398 0.0006410751875580976
бугульма 2.089905111439398 0.0006410751875580976
названа 0.7676858167054786 0.00047097289368434273
центральная 0.94377707576116 0.00028950217047888347
улица 0.42714727975782385 0.00026205354586369565
существует 0.7096938697277919 0.00021769750605146992
центр-музей 2.089905111439398 0.0012821503751161952
беседка 2.089905111439398 0.0006410751875580976
екатеринбурге 1.3117538610557542 0.0004023784849864277
маленькая 1.2448070714251411 0.00038184265994636234
улочка 2.089905111439398 0.0006410751875580976
перекрытая 2.089905111439398 0.0006410751875580976
многоуровневой 2.089905111439398 0.0006410751875580976
парковкой 2.089905111439398 0.0006410751875580976
тц 2.089905111439398 0.0006410751875580976
карнавал 1.7888751157754168 0.0005487346980906187
украины 0.8857851287834732 0.00027171322968818197
винница 1.6127838567197355 0.0004947189744539066
днепр 1.4878451201114355 0.00045639420862313975
запорожье 1.4878451201114355 0.00045639420862313975
мариуполь 1.4878451201114355 0.00045639420862313975
николаев 0.7888751157754168 0.00024198623183294994
хмельницкий 1.4878451201114355 0.00045639420862313975
латвии 1.6127838567197355 0.0004947189744539066
юрмала 2.089905111439398 0.0006410751875580976
казахстане 1.3117538610557542 0.0004023784849864277
алма-ата 1.3117538610557542 0.0004023784849864277
ульяновский 1.7888751157754168 0.0021949387923624747
областной 0.7888751157754168 0.0009679449273317998
краеведческий 1.2448070714251411 0.001145527979839087
музей 0.46665582104149744 0.0008588757442481548
имени 0.20909151915860658 0.0003206925140469426
драматический 0.8857851287834732 0.00027171322968818197
театр 0.4564366558598114 0.00014001124412877652
сквер 1.2448070714251411 0.00038184265994636234
историко-литературный 1.2448070714251411 0.001145527979839087
постановлением 1.3117538610557542 0.0004023784849864277
ульяновской 1.4878451201114355 0.0031947594603619783
городской 0.7676858167054786 0.0007064593405265141
думы 0.9138138523837167 0.0005606219953274336
центральной 0.94377707576116 0.00028950217047888347
библиотеке 0.3656292418386089 0.00022431241830589505
ульяновска 1.7888751157754168 0.001646204094271856
присвоено 0.7474824306171917 0.0006878672674391334
литературная 0.17082701906332404 0.0003144055565582651
премия 0.2905645619858162 0.00017826046747596087
ежегодные 1.4878451201114355 0.0009127884172462795
гончаровские 2.089905111439398 0.0012821503751161952
праздники 1.2448070714251411 0.0007636853198927247
проводятся 1.390935107103379 0.0004266672107679077
стали 0.4564366558598114 0.00014001124412877652
всероссийскими 2.089905111439398 0.0006410751875580976
июля 0.20341438626691605 6.239705100212149e-05
банк 1.0107238653917732 0.0006200759910378977
выпустил 0.8346326063360918 0.0002560222718822368
обращение 0.67493176346858 0.00020703428327257056
посвящённую 1.1868151244474543 0.00036405371915566084
памятную 1.1868151244474543 0.00036405371915566084
монету 1.1868151244474543 0.00036405371915566084
номиналом 1.3117538610557542 0.0008047569699728554
изображением 1.089905111439398 0.00033432672130042886
серии 0.48784512011143555 0.00014964574236547102
выдающиеся 0.811151510486569 0.00024881948174434635
изготовлена 2.089905111439398 0.0006410751875580976
серебра 2.089905111439398 0.0006410751875580976
пробы 1.6127838567197355 0.0004947189744539066
тиражом 0.9759617591325612 0.00029937477274004945
экземпляров 0.7096938697277919 0.00021769750605146992
весом 2.089905111439398 0.0006410751875580976
граммов 1.7888751157754168 0.0005487346980906187
художественные 0.8857851287834732 0.00027171322968818197
маркированные 1.7888751157754168 0.0005487346980906187
конверты 1.4878451201114355 0.00045639420862313975
оригинальная 2.089905111439398 0.0006410751875580976
почтовая 0.7888751157754168 0.00024198623183294994
копеек 1.390935107103379 0.0004266672107679077
маркированного 2.089905111439398 0.0006410751875580976
почтового 2.089905111439398 0.0006410751875580976
конверта 2.089905111439398 0.0006410751875580976
ссср 0.08558373765675535 7.875804078842518e-05
год.17.05.1962 2.089905111439398 0.0006410751875580976
министерством 1.2448070714251411 0.00038184265994636234
связи 0.4564366558598114 0.00014001124412877652
издан 0.6427470800971787 0.00019716168101140453
хмк 1.7888751157754168 0.0010974693961812373
сг 2.089905111439398 0.0012821503751161952
худ 1.2448070714251411 0.001145527979839087
калашников 1.390935107103379 0.0008533344215358154
звание 0.8857851287834732 0.0005434264593763639
почётный 0.7676858167054786 0.0009419457873686855
гражданин 0.7676858167054786 0.0009419457873686855
занесением 1.6127838567197355 0.0004947189744539066
золотую 1.2448070714251411 0.00038184265994636234
книгу 0.29751342194114405 9.126178587151659e-05
почёта 0.8857851287834732 0.00027171322968818197
решением 1.048512426281173 0.00032162957861385673
которое 0.5336026106721107 0.0001636817824147579
является 0.33403025576690654 0.00010246326864015538
высшей 1.0107238653917732 0.00031003799551894884
наградой 1.7888751157754168 0.0005487346980906187
муниципального 1.390935107103379 0.0004266672107679077
образования 0.67493176346858 0.00020703428327257056
знак 0.5584261943971428 0.0003425927572988606
нагрудный 1.7888751157754168 0.0005487346980906187
санкт-петербургеправить 1.2448070714251411 0.00038184265994636234
июнь 1.089905111439398 0.00033432672130042886
октябрь 0.5458370670891223 0.0001674346831561725
доходный 0.7888751157754168 0.00024198623183294994
шамшева 2.089905111439398 0.0006410751875580976
литейный 1.390935107103379 0.0004266672107679077
проспект 0.7676858167054786 0.00047097289368434273
февраль 0.94377707576116 0.00028950217047888347
гвардии 1.135662602000073 0.0003483627613497157
поручика 1.1868151244474543 0.00036405371915566084
кожевникова 1.6127838567197355 0.0004947189744539066
невский 1.048512426281173 0.00032162957861385673
устинова 2.089905111439398 0.0006410751875580976
моховая 1.4878451201114355 0.00045639420862313975
произведенийправить 0.9759617591325612 0.00029937477274004945
современник 0.5713911715615104 0.0001752733655096658
примеч 0.8346326063360918 0.0007680668156467103
продолж 1.7888751157754168 0.001646204094271856
первое 0.48784512011143555 0.0004489372270964131
отдельное 1.3117538610557542 0.001207135454959283
издание 0.4086638740638107 0.0005014280663359641
спб. 0.42714727975782385 0.00026205354586369565
б-ка 1.135662602000073 0.0006967255226994314
рус 0.3656292418386089 0.00011215620915294753
повестей 0.5584261943971428 0.0001712963786494303
путешествий 1.1868151244474543 0.00036405371915566084
отечественные 1.089905111439398 0.00033432672130042886
записки 0.46665582104149744 0.00014314595737469248
спб 0.2510560207021426 0.0007701104929513578
д. 0.1814200925607482 0.0004452026811306705
кожанчиков 2.089905111439398 0.0006410751875580976
вестник 0.5101215148225878 0.0006259159691074697
полное 0.5101215148225878 0.0007823949613843372
собрание 0.28372513745551076 0.0009573547582854658
сочинений 0.29751342194114405 0.0010038796445866825
глазунов 2.089905111439398 0.0006410751875580976
наука 0.46665582104149744 0.00028629191474938495
продолжается 1.2448070714251411 0.00038184265994636234
книг 0.31905309979725377 9.786904901756252e-05
портр 0.94377707576116 0.0014475108523944171
авт. 1.6127838567197355 0.0004947189744539066
гравир 2.089905111439398 0.0006410751875580976
акад 1.2448070714251411 0.00038184265994636234
пожалостиным 2.089905111439398 0.0006410751875580976
факс 1.3117538610557542 0.0008047569699728554
ф. 0.30457527642863086 0.00046713999452244
маркс 1.2448070714251411 0.00038184265994636234
прилож 2.089905111439398 0.0006410751875580976
журн 1.6127838567197355 0.0004947189744539066
нива 1.2448070714251411 0.00038184265994636234
авт 0.9138138523837167 0.0002803109976637168
пг 1.2448070714251411 0.00038184265994636234
лит.-изд 2.089905111439398 0.0006410751875580976
отдел 0.94377707576116 0.00028950217047888347
комиссариата 1.6127838567197355 0.0004947189744539066
нар 1.7888751157754168 0.0005487346980906187
проcв. 2.089905111439398 0.0006410751875580976
избранные 0.5985434176051253 0.000367204550677991
моск 1.3117538610557542 0.0004023784849864277
рабочий 0.7096938697277919 0.00043539501210293984
вступ 0.7096938697277919 0.00021769750605146992
ст 0.6585413472804106 0.0008080261929820989
петрова 1.048512426281173 0.00032162957861385673
гослитиздат 0.7888751157754168 0.0004839724636658999
классиков 1.089905111439398 0.00033432672130042886
правда 0.31175386105575426 0.00019126003745751797
библиотека 0.34954242194515406 0.00032166480547100065
огонёк 0.6275071135404419 0.00019248684464430734
общ 0.8346326063360918 0.0002560222718822368
ред 0.2573961987331616 0.00055269122427366
машинского 2.089905111439398 0.0006410751875580976
худож 0.9138138523837167 0.0002803109976637168
лит. 0.9759617591325612 0.00029937477274004945
сочинения 0.42714727975782385 0.00026205354586369565
сост. 0.8857851287834732 0.00027171322968818197
предисл 0.7676858167054786 0.00023548644684217137
недзвецкого 2.089905111439398 0.0006410751875580976
алексеев 1.2448070714251411 0.00038184265994636234
лексика 1.7888751157754168 0.0005487346980906187
классики 0.811151510486569 0.00024881948174434635
зарубежной 1.390935107103379 0.0004266672107679077
ирли 1.6127838567197355 0.0004947189744539066
колл 1.6127838567197355 0.0004947189744539066
туниманов 1.6127838567197355 0.0004947189744539066
гл 0.47712125471966244 0.00014635621310419094
др 0.39970903141088426 0.00012261013233462708
коммент 0.8594561900611241 0.00026363686811690923
гейро 2.089905111439398 0.0006410751875580976
золотая 0.6919651027673603 0.0002122592339777179
серия 0.4564366558598114 0.00028002248825755304
малое 1.2448070714251411 0.00038184265994636234
азбука 0.94377707576116 0.00028950217047888347
англ 0.3739017678045988 0.00011469379380509165
ч. 0.9138138523837167 0.0002803109976637168
уорнер 1.4878451201114355 0.00045639420862313975
венгеров 1.0107238653917732 0.00031003799551894884
энциклопедический 0.5336026106721107 0.0003273635648295158
словарь 0.31175386105575426 0.00038252007491503594
брокгауз 0.5458370670891223 0.0001674346831561725
ефрон 0.811151510486569 0.00024881948174434635
большая 0.20909151915860658 6.413850280938853e-05
энциклопедия 0.20909151915860658 0.0002565540112375541
прохорова 0.5713911715615104 0.0001752733655096658
изд 0.33403025576690654 0.00010246326864015538
русские 0.39093510710337914 0.00023983748902047802
биографический 0.42714727975782385 0.00026205354586369565
т.1 1.135662602000073 0.0003483627613497157
рыбасов 2.089905111439398 0.0006410751875580976
государственное 0.7676858167054786 0.00023548644684217137
издательство 0.29751342194114405 0.00018252357174303318
императорское 1.6127838567197355 0.0004947189744539066
московское 1.390935107103379 0.0004266672107679077
коммерческое 2.089905111439398 0.0006410751875580976
остоженке 1.7888751157754168 0.0005487346980906187
императорский 1.089905111439398 0.0010029801639012865
московский 0.39970903141088426 0.00036783039700388125
поэзия 0.6427470800971787 0.00019716168101140453
ломоносова 1.135662602000073 0.0003483627613497157
выведен 1.135662602000073 0.0003483627613497157
углицкий 2.089905111439398 0.0006410751875580976
панаев 1.390935107103379 0.0004266672107679077
белинском 2.089905111439398 0.0006410751875580976
отрывки 1.089905111439398 0.00033432672130042886
воспоминаниях 0.6585413472804106 0.00020200654824552473
современников 0.6275071135404419 0.00019248684464430734
ответственный 1.4878451201114355 0.00045639420862313975
редактор 0.4564366558598114 0.00014001124412877652
горяков 2.089905111439398 0.0006410751875580976
мемуаров 0.9138138523837167 0.0002803109976637168
художественная 0.49884050441289873 0.0001530185596358585
ленинградское 0.9759617591325612 0.00029937477274004945
отделение 0.6427470800971787 0.00019716168101140453
современность 1.3117538610557542 0.0004023784849864277
востоком 1.7888751157754168 0.0005487346980906187
западом 1.4878451201114355 0.00045639420862313975
знамя 0.5584261943971428 0.0001712963786494303
котельников 1.7888751157754168 0.0010974693961812373
просвещение 0.811151510486569 0.00024881948174434635
д-р 1.4878451201114355 0.00045639420862313975
сегалин 1.7888751157754168 0.0005487346980906187
патогенез 2.089905111439398 0.0006410751875580976
биогенез 2.089905111439398 0.0006410751875580976
великих 1.0107238653917732 0.00031003799551894884
людей 0.3264771178764606 0.00020029271035365684
клинический 1.6127838567197355 0.0004947189744539066
архив 0.48784512011143555 0.00014964574236547102
гениальности 1.7888751157754168 0.0005487346980906187
одаренности 2.089905111439398 0.0006410751875580976
вып 0.43669259766405427 0.00013395478455952587
неопр. 0.1454224392892293 0.00035686488169136025
карта 0.9759617591325612 0.0005987495454800989
ивану 1.2448070714251411 0.00038184265994636234
александровичу 2.089905111439398 0.0006410751875580976
окрестности 1.7888751157754168 0.0005487346980906187
айзпурвит 2.089905111439398 0.0006410751875580976
вашкова 2.089905111439398 0.0006410751875580976
кабинет 1.3117538610557542 0.0004023784849864277
радио 0.5101215148225878 0.00015647899227686743
прага 1.7888751157754168 0.0010974693961812373
историко-мемориальный 2.089905111439398 0.0006410751875580976
международная 0.8594561900611241 0.00026363686811690923
всероссийские 2.089905111439398 0.0006410751875580976
и.а 1.7888751157754168 0.0005487346980906187
рус. 0.3264771178764606 0.00010014635517682842
обращения 0.1503858588207794 0.00013839189462034915
октября 0.1814200925607482 5.565033514133381e-05
управление 1.0107238653917732 0.00031003799551894884
вопросам 1.0107238653917732 0.00031003799551894884
государственной 0.5985434176051253 0.0001836022753389955
службы 0.5584261943971428 0.0001712963786494303
кадров 1.6127838567197355 0.0004947189744539066
ульяновская 1.6127838567197355 0.0004947189744539066
городская 0.94377707576116 0.00028950217047888347
дума 1.1868151244474543 0.00036405371915566084
депутаты 1.6127838567197355 0.0009894379489078131
решения 0.8346326063360918 0.0002560222718822368
постановления 1.2448070714251411 0.00038184265994636234
округа 0.8857851287834732 0.00027171322968818197
новости 0.47712125471966244 0.00014635621310419094
повестка 1.7888751157754168 0.0005487346980906187
опросы 1.7888751157754168 0.0005487346980906187
контакты 1.3117538610557542 0.0004023784849864277
марта 0.1814200925607482 5.565033514133381e-05
литератураправить 0.21484384804769785 6.590302087352696e-05
барсов 2.089905111439398 0.0006410751875580976
гончарове 2.089905111439398 0.0019232255626742928
исторический 0.6427470800971787 0.00039432336202280905
типография 0.8346326063360918 0.0005120445437644736
суворина 1.135662602000073 0.0006967255226994314
андреев 0.9138138523837167 0.0002803109976637168
цыганков 1.135662602000073 0.0003483627613497157
политическая 0.8594561900611241 0.00026363686811690923
росспэн 1.0107238653917732 0.00031003799551894884
соч 0.9759617591325612 0.0008981243182201484
сб 0.8857851287834732 0.0008151396890645459
ист.-лит 1.6127838567197355 0.0014841569233617197
сост 0.4086638740638107 0.0006267850829199551
покровский 1.1868151244474543 0.0018202685957783042
изд. 0.6275071135404419 0.000577460533932922
доп 0.67493176346858 0.0006211028498177116
тип 0.7096938697277919 0.0015238825423602895
лисснера 1.4878451201114355 0.0013691826258694193
собко 1.6127838567197355 0.0014841569233617197
родзевича 2.089905111439398 0.0006410751875580976
детская 0.6919651027673603 0.0002122592339777179
всемирная 1.0107238653917732 0.00031003799551894884
хрестоматия 1.6127838567197355 0.0004947189744539066
библиографический 0.8346326063360918 0.0002560222718822368
указатель 0.8857851287834732 0.0005434264593763639
романова 1.6127838567197355 0.0004947189744539066
науч 1.089905111439398 0.00033432672130042886
гуськов 2.089905111439398 0.0006410751875580976
библиогр 1.3117538610557542 0.0004023784849864277
островская 1.6127838567197355 0.0004947189744539066
дмитрий 0.4086638740638107 0.00012535701658399103
буланин 1.3117538610557542 0.0004023784849864277
иустинов 2.089905111439398 0.0006410751875580976
певец 1.4878451201114355 0.00045639420862313975
старой 1.0107238653917732 0.00031003799551894884
золотоноша 1.7888751157754168 0.0005487346980906187
б. 0.2510560207021426 0.00023103314788540733
гольденберга 2.089905111439398 0.0006410751875580976
кандель 1.7888751157754168 0.0010974693961812373
иностранных 0.8594561900611241 0.00026363686811690923
языках 1.0107238653917732 0.00031003799551894884
новые 0.4464524349532105 0.00013694859967889895
исследования 0.5713911715615104 0.0001752733655096658
имли 1.0107238653917732 0.00031003799551894884
ран 0.67493176346858 0.00020703428327257056
наследие 0.6275071135404419 0.00019248684464430734
лит 0.7096938697277919 0.00021769750605146992
наследство 0.9138138523837167 0.0002803109976637168
кони 1.3117538610557542 0.0004023784849864277
чествование 1.6127838567197355 0.0004947189744539066
памяти 0.46665582104149744 0.00028629191474938495
краснощекова 2.089905111439398 0.0006410751875580976
пушкинский 1.0107238653917732 0.00031003799551894884
фонд 0.67493176346858 0.00020703428327257056
кублицкий 2.089905111439398 0.0006410751875580976
материкам 2.089905111439398 0.0006410751875580976
океанам 2.089905111439398 0.0006410751875580976
рассказы 0.18681512444745438 5.730525289799215e-05
путешествиях 1.4878451201114355 0.00045639420862313975
открытиях 2.089905111439398 0.0006410751875580976
детгиз 1.2448070714251411 0.00038184265994636234
ляцкий 2.089905111439398 0.0012821503751161952
евгений 0.521703387372403 0.00032006342783583007
личность 0.7474824306171917 0.0002292890891463778
стохгольм 2.089905111439398 0.0006410751875580976
северные 1.4878451201114355 0.00045639420862313975
огни 1.048512426281173 0.00032162957861385673
экз 0.21484384804769785 0.0001318060417470539
гончаровв 2.089905111439398 0.0006410751875580976
кругосветном 2.089905111439398 0.0006410751875580976
плавании 1.7888751157754168 0.0005487346980906187
критико-биографический 1.3117538610557542 0.0004023784849864277
чешская 2.089905111439398 0.0006410751875580976
типографическая 2.089905111439398 0.0006410751875580976
уния 2.089905111439398 0.0006410751875580976
некролог 1.1868151244474543 0.00036405371915566084
нечаенко 1.390935107103379 0.0008533344215358154
миф 1.0107238653917732 0.00031003799551894884
сновиденности 2.089905111439398 0.0006410751875580976
интерпретации 1.1868151244474543 0.00036405371915566084
тургенева 0.9759617591325612 0.00029937477274004945
новь 1.0107238653917732 0.00031003799551894884
сновидений 1.3117538610557542 0.0004023784849864277
веков 0.7888751157754168 0.00024198623183294994
фольклорные 1.1868151244474543 0.00036405371915566084
мифологические 1.3117538610557542 0.0004023784849864277
библейские 1.3117538610557542 0.0004023784849864277
архетипы 1.3117538610557542 0.0004023784849864277
сновидениях 1.390935107103379 0.0004266672107679077
начала 0.31175386105575426 9.563001872875899e-05
вв 0.8346326063360918 0.0002560222718822368
университетская 1.1868151244474543 0.00036405371915566084
мельник 1.4878451201114355 0.0013691826258694193
достоевский 0.8346326063360918 0.0007680668156467103
народная 1.089905111439398 0.0010029801639012865
линия 0.8346326063360918 0.0007680668156467103
прилуко-прилуцкий 2.089905111439398 0.0006410751875580976
варшава 1.390935107103379 0.0004266672107679077
орос 2.089905111439398 0.0006410751875580976
соловьев 1.7888751157754168 0.0010974693961812373
биогр 0.8857851287834732 0.00027171322968818197
евгения 0.67493176346858 0.00020703428327257056
соловьева 2.089905111439398 0.0006410751875580976
грав 1.7888751157754168 0.0005487346980906187
адтом 2.089905111439398 0.0006410751875580976
сойкина 1.7888751157754168 0.0005487346980906187
фронт 0.7676858167054786 0.00023548644684217137
биографическая 1.0107238653917732 0.00031003799551894884
флорентия 2.089905111439398 0.0006410751875580976
павленкова 1.4878451201114355 0.00045639420862313975
разбор 1.4878451201114355 0.00045639420862313975
главнейших 1.7888751157754168 0.0005487346980906187
учащихся 1.4878451201114355 0.00045639420862313975
каневского 1.7888751157754168 0.0005487346980906187
труайя 1.390935107103379 0.0004266672107679077
анри 1.6127838567197355 0.0004947189744539066
пер 0.6127838567197355 0.0001879705081962379
фр 0.67493176346858 0.00020703428327257056
руновой 2.089905111439398 0.0006410751875580976
центр 0.6427470800971787 0.00019716168101140453
рудомино 2.089905111439398 0.0006410751875580976
фот 1.6127838567197355 0.0004947189744539066
хозиева 1.7888751157754168 0.0005487346980906187
поэты 0.7676858167054786 0.00023548644684217137
краткий 1.0107238653917732 0.00031003799551894884
рипол 1.4878451201114355 0.00045639420862313975
классик 0.8594561900611241 0.00026363686811690923
цейтлин 1.4878451201114355 0.00045639420862313975
ан 0.7096938697277919 0.00021769750605146992
шулятиков 1.6127838567197355 0.0004947189744539066
проповедник 1.7888751157754168 0.0005487346980906187
живого 1.390935107103379 0.0004266672107679077
дела 0.584755133119492 0.00017937274022070308
курьер 1.390935107103379 0.0004266672107679077
тексты 0.3575113516164294 0.00010966605877804583
максима 0.584755133119492 0.00017937274022070308
мошкова 0.6919651027673603 0.0002122592339777179
руниверс 1.6127838567197355 0.0004947189744539066
список 0.48784512011143555 0.00014964574236547102
краткая 0.5985434176051253 0.0001836022753389955
хроника 0.8857851287834732 0.00027171322968818197
могила 0.5101215148225878 0.00015647899227686743
информационно-справочный 2.089905111439398 0.0006410751875580976
портал 0.6585413472804106 0.00020200654824552473
аудиокниги 2.089905111439398 0.0006410751875580976
последний 0.0 0.0
редактировалась 0.029207271085786267 8.959285609136893e-06
января 0.09426991684184802 5.783430481094971e-05
страница 0.0 0.0
отредактирована 0.0 0.0
доступно 0.0 0.0
лицензии 0.0 0.0
указано 0.0 0.0
иное 0.0 0.0
политика 0.0 0.0
конфиденциальности 0.0 0.0
свяжитесь 0.0 0.0
нами 0.0 0.0
условия 0.0 0.0
использования 0.0 0.0
настольная 0.0 0.0
версия 0.0 0.0
разработчики 0.0 0.0
статистика 0.0 0.0
заявление 0.0 0.0
куки 0.0 0.0
