вольский 1.7888751157754168 0.0318494085894733
артур 1.390935107103379 0.03714663490780538
витальевич 1.7888751157754168 0.01592470429473665
википедия 0.0 0.0
открыть 0.0 0.0
главное 0.0 0.0
меню 0.0 0.0
главная 0.0 0.0
случайная 0.0 0.0
поблизости 0.0 0.0
войти 0.0 0.0
пожертвовать 0.0 0.0
описание 0.0 0.0
википедии 0.0 0.0
отказ 0.0 0.0
ответственности 0.0 0.0
найти 0.0 0.0
язык 0.0 0.0
следить 0.0 0.0
править 0.0 0.0
статьи 0.04851242628117289 0.0001439537871844893
других 0.04068708876921636 0.00012073320109559751
людях 0.10313337717315306 0.00030603376015772424
фамилией 0.18681512444745438 0.0005543475502891821
см 0.18681512444745438 0.0005543475502891821
арту́р 2.089905111439398 0.024805995388004726
вóльский 2.089905111439398 0.006201498847001182
наст 1.0107238653917732 0.005998361218942274
вóльский-зейдель 2.089905111439398 0.006201498847001182
белор 2.089905111439398 0.006201498847001182
вóльскі 2.089905111439398 0.006201498847001182
зэ́йдэль-вóльскі 2.089905111439398 0.006201498847001182
сентября 0.15540666019583024 0.0027668841577892624
койданово 2.089905111439398 0.012402997694002363
современный 1.048512426281173 0.0031113128376295935
держинск 2.089905111439398 0.012402997694002363
минская 2.089905111439398 0.006201498847001182
область 0.43669259766405427 0.001295823731940814
минск 1.135662602000073 0.01010975610089086
советский 0.29751342194114405 0.0008828291452259467
белорусский 1.7888751157754168 0.021232939059648865
писатель 0.08990511143939793 0.0005335614922219461
вольскийимя 2.089905111439398 0.006201498847001182
рождении 0.38233493534146157 0.0011345250306868295
зейдель-вольский 2.089905111439398 0.006201498847001182
дата 0.014358150046867215 8.521157297844045e-05
рождения 0.014358150046867215 8.521157297844045e-05
место 0.021719249693236305 0.0001288976242922036
совр 1.4878451201114355 0.004414970682823251
смерти 0.0770678867342257 0.00045737618239896557
лет 0.06459924617462771 0.00038337831557642564
гражданство 0.025447122212479436 7.55107484049835e-05
ссср 0.08558373765675535 0.0007618730355200774
род 0.007119741122947827 2.112682825800542e-05
деятельности 0.010723865391773066 3.182155902603284e-05
прозаик 0.2510560207021426 0.0007449733551992362
сценарист 0.5584261943971428 0.0016570510219499786
поэт 0.39970903141088426 0.0011860802119017337
переводчик 0.5458370670891223 0.0016196945610953183
драматург 0.5101215148225878 0.0015137136938355722
произведений 0.021719249693236305 6.44488121461018e-05
премии 0.2206733917084217 0.0006548171860784027
награды 0.2448070714251411 0.001452860958012707
содержание 0.0 0.0
биография 0.0770678867342257 0.00022868809119948278
творчество 0.20909151915860658 0.0006204496117466071
литература 0.1214221628854628 0.00036030315396279767
примечания 0.07287177214061759 0.000216236712583435
биографияправить 0.06871581236945988 0.0002039044877432044
родился 0.1503858588207794 0.00044624883923079944
году 0.018023104133272592 0.0003743671481688669
семье 0.19227802014895654 0.0005705579232906722
писателя 0.15540666019583024 0.00046114735963154375
виталия 2.089905111439398 0.006201498847001182
вольского 2.089905111439398 0.012402997694002363
год 0.09867903574690305 0.0002928161298127687
учился 0.3656292418386089 0.0010849532398771778
витебским 2.089905111439398 0.006201498847001182
художественным 1.0107238653917732 0.002999180609471137
училище 0.6127838567197355 0.0018183497232039628
года 0.018023104133272592 0.00021392408466792395
работал 0.21484384804769785 0.0012750376738735777
художником 1.0107238653917732 0.002999180609471137
бдт-2 2.089905111439398 0.006201498847001182
пока 0.46665582104149744 0.0013847353740103782
призван 0.9759617591325612 0.00289602895885033
службу 0.5584261943971428 0.0016570510219499786
военно-морской 1.7888751157754168 0.005308234764912216
флот 1.6127838567197355 0.004785708773649067
которая 0.31905309979725377 0.0009467451032559459
прошла 0.811151510486569 0.002406977775924537
дальним 2.089905111439398 0.006201498847001182
востоке 1.135662602000073 0.0033699187002969528
участвовал 0.49884050441289873 0.0014802388854982158
сражениях 1.7888751157754168 0.005308234764912216
советско-японской 2.089905111439398 0.006201498847001182
войне 0.5985434176051253 0.001776093227314912
демобилизован 1.390935107103379 0.004127403878645042
заведующим 1.1868151244474543 0.003521706600734286
отдела 0.811151510486569 0.002406977775924537
культуры 0.31905309979725377 0.0009467451032559459
быта 0.7096938697277919 0.002105916527382172
редакции 0.5713911715615104 0.001695522764277479
газеты 0.39093510710337914 0.0011600448281999381
чырвоная 2.089905111439398 0.006201498847001182
змена 2.089905111439398 0.006201498847001182
ответственным 1.6127838567197355 0.004785708773649067
секретарём 0.94377707576116 0.002800525447362493
журналов 0.7676858167054786 0.0022779994560993434
бярозка 2.089905111439398 0.006201498847001182
вясёлка 2.089905111439398 0.006201498847001182
окончил 0.31905309979725377 0.0009467451032559459
высшие 1.135662602000073 0.0033699187002969528
литературные 0.39093510710337914 0.0011600448281999381
курсы 1.048512426281173 0.0031113128376295935
москве 0.1503858588207794 0.00044624883923079944
предложению 1.2448070714251411 0.0036937895294514573
руководства 1.1868151244474543 0.003521706600734286
белорусского 1.7888751157754168 0.005308234764912216
республиканского 1.6127838567197355 0.004785708773649067
театра 0.49884050441289873 0.0029604777709964316
юного 1.0107238653917732 0.005998361218942274
зрителя 1.135662602000073 0.0067398374005939055
возглавил 1.2448070714251411 0.0036937895294514573
литературную 0.6275071135404419 0.0018620389125829136
часть 0.31905309979725377 0.0009467451032559459
назначен 0.7676858167054786 0.004555998912198687
директором 0.94377707576116 0.005601050894724986
оставался 0.811151510486569 0.002406977775924537
дома 0.38233493534146157 0.0011345250306868295
литератора 0.8346326063360918 0.002476654618207988
литературный 0.29751342194114405 0.0008828291452259467
консультант 1.6127838567197355 0.004785708773649067
сп 0.9759617591325612 0.00289602895885033
бсср 2.089905111439398 0.006201498847001182
годах 0.20909151915860658 0.0006204496117466071
старший 0.6585413472804106 0.0019541286269448388
редактор 0.4564366558598114 0.0013544114417205087
издательство 0.29751342194114405 0.0008828291452259467
юнацтва 1.7888751157754168 0.005308234764912216
стал 0.18681512444745438 0.0005543475502891821
членом 0.43669259766405427 0.001295823731940814
союза 0.34171708443319754 0.0010139972831845624
писателей 0.1503858588207794 0.00044624883923079944
похоронен 0.33403025576690654 0.000991187702572423
северном 1.1868151244474543 0.003521706600734286
кладбище 0.2573961987331616 0.0007637869398610137
минске 2.089905111439398 0.006201498847001182
сын 0.27699175479654237 0.0008219339904941911
артура 1.6127838567197355 0.0143571263209472
музыкант 1.2448070714251411 0.0036937895294514573
лявон 2.089905111439398 0.006201498847001182
творчествоправить 0.6275071135404419 0.0018620389125829136
запомни 2.089905111439398 0.006201498847001182
юный 1.2448070714251411 0.0036937895294514573
пешеход 2.089905111439398 0.006201498847001182
наградыправить 0.7888751157754168 0.0023408757144671123
награждён 0.5713911715615104 0.001695522764277479
орденами 1.3117538610557542 0.003892444691560102
отечественной 0.3656292418386089 0.0010849532398771778
войны 0.23257261500812945 0.0006901264540300578
степени 0.4086638740638107 0.0012126524452932069
знаком 0.728177275421805 0.0021607634285513502
почести 1.7888751157754168 0.005308234764912216
медалью 0.8594561900611241 0.0025503151040389437
боевые 1.2448070714251411 0.0036937895294514573
заслуги 0.7474824306171917 0.002218048755540628
другими 0.6427470800971787 0.0019072613652735275
медалями 1.3117538610557542 0.003892444691560102
литератураправить 0.21484384804769785 0.0006375188369367889
беларускія 2.089905111439398 0.012402997694002363
пісьменнікі 2.089905111439398 0.012402997694002363
даведнік 2.089905111439398 0.006201498847001182
склад 1.3117538610557542 0.003892444691560102
а. 0.04851242628117289 0.00043186136155346785
к. 0.21484384804769785 0.0006375188369367889
гардзіцкі 2.089905111439398 0.006201498847001182
нав 2.089905111439398 0.006201498847001182
рэд 2.089905111439398 0.012402997694002363
л. 0.1604861857251052 0.00047622013568280474
верабей 2.089905111439398 0.006201498847001182
мн 1.4878451201114355 0.013244912048469754
мастацкая 2.089905111439398 0.006201498847001182
літаратура 2.089905111439398 0.006201498847001182
с. 0.11218150615055017 0.00033288280756839817
вольскі 2.089905111439398 0.018604496541003546
біябібліяграфічны 2.089905111439398 0.006201498847001182
слоўнік 2.089905111439398 0.006201498847001182
пад 2.089905111439398 0.006201498847001182
мальдзіса 2.089905111439398 0.006201498847001182
белэн 2.089905111439398 0.006201498847001182
стэльмах 2.089905111439398 0.012402997694002363
д. 0.1814200925607482 0.0010766771071854494
театр 0.4564366558598114 0.0027088228834410174
родной 0.728177275421805 0.0021607634285513502
дом 0.22658225131894205 0.0013447017882429796
вольскага 2.089905111439398 0.012402997694002363
республиканский 1.7888751157754168 0.005308234764912216
верасн 2.089905111439398 0.012402997694002363
эл.ресурс 2.089905111439398 0.012402997694002363
орлов 1.135662602000073 0.0033699187002969528
в. 0.11677725783969929 0.00034652005293679314
имена 0.811151510486569 0.002406977775924537
свободы 0.7676858167054786 0.0022779994560993434
радио 0.5101215148225878 0.0015137136938355722
свобода 0.5713911715615104 0.001695522764277479
кастр 2.089905111439398 0.012402997694002363
тэатр 2.089905111439398 0.012402997694002363
яго 2.089905111439398 0.006201498847001182
родны 2.089905111439398 0.006201498847001182
пра 2.089905111439398 0.006201498847001182
беларускі 2.089905111439398 0.006201498847001182
рэспубліканскі 2.089905111439398 0.006201498847001182
юнага 2.089905111439398 0.006201498847001182
гледача 2.089905111439398 0.006201498847001182
эл.рэсурс 2.089905111439398 0.012402997694002363
биографический 0.42714727975782385 0.0012674993464623853
справочник 0.9759617591325612 0.00289602895885033
белорусская 2.089905111439398 0.006201498847001182
советская 0.2573961987331616 0.0007637869398610137
энциклопедия 0.20909151915860658 0.0006204496117466071
имени 0.20909151915860658 0.0006204496117466071
петруся 2.089905111439398 0.006201498847001182
бровки 2.089905111439398 0.006201498847001182
неопр. 0.1454224392892293 0.0004315205913626982
арлоў 2.089905111439398 0.006201498847001182
у. 1.3117538610557542 0.003892444691560102
свабоды 2.089905111439398 0.006201498847001182
радыё 2.089905111439398 0.006201498847001182
свабода 2.089905111439398 0.006201498847001182
источник 0.0 0.0
последний 0.0 0.0
редактировалась 0.029207271085786267 8.666846019521148e-05
эта 0.0 0.0
страница 0.0 0.0
отредактирована 0.0 0.0
доступно 0.0 0.0
лицензии 0.0 0.0
указано 0.0 0.0
иное 0.0 0.0
политика 0.0 0.0
конфиденциальности 0.0 0.0
свяжитесь 0.0 0.0
нами 0.0 0.0
условия 0.0 0.0
использования 0.0 0.0
настольная 0.0 0.0
версия 0.0 0.0
разработчики 0.0 0.0
статистика 0.0 0.0
заявление 0.0 0.0
куки 0.0 0.0
